/* XPM */
static char * backlight_off1_xpm[] = {
"58 58 8 1",
" 	c None",
".	c #9200FF s BDark",
"+	c #484C46",
"@	c #FF5800 s BLight",
"#	c #7C827C",
"$	c #8E968A",
"%	c #767C6F",
"&	c #020202",
"  ......................................................  ",
" ........................................................ ",
"...+++++++++++++++++++++++++++++++++++++++++++++++++++++.@",
"..++####################################################.@",
"..+##$$$$$$$$$$$$$$$$$$$$$$$$$$$$$$$$$$$$$$$$$$$$$$$$$$$.@",
"..+#$$$%%%%%%$$$$$$%%%%%%$$$$$$$$$%%%%%%$$$$$$%%%%%%$$$$.@",
"..+#$%$$%%%%$$%$$%$$%%%%$$%$$$$$%$$%%%%$$%$$%$$%%%%$$%$$.@",
"..+#$%%$$$$$$%%$$%%$$$$$$%%$$$$$%%$$$$$$%%$$%%$$$$$$%%$$.@",
"..+#$%%$$$$$$%%$$%%$$$$$$%%$$$$$%%$$$$$$%%$$%%$$$$$$%%$$.@",
"..+#$%%$$$$$$%%$$%%$$$$$$%%$$$$$%%$$$$$$%%$$%%$$$$$$%%$$.@",
"..+#$%%$$$$$$%%$$%%$$$$$$%%$&&$$%%$$$$$$%%$$%%$$$$$$%%$$.@",
"..+#$%%$$$$$$%%$$%%$$$$$$%%$&&%$%%$$$$$$%%$$%%$$$$$$%%$$.@",
"..+#$%%$$$$$$%%$$%%$$$$$$%%$$%%$%%$$$$$$%%$$%%$$$$$$%%$$.@",
"..+#$%%$$$$$$%%$$%%$$$$$$%%$$$$$%%$$$$$$%%$$%%$$$$$$%%$$.@",
"..+#$%$$%%%%$$%$$%$$%%%%$$%$$$$$%$$%%%%$$%$$%$$%%%%$$%$$.@",
"..+#$$$%%%%%%$$$$$$%%%%%%$$$$$$$$$%%%%%%$$$$$$%%%%%%$$$$.@",
"..+#$%$$$$$$$$%$$%$$$$$$$$%$$$$$%$$$$$$$$%$$%$$$$$$$$%$$.@",
"..+#$%%$$$$$$%%$$%%$$$$$$%%$$$$$%%$$$$$$%%$$%%$$$$$$%%$$.@",
"..+#$%%$$$$$$%%$$%%$$$$$$%%$$$$$%%$$$$$$%%$$%%$$$$$$%%$$.@",
"..+#$%%$$$$$$%%$$%%$$$$$$%%$&&$$%%$$$$$$%%$$%%$$$$$$%%$$.@",
"..+#$%%$$$$$$%%$$%%$$$$$$%%$&&%$%%$$$$$$%%$$%%$$$$$$%%$$.@",
"..+#$%%$$$$$$%%$$%%$$$$$$%%$$%%$%%$$$$$$%%$$%%$$$$$$%%$$.@",
"..+#$%%$$$$$$%%$$%%$$$$$$%%$$$$$%%$$$$$$%%$$%%$$$$$$%%$$.@",
"..+#$%$$%%%%$$%$$%$$%%%%$$%$$$$$%$$%%%%$$%$$%$$%%%%$$%$$.@",
"..+#$$$%%%%%%$$$$$$%%%%%%$$$$$$$$$%%%%%%$$$$$$%%%%%%$$$$.@",
"..+#$$$$$$$$$$$$$$$$$$$$$$$$$$$$$$$$$$$$$$$$$$$$$$$$$$$$.@",
"..+#$&&&&&&&&&&&&&&&&&&&&&&&&&&&&&&&$$%%%$%%%$%%%$&$$$&$.@",
"..+#$&%%%%%%%%%%%%%%%%%%%%%%%%%%%%%%&$%%%$%%%$%%%$$%$&$%.@",
"..+#$&%%%%%%%%%%%%%%%%%%%%%%%%%%%%%%&$%%%$%%%$%%%$$$&$%$.@",
"..+#$&%%%%%%%%%%%%%%%%%%%%%%%%%%%%%%&$%%%$%%%$%%%$$&$%$$.@",
"..+#$&&&&&&&&&&&&&&&&&&&&&&&&&&&&&&&$$%%%$%%%$%%%$&$%$&$.@",
"..+#$$$$$$$$$$$$$$$$$$$$$$$$$$$$$$$$$$$$$$$$$$$$$$$%$$$%.@",
"..+#$&&&&&&&&&&&&&&&&&&&&&&&&&&&&&&&$$%%%$%%%$%%%$&$$$&$.@",
"..+#$&%%%%%%%%%%%%%%%%%%%%%%%%%%%%%%&$%%%$%%%$%%%$$%$&$%.@",
"..+#$&%%%%%%%%%%%%%%%%%%%%%%%%%%%%%%&$%%%$%%%$%%%$$$&$%$.@",
"..+#$&%%%%%%%%%%%%%%%%%%%%%%%%%%%%%%&$%%%$%%%$%%%$$&$%$$.@",
"..+#$&&&&&&&&&&&&&&&&&&&&&&&&&&&&&&&$$%%%$%%%$%%%$&$%$&$.@",
"..+#$$$$$$$$$$$$$$$$$$$$$$$$$$$$$$$$$$$$$$$$$$$$$$$%$$$%.@",
"..+#$$$$$$$$$$$$$$$$$$$$$$$$$$$$$$$$$$%%%%%%%%%%%%%%%%%$.@",
"..+#$$$%%%$$$$$$$%%%%%%%%$$$%%%%%%%%$$%$%%%%%$$%%$%%%$%$.@",
"..+#$%%%$$%$$%$$%%$$$$$$%$$%%$$$$$$%$$%$%%%%$%%$%$%%%$%$.@",
"..+#$$$%$$%%%$$$%%$$$$$$%$$%%$$$$$$%$$%$%%%%$%%$%$%$%$%$.@",
"..+#$%%%$$%$$$$$%%$$$$$$%$$%%$$$$$$%$$%$%%%%$%%$%$$%$$%$.@",
"..+#$$$%%%$$$$$$$%%%%%%%%$$$%%%%%%%%$$%$$$$%%$$%%$%%%$%$.@",
"..+#$$$$$$$$$$$$$$$$$$$$$$$$$$$$$$$$$$%%%%%%%%%%%%%%%%%$.@",
"..+#$$$$$$$$$$$$$$$$$$$$$$$$$$$$$$$$$$$$$$$$$$$$$$$$$$$$.@",
"..+#$$%%%$$$%%%$$$%%%$$$%%%$$$%%%$$$$%$%$$$%$%$$$$$%%%%$.@",
"..+#$%$$$%$%$$$%$%$$$%$%$$$%$%$$$%$$%$%$%$%$%$%$$$%$$$$$.@",
"..+#$%$$$%$%$$$%$%$$$%$%$$$%$%$$$%$$%$%$%$%$%$%$$$%$$$$$.@",
"..+#$%$$$%$%$$$%$%$$$%$%$$$%$%$$$%$$%$%$%$%$%$%$$$$%%%%$.@",
"..+#$$%%%$$$%%%$$$%%%$$$%%%$$$%%%$$$$%$%$$$%$%$$$$$$$$$$.@",
"..+#$%$$$%$%$$$%$%$$$%$%$$$%$%$$$%$$%$%$%$%$%$%$$$%%$$%$.@",
"..+#$%$$$%$%$$$%$%$$$%$%$$$%$%$$$%$$%$%$%$%$%$%$$$%$%$%$.@",
"..+#$%$$$%$%$$$%$%$$$%$%$$$%$%$$$%$$%$%$%$%$%$%$$$%$$%%$.@",
"..+#$$%%%$$$%%%$$$%%%$$$%%%$$$%%%$$$$%$%$$$%$%$$$$%$$$%$.@",
"..+#$$$$$$$$$$$$$$$$$$$$$$$$$$$$$$$$$$$$$$$$$$$$$$$$$$$..@",
" .......................................................@ ",
"  @@@@@@@@@@@@@@@@@@@@@@@@@@@@@@@@@@@@@@@@@@@@@@@@@@@@@@  "};
