/* XPM */
static char * parts2_xpm[] = {
"208 352 8 1",
" 	c None",
".	c #8E968A",
"+	c #020202",
"@	c #767C6F",
"#	c #6EC63B s Back0",
"$	c #6CB237 s Back1",
"%	c #FFFFFF",
"&	c #3E463E",
"....++++++++++++........@@@@@@@@@@@@........++++++++++++........++++++++++++........@@@@@@@@@@@@........++++++++++++........++++++++++++........++++++++++++........++++++++++++........++++++++++++....++++++++",
"....++++++++++++........@@@@@@@@@@@@........++++++++++++........++++++++++++........@@@@@@@@@@@@........++++++++++++........++++++++++++........++++++++++++........++++++++++++........++++++++++++....++++++++",
"++....++++++++....++@@....@@@@@@@@....++@@....++++++++....++@@....++++++++....++++....@@@@@@@@....++++....++++++++....@@++....++++++++....@@@@....++++++++....++++....++++++++....++++....++++++++....++....####",
"++....++++++++....++@@....@@@@@@@@....++@@....++++++++....++@@....++++++++....++++....@@@@@@@@....++++....++++++++....@@++....++++++++....@@@@....++++++++....++++....++++++++....++++....++++++++....++....####",
"++++............++++@@@@............++++@@@@............++++@@@@............++++++++............++++++++............@@@@++++............@@@@@@@@............++++++++............++++++++............++++++++++++",
"++++............++++@@@@............++++@@@@............++++@@@@............++++++++............++++++++............@@@@++++............@@@@@@@@............++++++++............++++++++............++++++++++++",
"++++............++++@@@@............++++@@@@............++++@@@@............++++++++............++++++++............@@@@++++............@@@@@@@@............++++++++............++++++++............++++....####",
"++++............++++@@@@............++++@@@@............++++@@@@............++++++++............++++++++............@@@@++++............@@@@@@@@............++++++++............++++++++............++++....####",
"++++............++++@@@@............++++@@@@............++++@@@@............++++++++............++++++++............@@@@++++............@@@@@@@@............++++++++............++++++++............++++++++++++",
"++++............++++@@@@............++++@@@@............++++@@@@............++++++++............++++++++............@@@@++++............@@@@@@@@............++++++++............++++++++............++++++++++++",
"++++............++++@@@@............++++@@@@............++++@@@@............++++++++............++++++++............@@@@++++............@@@@@@@@............++++++++............++++++++............++++....####",
"++++............++++@@@@............++++@@@@............++++@@@@............++++++++............++++++++............@@@@++++............@@@@@@@@............++++++++............++++++++............++++....####",
"++++............++++@@@@............++++@@@@............++++@@@@............++++++++............++++++++............@@@@++++............@@@@@@@@............++++++++............++++++++............++++++++++++",
"++++............++++@@@@............++++@@@@............++++@@@@............++++++++............++++++++............@@@@++++............@@@@@@@@............++++++++............++++++++............++++++++++++",
"++++............++++@@@@............++++@@@@............++++@@@@............++++++++............++++++++............@@@@++++............@@@@@@@@............++++++++............++++++++............++++....####",
"++++............++++@@@@............++++@@@@............++++@@@@............++++++++............++++++++............@@@@++++............@@@@@@@@............++++++++............++++++++............++++....####",
"++++............++++@@@@............++++@@@@............++++@@@@............++++++++............++++++++............@@@@++++............@@@@@@@@............++++++++............++++++++............++++++++++++",
"++++............++++@@@@............++++@@@@............++++@@@@............++++++++............++++++++............@@@@++++............@@@@@@@@............++++++++............++++++++............++++++++++++",
"++....@@@@@@@@....++@@....@@@@@@@@....++@@....++++++++....++@@....++++++++....++++....++++++++....++++....++++++++....@@++....++++++++....@@@@....@@@@@@@@....++++....++++++++....++++....++++++++....++....####",
"++....@@@@@@@@....++@@....@@@@@@@@....++@@....++++++++....++@@....++++++++....++++....++++++++....++++....++++++++....@@++....++++++++....@@@@....@@@@@@@@....++++....++++++++....++++....++++++++....++....####",
"....@@@@@@@@@@@@........@@@@@@@@@@@@........++++++++++++........++++++++++++........++++++++++++........++++++++++++........++++++++++++........@@@@@@@@@@@@........++++++++++++........++++++++++++....++++++++",
"....@@@@@@@@@@@@........@@@@@@@@@@@@........++++++++++++........++++++++++++........++++++++++++........++++++++++++........++++++++++++........@@@@@@@@@@@@........++++++++++++........++++++++++++....++++++++",
"++................++@@................++++................@@@@................++@@................++@@................++++................++@@................++++................++@@................++....####",
"++................++@@................++++................@@@@................++@@................++@@................++++................++@@................++++................++@@................++....####",
"++++............++++@@@@............++++++++............@@@@@@@@............++++@@@@............++++@@@@............++++++++............++++@@@@............++++++++............++++@@@@............++++++++++++",
"++++............++++@@@@............++++++++............@@@@@@@@............++++@@@@............++++@@@@............++++++++............++++@@@@............++++++++............++++@@@@............++++++++++++",
"++++............++++@@@@............++++++++............@@@@@@@@............++++@@@@............++++@@@@............++++++++............++++@@@@............++++++++............++++@@@@............++++....####",
"++++............++++@@@@............++++++++............@@@@@@@@............++++@@@@............++++@@@@............++++++++............++++@@@@............++++++++............++++@@@@............++++....####",
"++++............++++@@@@............++++++++............@@@@@@@@............++++@@@@............++++@@@@............++++++++............++++@@@@............++++++++............++++@@@@............++++++++++++",
"++++............++++@@@@............++++++++............@@@@@@@@............++++@@@@............++++@@@@............++++++++............++++@@@@............++++++++............++++@@@@............++++++++++++",
"++++............++++@@@@............++++++++............@@@@@@@@............++++@@@@............++++@@@@............++++++++............++++@@@@............++++++++............++++@@@@............++++....####",
"++++............++++@@@@............++++++++............@@@@@@@@............++++@@@@............++++@@@@............++++++++............++++@@@@............++++++++............++++@@@@............++++....####",
"++++............++++@@@@............++++++++............@@@@@@@@............++++@@@@............++++@@@@............++++++++............++++@@@@............++++++++............++++@@@@............++++++++++++",
"++++............++++@@@@............++++++++............@@@@@@@@............++++@@@@............++++@@@@............++++++++............++++@@@@............++++++++............++++@@@@............++++++++++++",
"++++............++++@@@@............++++++++............@@@@@@@@............++++@@@@............++++@@@@............++++++++............++++@@@@............++++++++............++++@@@@............++++....####",
"++++............++++@@@@............++++++++............@@@@@@@@............++++@@@@............++++@@@@............++++++++............++++@@@@............++++++++............++++@@@@............++++....####",
"++....++++++++....++@@....@@@@@@@@....++++....++++++++....@@@@....++++++++....++@@....@@@@@@@@....++@@....++++++++....++++....++++++++....++@@....@@@@@@@@....++++....++++++++....++@@....++++++++....++++++++++",
"++....++++++++....++@@....@@@@@@@@....++++....++++++++....@@@@....++++++++....++@@....@@@@@@@@....++@@....++++++++....++++....++++++++....++@@....@@@@@@@@....++++....++++++++....++@@....++++++++....++++++++++",
"....++++++++++++........@@@@@@@@@@@@........++++++++++++........++++++++++++........@@@@@@@@@@@@........++++++++++++........++++++++++++........@@@@@@@@@@@@........++++++++++++........++++++++++++........####",
"....++++++++++++........@@@@@@@@@@@@........++++++++++++........++++++++++++........@@@@@@@@@@@@........++++++++++++........++++++++++++........@@@@@@@@@@@@........++++++++++++........++++++++++++........####",
"####++++++++++++########$$$$$$$$$$$$########++++++++++++########++++++++++++########$$$$$$$$$$$$########++++++++++++########++++++++++++########++++++++++++########++++++++++++########++++++++++++####++++++++",
"####++++++++++++########$$$$$$$$$$$$########++++++++++++########++++++++++++########$$$$$$$$$$$$########++++++++++++########++++++++++++########++++++++++++########++++++++++++########++++++++++++####++++++++",
"++####++++++++####++$$####$$$$$$$$####++$$####++++++++####++$$####++++++++####++++####$$$$$$$$####++++####++++++++####$$++####++++++++####$$$$####++++++++####++++####++++++++####++++####++++++++####++%%%%%%%%",
"++####++++++++####++$$####$$$$$$$$####++$$####++++++++####++$$####++++++++####++++####$$$$$$$$####++++####++++++++####$$++####++++++++####$$$$####++++++++####++++####++++++++####++++####++++++++####++%%%%%%%%",
"++++############++++$$$$############++++$$$$############++++$$$$############++++++++############++++++++############$$$$++++############$$$$$$$$############++++++++############++++++++############++++%%%%%%%%",
"++++############++++$$$$############++++$$$$############++++$$$$############++++++++############++++++++############$$$$++++############$$$$$$$$############++++++++############++++++++############++++%%%%%%%%",
"++++############++++$$$$############++++$$$$############++++$$$$############++++++++############++++++++############$$$$++++############$$$$$$$$############++++++++############++++++++############++++%%%%%%%%",
"++++############++++$$$$############++++$$$$############++++$$$$############++++++++############++++++++############$$$$++++############$$$$$$$$############++++++++############++++++++############++++%%%%%%%%",
"++++############++++$$$$############++++$$$$############++++$$$$############++++++++############++++++++############$$$$++++############$$$$$$$$############++++++++############++++++++############++++%%%%%%%%",
"++++############++++$$$$############++++$$$$############++++$$$$############++++++++############++++++++############$$$$++++############$$$$$$$$############++++++++############++++++++############++++%%%%%%%%",
"++++############++++$$$$############++++$$$$############++++$$$$############++++++++############++++++++############$$$$++++############$$$$$$$$############++++++++############++++++++############++++%%%%%%%%",
"++++############++++$$$$############++++$$$$############++++$$$$############++++++++############++++++++############$$$$++++############$$$$$$$$############++++++++############++++++++############++++%%%%%%%%",
"++++############++++$$$$############++++$$$$############++++$$$$############++++++++############++++++++############$$$$++++############$$$$$$$$############++++++++############++++++++############++++%%%%%%%%",
"++++############++++$$$$############++++$$$$############++++$$$$############++++++++############++++++++############$$$$++++############$$$$$$$$############++++++++############++++++++############++++%%%%%%%%",
"++++############++++$$$$############++++$$$$############++++$$$$############++++++++############++++++++############$$$$++++############$$$$$$$$############++++++++############++++++++############++++%%%%%%%%",
"++++############++++$$$$############++++$$$$############++++$$$$############++++++++############++++++++############$$$$++++############$$$$$$$$############++++++++############++++++++############++++%%%%%%%%",
"++++############++++$$$$############++++$$$$############++++$$$$############++++++++############++++++++############$$$$++++############$$$$$$$$############++++++++############++++++++############++++%%%%%%%%",
"++++############++++$$$$############++++$$$$############++++$$$$############++++++++############++++++++############$$$$++++############$$$$$$$$############++++++++############++++++++############++++%%%%%%%%",
"++####$$$$$$$$####++$$####$$$$$$$$####++$$####++++++++####++$$####++++++++####++++####++++++++####++++####++++++++####$$++####++++++++####$$$$####$$$$$$$$####++++####++++++++####++++####++++++++####++%%%%%%%%",
"++####$$$$$$$$####++$$####$$$$$$$$####++$$####++++++++####++$$####++++++++####++++####++++++++####++++####++++++++####$$++####++++++++####$$$$####$$$$$$$$####++++####++++++++####++++####++++++++####++%%%%%%%%",
"####$$$$$$$$$$$$########$$$$$$$$$$$$########++++++++++++########++++++++++++########++++++++++++########++++++++++++########++++++++++++########$$$$$$$$$$$$########++++++++++++########++++++++++++####%%%%%%%%",
"####$$$$$$$$$$$$########$$$$$$$$$$$$########++++++++++++########++++++++++++########++++++++++++########++++++++++++########++++++++++++########$$$$$$$$$$$$########++++++++++++########++++++++++++####%%%%%%%%",
"++################++$$################++++################$$$$################++$$################++$$################++++################++$$################++++################++$$################++..++++++",
"++################++$$################++++################$$$$################++$$################++$$################++++################++$$################++++################++$$################++..++++++",
"++++############++++$$$$############++++++++############$$$$$$$$############++++$$$$############++++$$$$############++++++++############++++$$$$############++++++++############++++$$$$############++++++......",
"++++############++++$$$$############++++++++############$$$$$$$$############++++$$$$############++++$$$$############++++++++############++++$$$$############++++++++############++++$$$$############++++++......",
"++++############++++$$$$############++++++++############$$$$$$$$############++++$$$$############++++$$$$############++++++++############++++$$$$############++++++++############++++$$$$############++++++......",
"++++############++++$$$$############++++++++############$$$$$$$$############++++$$$$############++++$$$$############++++++++############++++$$$$############++++++++############++++$$$$############++++++......",
"++++############++++$$$$############++++++++############$$$$$$$$############++++$$$$############++++$$$$############++++++++############++++$$$$############++++++++############++++$$$$############++++++......",
"++++############++++$$$$############++++++++############$$$$$$$$############++++$$$$############++++$$$$############++++++++############++++$$$$############++++++++############++++$$$$############++++++......",
"++++############++++$$$$############++++++++############$$$$$$$$############++++$$$$############++++$$$$############++++++++############++++$$$$############++++++++############++++$$$$############++++&&@@@@@@",
"++++############++++$$$$############++++++++############$$$$$$$$############++++$$$$############++++$$$$############++++++++############++++$$$$############++++++++############++++$$$$############++++&&@@@@@@",
"++++############++++$$$$############++++++++############$$$$$$$$############++++$$$$############++++$$$$############++++++++############++++$$$$############++++++++############++++$$$$############++++++......",
"++++############++++$$$$############++++++++############$$$$$$$$############++++$$$$############++++$$$$############++++++++############++++$$$$############++++++++############++++$$$$############++++++......",
"++++############++++$$$$############++++++++############$$$$$$$$############++++$$$$############++++$$$$############++++++++############++++$$$$############++++++++############++++$$$$############++++++......",
"++++############++++$$$$############++++++++############$$$$$$$$############++++$$$$############++++$$$$############++++++++############++++$$$$############++++++++############++++$$$$############++++++......",
"++####++++++++####++$$####$$$$$$$$####++++####++++++++####$$$$####++++++++####++$$####$$$$$$$$####++$$####++++++++####++++####++++++++####++$$####$$$$$$$$####++++####++++++++####++$$####++++++++####++++......",
"++####++++++++####++$$####$$$$$$$$####++++####++++++++####$$$$####++++++++####++$$####$$$$$$$$####++$$####++++++++####++++####++++++++####++$$####$$$$$$$$####++++####++++++++####++$$####++++++++####++++......",
"####++++++++++++########$$$$$$$$$$$$########++++++++++++########++++++++++++########$$$$$$$$$$$$########++++++++++++########++++++++++++########$$$$$$$$$$$$########++++++++++++########++++++++++++####..++++++",
"####++++++++++++########$$$$$$$$$$$$########++++++++++++########++++++++++++########$$$$$$$$$$$$########++++++++++++########++++++++++++########$$$$$$$$$$$$########++++++++++++########++++++++++++####..++++++",
"..++++++....@@@@@@....++++++....++++++....@@@@@@....++++++....++++++....++++++....++++++....++++++..##++++++####$$$$$$####++++++####++++++####$$$$$$####++++++####++++++####++++++####++++++####++++++####++++++",
"..++++++....@@@@@@....++++++....++++++....@@@@@@....++++++....++++++....++++++....++++++....++++++..##++++++####$$$$$$####++++++####++++++####$$$$$$####++++++####++++++####++++++####++++++####++++++####++++++",
"++......++@@......++@@......++@@......++++......++++......@@++......@@@@......++++......++++......++++######++$$######++$$######++$$######++++######++++######$$++######$$$$######++++######++++######++++######",
"++......++@@......++@@......++@@......++++......++++......@@++......@@@@......++++......++++......++++######++$$######++$$######++$$######++++######++++######$$++######$$$$######++++######++++######++++######",
"++......++@@......++@@......++@@......++++......++++......@@++......@@@@......++++......++++......++++######++$$######++$$######++$$######++++######++++######$$++######$$$$######++++######++++######++++######",
"++......++@@......++@@......++@@......++++......++++......@@++......@@@@......++++......++++......++++######++$$######++$$######++$$######++++######++++######$$++######$$$$######++++######++++######++++######",
"++......++@@......++@@......++@@......++++......++++......@@++......@@@@......++++......++++......++++######++$$######++$$######++$$######++++######++++######$$++######$$$$######++++######++++######++++######",
"++......++@@......++@@......++@@......++++......++++......@@++......@@@@......++++......++++......++++######++$$######++$$######++$$######++++######++++######$$++######$$$$######++++######++++######++++######",
"..@@@@@@....@@@@@@....++++++....++++++....++++++....++++++....++++++....@@@@@@....++++++....++++++..##$$$$$$####$$$$$$####++++++####++++++####++++++####++++++####++++++####$$$$$$####++++++####++++++####$$$$$$",
"..@@@@@@....@@@@@@....++++++....++++++....++++++....++++++....++++++....@@@@@@....++++++....++++++..##$$$$$$####$$$$$$####++++++####++++++####++++++####++++++####++++++####$$$$$$####++++++####++++++####$$$$$$",
"++......++@@......++++......@@@@......++@@......++@@......++++......++@@......++++......++@@......++++######++$$######++++######$$$$######++$$######++$$######++++######++$$######++++######++$$######++++######",
"++......++@@......++++......@@@@......++@@......++@@......++++......++@@......++++......++@@......++++######++$$######++++######$$$$######++$$######++$$######++++######++$$######++++######++$$######++++######",
"++......++@@......++++......@@@@......++@@......++@@......++++......++@@......++++......++@@......++++######++$$######++++######$$$$######++$$######++$$######++++######++$$######++++######++$$######++++######",
"++......++@@......++++......@@@@......++@@......++@@......++++......++@@......++++......++@@......++++######++$$######++++######$$$$######++$$######++$$######++++######++$$######++++######++$$######++++######",
"++......++@@......++++......@@@@......++@@......++@@......++++......++@@......++++......++@@......++++######++$$######++++######$$$$######++$$######++$$######++++######++$$######++++######++$$######++++######",
"++......++@@......++++......@@@@......++@@......++@@......++++......++@@......++++......++@@......++++######++$$######++++######$$$$######++$$######++$$######++++######++$$######++++######++$$######++++######",
"..++++++....@@@@@@....++++++....++++++....@@@@@@....++++++....++++++....@@@@@@....++++++....++++++..##++++++####$$$$$$####++++++####++++++####$$$$$$####++++++####++++++####$$$$$$####++++++####++++++####++++++",
"..++++++....@@@@@@....++++++....++++++....@@@@@@....++++++....++++++....@@@@@@....++++++....++++++..##++++++####$$$$$$####++++++####++++++####$$$$$$####++++++####++++++####$$$$$$####++++++####++++++####++++++",
"..@@@@@@....@@@@@@....++++++....++++++....@@@@@@..&&++++++....++++++....++++++....++++++....++++++..##$$$$$$####$$$$$$####++++++####++++++####$$$$$$####++++++####++++++####++++++####++++++####++++++####++++++",
"..@@@@@@....@@@@@@....++++++....++++++....@@@@@@..&&++++++....++++++....++++++....++++++....++++++..##$$$$$$####$$$$$$####++++++####++++++####$$$$$$####++++++####++++++####++++++####++++++####++++++####++++++",
"@@..@@..@@++..++..++++..@@..++++..@@..@@++......++++......@@++......@@@@......++++......++++......++$$##$$##$$++##++##++++##$$##++++##$$##$$++######++++######$$++######$$$$######++++######++++######++++######",
"@@..@@..@@++..++..++++..@@..++++..@@..@@++......++++......@@++......@@@@......++++......++++......++$$##$$##$$++##++##++++##$$##++++##$$##$$++######++++######$$++######$$$$######++++######++++######++++######",
"@@..@@..@@++..++..++++..@@..++++..@@..@@++......++++......@@++......@@@@......++++......++++......++$$##$$##$$++##++##++++##$$##++++##$$##$$++######++++######$$++######$$$$######++++######++++######++++######",
"@@..@@..@@++..++..++++..@@..++++..@@..@@++......++++......@@++......@@@@......++++......++++......++$$##$$##$$++##++##++++##$$##++++##$$##$$++######++++######$$++######$$$$######++++######++++######++++######",
"@@..@@..@@++..++..++++..@@..++++..@@..@@++......++++......@@++......@@@@......++++......++++......++$$##$$##$$++##++##++++##$$##++++##$$##$$++######++++######$$++######$$$$######++++######++++######++++######",
"@@..@@..@@++..++..++++..@@..++++..@@..@@++......++++......@@++......@@@@......++++......++++......++$$##$$##$$++##++##++++##$$##++++##$$##$$++######++++######$$++######$$$$######++++######++++######++++######",
"..++..++....@@..@@....++..++....@@..@@....++++++&&&&++++++....++++++....@@@@@@....++++++....++++++..##++##++####$$##$$####++##++####$$##$$####++++++&&&&++++++####++++++####$$$$$$&&##++++++####++++++&&&&$$$$$$",
"..++..++....@@..@@....++..++....@@..@@....++++++&&&&++++++....++++++....@@@@@@....++++++....++++++..##++##++####$$##$$####++##++####$$##$$####++++++&&&&++++++####++++++####$$$$$$&&##++++++####++++++&&&&$$$$$$",
"++..++..++++..++..++@@..@@..@@++..@@..@@@@......++@@......++++......++@@......++++......++@@......++++##++##++++##++##++$$##$$##$$++##$$##$$$$######++$$######++++######++$$######++++######++$$######++++######",
"++..++..++++..++..++@@..@@..@@++..@@..@@@@......++@@......++++......++@@......++++......++@@......++++##++##++++##++##++$$##$$##$$++##$$##$$$$######++$$######++++######++$$######++++######++$$######++++######",
"++..++..++++..++..++@@..@@..@@++..@@..@@@@......++@@......++++......++@@......++++......++@@......++++##++##++++##++##++$$##$$##$$++##$$##$$$$######++$$######++++######++$$######++++######++$$######++++######",
"++..++..++++..++..++@@..@@..@@++..@@..@@@@......++@@......++++......++@@......++++......++@@......++++##++##++++##++##++$$##$$##$$++##$$##$$$$######++$$######++++######++$$######++++######++$$######++++######",
"++..++..++++..++..++@@..@@..@@++..@@..@@@@......++@@......++++......++@@......++++......++@@......++++##++##++++##++##++$$##$$##$$++##$$##$$$$######++$$######++++######++$$######++++######++$$######++++######",
"++..++..++++..++..++@@..@@..@@++..@@..@@@@......++@@......++++......++@@......++++......++@@......++++##++##++++##++##++$$##$$##$$++##$$##$$$$######++$$######++++######++$$######++++######++$$######++++######",
"..@@@@@@....++++++....@@@@@@....++++++....@@@@@@&&&&++++++....++++++....@@@@@@&&..++++++....++++++####$$$$$$####++++++####$$$$$$####++++++####$$$$$$&&&&++++++####++++++####$$$$$$&&##++++++####++++++####++++++",
"..@@@@@@....++++++....@@@@@@....++++++....@@@@@@&&&&++++++....++++++....@@@@@@&&..++++++....++++++####$$$$$$####++++++####$$$$$$####++++++####$$$$$$&&&&++++++####++++++####$$$$$$&&##++++++####++++++####++++++",
"++++++++++++++++++++++++++++++++++++++++++++++++++++++++++++++........++++++........++++++++++++++++++++++++++++++++++....####++++++########++++++++++++++++++++++++++++++++++##################################",
"++++++++++++++++++++++++++++++++++++++++++++++++++++++++++++++........++++++........++++++++++++++++++++++++++++++++++....####++++++########++++++++++++++++++++++++++++++++++##################################",
"++++++++++++++++++++++++++++++++++++++++++++++++++++++++++++++++..++++++....++....++++..++++++++++....++++..++++++..++....++++++####++####++++##++++++++++####++++##++++++##++##################################",
"++++++++++++++++++++++++++++++++++++++++++++++++++++++++++++++++..++++++....++....++++..++++++++++....++++..++++++..++....++++++####++####++++##++++++++++####++++##++++++##++##################################",
"++++++++++++++++++++++++++++++++++++++++++++++++++++++++++++++++......++....++++++..++..++++++++..++++..++..++++++..++....####++####++++++##++##++++++++##++++##++##++++++##++##################################",
"++++++++++++++++++++++++++++++++++++++++++++++++++++++++++++++++......++....++++++..++..++++++++..++++..++..++++++..++....####++####++++++##++##++++++++##++++##++##++++++##++##################################",
"++++++++++++++++++++++++++++++++++++++++++++++++++++++++++++++++..++++++....++......++..++++++++..++++..++..++..++..++....++++++####++######++##++++++++##++++##++##++##++##++##################################",
"++++++++++++++++++++++++++++++++++++++++++++++++++++++++++++++++..++++++....++......++..++++++++..++++..++..++..++..++....++++++####++######++##++++++++##++++##++##++##++##++##################################",
"++++++++++++++++++++++++++++++++++++++++++++++++++++++++++++++........++++++........++..++++++++..++++..++....++....++....####++++++########++##++++++++##++++##++####++####++##################################",
"++++++++++++++++++++++++++++++++++++++++++++++++++++++++++++++........++++++........++..++++++++..++++..++....++....++....####++++++########++##++++++++##++++##++####++####++##################################",
"++++++++++++++++++++++++++++++++++++++++++++++++++++++++++++++####..++++++++++++++++++........++++....++++..++++++..++....##++++++++++++++++++########++++####++++##++++++##++##################################",
"++++++++++++++++++++++++++++++++++++++++++++++++++++++++++++++####..++++++++++++++++++........++++....++++..++++++..++....##++++++++++++++++++########++++####++++##++++++##++##################################",
"++++++++++++++++++++++++++++++++++++++++++++++++++++++++++++++++##++++............++++++++++++++++++++++++++++++++++++....++++############++++++++++++++++++++++++++++++++++++##################################",
"++++++++++++++++++++++++++++++++++++++++++++++++++++++++++++++++##++++............++++++++++++++++++++++++++++++++++++....++++############++++++++++++++++++++++++++++++++++++##################################",
"++++++++++++++++++++++++++++++++++++++++++++++++++++++++++++++++##++++............++......................................++++############++####################################################################",
"++++++++++++++++++++++++++++++++++++++++++++++++++++++++++++++++##++++............++......................................++++############++####################################################################",
"++++++++++++++++++++++++++++++++++++++++++++++++++++++++++++++++##++++............++......................................++++############++####################################################################",
"++++++++++++++++++++++++++++++++++++++++++++++++++++++++++++++++##++++............++......................................++++############++####################################################################",
"++++++++++++++++++++++++++++++++++++++++++++++++++++++++++++++####..++++++++++++++++......................................##++++++++++++++++####################################################################",
"++++++++++++++++++++++++++++++++++++++++++++++++++++++++++++++####..++++++++++++++++......................................##++++++++++++++++####################################################################",
"....++++++++++++........@@@@@@@@@@@@........++++++++++++........++++++++++++........@@@@@@@@@@@@........++++++++++++........++++++++++++........++++++++++++........++++++++++++........++++++++++++....++++++++",
"....++++++++++++........@@@@@@@@@@@@........++++++++++++........++++++++++++........@@@@@@@@@@@@........++++++++++++........++++++++++++........++++++++++++........++++++++++++........++++++++++++....++++++++",
"++....++++++++....++@@....@@@@@@@@....++@@....++++++++....++@@....++++++++....++++....@@@@@@@@....++++....++++++++....@@++....++++++++....@@@@....++++++++....++++....++++++++....++++....++++++++....++........",
"++....++++++++....++@@....@@@@@@@@....++@@....++++++++....++@@....++++++++....++++....@@@@@@@@....++++....++++++++....@@++....++++++++....@@@@....++++++++....++++....++++++++....++++....++++++++....++........",
"++++............++++@@@@............++++@@@@............++++@@@@............++++++++............++++++++............@@@@++++............@@@@@@@@............++++++++............++++++++............++++++++++++",
"++++............++++@@@@............++++@@@@............++++@@@@............++++++++............++++++++............@@@@++++............@@@@@@@@............++++++++............++++++++............++++++++++++",
"++++............++++@@@@............++++@@@@............++++@@@@............++++++++............++++++++............@@@@++++............@@@@@@@@............++++++++............++++++++............++++........",
"++++............++++@@@@............++++@@@@............++++@@@@............++++++++............++++++++............@@@@++++............@@@@@@@@............++++++++............++++++++............++++........",
"++++............++++@@@@............++++@@@@............++++@@@@............++++++++............++++++++............@@@@++++............@@@@@@@@............++++++++............++++++++............++++++++++++",
"++++............++++@@@@............++++@@@@............++++@@@@............++++++++............++++++++............@@@@++++............@@@@@@@@............++++++++............++++++++............++++++++++++",
"++++............++++@@@@............++++@@@@............++++@@@@............++++++++............++++++++............@@@@++++............@@@@@@@@............++++++++............++++++++............++++........",
"++++............++++@@@@............++++@@@@............++++@@@@............++++++++............++++++++............@@@@++++............@@@@@@@@............++++++++............++++++++............++++........",
"++++............++++@@@@............++++@@@@............++++@@@@............++++++++............++++++++............@@@@++++............@@@@@@@@............++++++++............++++++++............++++++++++++",
"++++............++++@@@@............++++@@@@............++++@@@@............++++++++............++++++++............@@@@++++............@@@@@@@@............++++++++............++++++++............++++++++++++",
"++++............++++@@@@............++++@@@@............++++@@@@............++++++++............++++++++............@@@@++++............@@@@@@@@............++++++++............++++++++............++++........",
"++++............++++@@@@............++++@@@@............++++@@@@............++++++++............++++++++............@@@@++++............@@@@@@@@............++++++++............++++++++............++++........",
"++++............++++@@@@............++++@@@@............++++@@@@............++++++++............++++++++............@@@@++++............@@@@@@@@............++++++++............++++++++............++++++++++++",
"++++............++++@@@@............++++@@@@............++++@@@@............++++++++............++++++++............@@@@++++............@@@@@@@@............++++++++............++++++++............++++++++++++",
"++....@@@@@@@@....++@@....@@@@@@@@....++@@....++++++++....++@@....++++++++....++++....++++++++....++++....++++++++....@@++....++++++++....@@@@....@@@@@@@@....++++....++++++++....++++....++++++++....++........",
"++....@@@@@@@@....++@@....@@@@@@@@....++@@....++++++++....++@@....++++++++....++++....++++++++....++++....++++++++....@@++....++++++++....@@@@....@@@@@@@@....++++....++++++++....++++....++++++++....++........",
"....@@@@@@@@@@@@........@@@@@@@@@@@@........++++++++++++........++++++++++++........++++++++++++........++++++++++++........++++++++++++........@@@@@@@@@@@@........++++++++++++........++++++++++++....++++++++",
"....@@@@@@@@@@@@........@@@@@@@@@@@@........++++++++++++........++++++++++++........++++++++++++........++++++++++++........++++++++++++........@@@@@@@@@@@@........++++++++++++........++++++++++++....++++++++",
"++................++@@................++++................@@@@................++@@................++@@................++++................++@@................++++................++@@................++........",
"++................++@@................++++................@@@@................++@@................++@@................++++................++@@................++++................++@@................++........",
"++++............++++@@@@............++++++++............@@@@@@@@............++++@@@@............++++@@@@............++++++++............++++@@@@............++++++++............++++@@@@............++++++++++++",
"++++............++++@@@@............++++++++............@@@@@@@@............++++@@@@............++++@@@@............++++++++............++++@@@@............++++++++............++++@@@@............++++++++++++",
"++++............++++@@@@............++++++++............@@@@@@@@............++++@@@@............++++@@@@............++++++++............++++@@@@............++++++++............++++@@@@............++++........",
"++++............++++@@@@............++++++++............@@@@@@@@............++++@@@@............++++@@@@............++++++++............++++@@@@............++++++++............++++@@@@............++++........",
"++++............++++@@@@............++++++++............@@@@@@@@............++++@@@@............++++@@@@............++++++++............++++@@@@............++++++++............++++@@@@............++++++++++++",
"++++............++++@@@@............++++++++............@@@@@@@@............++++@@@@............++++@@@@............++++++++............++++@@@@............++++++++............++++@@@@............++++++++++++",
"++++............++++@@@@............++++++++............@@@@@@@@............++++@@@@............++++@@@@............++++++++............++++@@@@............++++++++............++++@@@@............++++........",
"++++............++++@@@@............++++++++............@@@@@@@@............++++@@@@............++++@@@@............++++++++............++++@@@@............++++++++............++++@@@@............++++........",
"++++............++++@@@@............++++++++............@@@@@@@@............++++@@@@............++++@@@@............++++++++............++++@@@@............++++++++............++++@@@@............++++++++++++",
"++++............++++@@@@............++++++++............@@@@@@@@............++++@@@@............++++@@@@............++++++++............++++@@@@............++++++++............++++@@@@............++++++++++++",
"++++............++++@@@@............++++++++............@@@@@@@@............++++@@@@............++++@@@@............++++++++............++++@@@@............++++++++............++++@@@@............++++........",
"++++............++++@@@@............++++++++............@@@@@@@@............++++@@@@............++++@@@@............++++++++............++++@@@@............++++++++............++++@@@@............++++........",
"++....++++++++....++@@....@@@@@@@@....++++....++++++++....@@@@....++++++++....++@@....@@@@@@@@....++@@....++++++++....++++....++++++++....++@@....@@@@@@@@....++++....++++++++....++@@....++++++++....++++++++++",
"++....++++++++....++@@....@@@@@@@@....++++....++++++++....@@@@....++++++++....++@@....@@@@@@@@....++@@....++++++++....++++....++++++++....++@@....@@@@@@@@....++++....++++++++....++@@....++++++++....++++++++++",
"....++++++++++++........@@@@@@@@@@@@........++++++++++++........++++++++++++........@@@@@@@@@@@@........++++++++++++........++++++++++++........@@@@@@@@@@@@........++++++++++++........++++++++++++........####",
"....++++++++++++........@@@@@@@@@@@@........++++++++++++........++++++++++++........@@@@@@@@@@@@........++++++++++++........++++++++++++........@@@@@@@@@@@@........++++++++++++........++++++++++++........####",
"####++++++++++++########$$$$$$$$$$$$########++++++++++++########++++++++++++########$$$$$$$$$$$$########++++++++++++########++++++++++++########++++++++++++########++++++++++++########++++++++++++####++++++++",
"####++++++++++++########$$$$$$$$$$$$########++++++++++++########++++++++++++########$$$$$$$$$$$$########++++++++++++########++++++++++++########++++++++++++########++++++++++++########++++++++++++####++++++++",
"++####++++++++####++$$####$$$$$$$$####++$$####++++++++####++$$####++++++++####++++####$$$$$$$$####++++####++++++++####$$++####++++++++####$$$$####++++++++####++++####++++++++####++++####++++++++####++........",
"++####++++++++####++$$####$$$$$$$$####++$$####++++++++####++$$####++++++++####++++####$$$$$$$$####++++####++++++++####$$++####++++++++####$$$$####++++++++####++++####++++++++####++++####++++++++####++........",
"++++############++++$$$$############++++$$$$############++++$$$$############++++++++############++++++++############$$$$++++############$$$$$$$$############++++++++############++++++++############++++........",
"++++############++++$$$$############++++$$$$############++++$$$$############++++++++############++++++++############$$$$++++############$$$$$$$$############++++++++############++++++++############++++........",
"++++############++++$$$$############++++$$$$############++++$$$$############++++++++############++++++++############$$$$++++############$$$$$$$$############++++++++############++++++++############++++........",
"++++############++++$$$$############++++$$$$############++++$$$$############++++++++############++++++++############$$$$++++############$$$$$$$$############++++++++############++++++++############++++........",
"++++############++++$$$$############++++$$$$############++++$$$$############++++++++############++++++++############$$$$++++############$$$$$$$$############++++++++############++++++++############++++........",
"++++############++++$$$$############++++$$$$############++++$$$$############++++++++############++++++++############$$$$++++############$$$$$$$$############++++++++############++++++++############++++........",
"++++############++++$$$$############++++$$$$############++++$$$$############++++++++############++++++++############$$$$++++############$$$$$$$$############++++++++############++++++++############++++........",
"++++############++++$$$$############++++$$$$############++++$$$$############++++++++############++++++++############$$$$++++############$$$$$$$$############++++++++############++++++++############++++........",
"++++############++++$$$$############++++$$$$############++++$$$$############++++++++############++++++++############$$$$++++############$$$$$$$$############++++++++############++++++++############++++........",
"++++############++++$$$$############++++$$$$############++++$$$$############++++++++############++++++++############$$$$++++############$$$$$$$$############++++++++############++++++++############++++........",
"++++############++++$$$$############++++$$$$############++++$$$$############++++++++############++++++++############$$$$++++############$$$$$$$$############++++++++############++++++++############++++........",
"++++############++++$$$$############++++$$$$############++++$$$$############++++++++############++++++++############$$$$++++############$$$$$$$$############++++++++############++++++++############++++........",
"++++############++++$$$$############++++$$$$############++++$$$$############++++++++############++++++++############$$$$++++############$$$$$$$$############++++++++############++++++++############++++........",
"++++############++++$$$$############++++$$$$############++++$$$$############++++++++############++++++++############$$$$++++############$$$$$$$$############++++++++############++++++++############++++........",
"++####$$$$$$$$####++$$####$$$$$$$$####++$$####++++++++####++$$####++++++++####++++####++++++++####++++####++++++++####$$++####++++++++####$$$$####$$$$$$$$####++++####++++++++####++++####++++++++####++........",
"++####$$$$$$$$####++$$####$$$$$$$$####++$$####++++++++####++$$####++++++++####++++####++++++++####++++####++++++++####$$++####++++++++####$$$$####$$$$$$$$####++++####++++++++####++++####++++++++####++........",
"####$$$$$$$$$$$$########$$$$$$$$$$$$########++++++++++++########++++++++++++########++++++++++++########++++++++++++########++++++++++++########$$$$$$$$$$$$########++++++++++++########++++++++++++####........",
"####$$$$$$$$$$$$########$$$$$$$$$$$$########++++++++++++########++++++++++++########++++++++++++########++++++++++++########++++++++++++########$$$$$$$$$$$$########++++++++++++########++++++++++++####........",
"++################++$$################++++################$$$$################++$$################++$$################++++################++$$################++++################++$$################++........",
"++################++$$################++++################$$$$################++$$################++$$################++++################++$$################++++################++$$################++........",
"++++############++++$$$$############++++++++############$$$$$$$$############++++$$$$############++++$$$$############++++++++############++++$$$$############++++++++############++++$$$$############++++........",
"++++############++++$$$$############++++++++############$$$$$$$$############++++$$$$############++++$$$$############++++++++############++++$$$$############++++++++############++++$$$$############++++........",
"++++############++++$$$$############++++++++############$$$$$$$$############++++$$$$############++++$$$$############++++++++############++++$$$$############++++++++############++++$$$$############++++........",
"++++############++++$$$$############++++++++############$$$$$$$$############++++$$$$############++++$$$$############++++++++############++++$$$$############++++++++############++++$$$$############++++........",
"++++############++++$$$$############++++++++############$$$$$$$$############++++$$$$############++++$$$$############++++++++############++++$$$$############++++++++############++++$$$$############++++........",
"++++############++++$$$$############++++++++############$$$$$$$$############++++$$$$############++++$$$$############++++++++############++++$$$$############++++++++############++++$$$$############++++........",
"++++############++++$$$$############++++++++############$$$$$$$$############++++$$$$############++++$$$$############++++++++############++++$$$$############++++++++############++++$$$$############++++........",
"++++############++++$$$$############++++++++############$$$$$$$$############++++$$$$############++++$$$$############++++++++############++++$$$$############++++++++############++++$$$$############++++........",
"++++############++++$$$$############++++++++############$$$$$$$$############++++$$$$############++++$$$$############++++++++############++++$$$$############++++++++############++++$$$$############++++........",
"++++############++++$$$$############++++++++############$$$$$$$$############++++$$$$############++++$$$$############++++++++############++++$$$$############++++++++############++++$$$$############++++........",
"++++############++++$$$$############++++++++############$$$$$$$$############++++$$$$############++++$$$$############++++++++############++++$$$$############++++++++############++++$$$$############++++........",
"++++############++++$$$$############++++++++############$$$$$$$$############++++$$$$############++++$$$$############++++++++############++++$$$$############++++++++############++++$$$$############++++........",
"++####++++++++####++$$####$$$$$$$$####++++####++++++++####$$$$####++++++++####++$$####$$$$$$$$####++$$####++++++++####++++####++++++++####++$$####$$$$$$$$####++++####++++++++####++$$####++++++++####++........",
"++####++++++++####++$$####$$$$$$$$####++++####++++++++####$$$$####++++++++####++$$####$$$$$$$$####++$$####++++++++####++++####++++++++####++$$####$$$$$$$$####++++####++++++++####++$$####++++++++####++........",
"####++++++++++++########$$$$$$$$$$$$########++++++++++++########++++++++++++########$$$$$$$$$$$$########++++++++++++########++++++++++++########$$$$$$$$$$$$########++++++++++++########++++++++++++####........",
"####++++++++++++########$$$$$$$$$$$$########++++++++++++########++++++++++++########$$$$$$$$$$$$########++++++++++++########++++++++++++########$$$$$$$$$$$$########++++++++++++########++++++++++++####........",
"..++++++....@@@@@@....++++++....++++++....@@@@@@....++++++....++++++....++++++....++++++....++++++..##++++++####@@@@@@..##++++++####++++++##..@@@@@@....++++++####++++++####++++++..##++++++####++++++##........",
"..++++++....@@@@@@....++++++....++++++....@@@@@@....++++++....++++++....++++++....++++++....++++++..##++++++####@@@@@@..##++++++####++++++##..@@@@@@....++++++####++++++####++++++..##++++++####++++++##........",
"++......++@@......++@@......++@@......++++......++++......@@++......@@@@......++++......++++......++++######++@@######++@@######++@@######++++######++++######@@++######@@@@######++++######++++######++........",
"++......++@@......++@@......++@@......++++......++++......@@++......@@@@......++++......++++......++++######++@@######++@@######++@@######++++######++++######@@++######@@@@######++++######++++######++........",
"++......++@@......++@@......++@@......++++......++++......@@++......@@@@......++++......++++......++++######++@@######++@@######++@@######++++######++++######@@++######@@@@######++++######++++######++........",
"++......++@@......++@@......++@@......++++......++++......@@++......@@@@......++++......++++......++++######++@@######++@@######++@@######++++######++++######@@++######@@@@######++++######++++######++........",
"++......++@@......++@@......++@@......++++......++++......@@++......@@@@......++++......++++......++++######++@@######++@@######++@@######++++######++++######@@++######@@@@######++++######++++######++........",
"++......++@@......++@@......++@@......++++......++++......@@++......@@@@......++++......++++......++++######++@@######++@@######++@@######++++######++++######@@++######@@@@######++++######++++######++........",
"..@@@@@@....@@@@@@....++++++....++++++....++++++....++++++....++++++....@@@@@@....++++++....++++++....@@@@@@..##@@@@@@..##++++++####++++++....++++++....++++++####++++++####@@@@@@..##++++++####++++++..........",
"..@@@@@@....@@@@@@....++++++....++++++....++++++....++++++....++++++....@@@@@@....++++++....++++++....@@@@@@..##@@@@@@..##++++++####++++++....++++++....++++++####++++++####@@@@@@..##++++++####++++++..........",
"++......++@@......++++......@@@@......++@@......++@@......++++......++@@......++++......++@@......++++######++@@######++++######@@@@######++@@######++@@######++++######++@@######++++######++@@######++........",
"++......++@@......++++......@@@@......++@@......++@@......++++......++@@......++++......++@@......++++######++@@######++++######@@@@######++@@######++@@######++++######++@@######++++######++@@######++........",
"++......++@@......++++......@@@@......++@@......++@@......++++......++@@......++++......++@@......++++######++@@######++++######@@@@######++@@######++@@######++++######++@@######++++######++@@######++........",
"++......++@@......++++......@@@@......++@@......++@@......++++......++@@......++++......++@@......++++######++@@######++++######@@@@######++@@######++@@######++++######++@@######++++######++@@######++........",
"++......++@@......++++......@@@@......++@@......++@@......++++......++@@......++++......++@@......++++######++@@######++++######@@@@######++@@######++@@######++++######++@@######++++######++@@######++........",
"++......++@@......++++......@@@@......++@@......++@@......++++......++@@......++++......++@@......++++######++@@######++++######@@@@######++@@######++@@######++++######++@@######++++######++@@######++........",
"..++++++....@@@@@@....++++++....++++++....@@@@@@....++++++....++++++....@@@@@@....++++++....++++++..##++++++####@@@@@@..##++++++..##++++++####@@@@@@....++++++####++++++####@@@@@@..##++++++####++++++##........",
"..++++++....@@@@@@....++++++....++++++....@@@@@@....++++++....++++++....@@@@@@....++++++....++++++..##++++++####@@@@@@..##++++++..##++++++####@@@@@@....++++++####++++++####@@@@@@..##++++++####++++++##........",
"..++++++++++++++++..++++++++++++++++..++++++++++++++++..++++++++++++++++..++++++++++++++++..........##++++++++++++++++##++++++++++++++++##++++++++++++++++##++++++++++++++++##++++++++++++++++..................",
"..++++++++++++++++..++++++++++++++++..++++++++++++++++..++++++++++++++++..++++++++++++++++..........##++++++++++++++++##++++++++++++++++##++++++++++++++++##++++++++++++++++##++++++++++++++++..................",
"++++............++++++............++++++........++++++++++....++++++++++++++++++++++++++++..........++++############++++++############++++++########++++++++++####++++++++++++++++++++++++++++..................",
"++++............++++++............++++++........++++++++++....++++++++++++++++++++++++++++..........++++############++++++############++++++########++++++++++####++++++++++++++++++++++++++++..................",
"++++............++++++..........++++++++......++++++++++++..++++++++++++++++++++++++++++++..........++++############++++++##########++++++++######++++++++++++##++++++++++++++++++++++++++++++..................",
"++++............++++++..........++++++++......++++++++++++..++++++++++++++++++++++++++++++..........++++############++++++##########++++++++######++++++++++++##++++++++++++++++++++++++++++++..................",
"++++............++++++........++++++++++....++++++++++++++++++++++++++++++++++++++++++++++..........++++############++++++########++++++++++####++++++++++++++++++++++++++++++++++++++++++++++..................",
"++++............++++++........++++++++++....++++++++++++++++++++++++++++++++++++++++++++++..........++++############++++++########++++++++++####++++++++++++++++++++++++++++++++++++++++++++++..................",
"..++++++++++++++++..++++++++++++++++..++++++++++++++++..++++++++++++++++..++++++++++++++++..........##++++++++++++++++##++++++++++++++++##++++++++++++++++##++++++++++++++++##++++++++++++++++..................",
"..++++++++++++++++..++++++++++++++++..++++++++++++++++..++++++++++++++++..++++++++++++++++..........##++++++++++++++++##++++++++++++++++##++++++++++++++++##++++++++++++++++##++++++++++++++++..................",
"++..++++..++........++..++++..++..++++++..++..++..++++..++..++++++..++..++..++++++++..++++++..++....++##++++##++########++##++++##++##++++++##++##++##++++##++##++++++##++##++##++++++++##++++++##++####........",
"++..++++..++........++..++++..++..++++++..++..++..++++..++..++++++..++..++..++++++++..++++++..++....++##++++##++########++##++++##++##++++++##++##++##++++##++##++++++##++##++##++++++++##++++++##++####........",
"++++++++++++++++++++++++++++++++++++++++++++..++++++++++++++++++++++++..++++++++++++++++++++++++....++++++++++++++++++++++++++++++++++++++++++++##++++++++++++++++++++++++##++++++++++++++++++++++++####........",
"++++++++++++++++++++++++++++++++++++++++++++..++++++++++++++++++++++++..++++++++++++++++++++++++....++++++++++++++++++++++++++++++++++++++++++++##++++++++++++++++++++++++##++++++++++++++++++++++++####........",
"....................................................................................................####################################################################################################........",
"....................................................................................................####################################################################################################........",
"....................................................................................................####################################################################################################........",
"....................................................................................................####################################################################################################........",
"++++++..@@@@++..++++++..++++@@..++@@++..++++++..++++++..++++++..++++++..++++++..@@@@@@..@@@@@@..@@@@@@..@@@@@@..@@@@@@..@@@@@@..@@@@@@..@@@@@@..@@@@@@..@@@@@@..@@@@@@..@@@@@@..@@@@@@..@@@@@@..@@@@@@..@@@@@@..",
"++++++..@@@@++..++++++..++++@@..++@@++..++++++..++++++..++++++..++++++..++++++..@@@@@@..@@@@@@..@@@@@@..@@@@@@..@@@@@@..@@@@@@..@@@@@@..@@@@@@..@@@@@@..@@@@@@..@@@@@@..@@@@@@..@@@@@@..@@@@@@..@@@@@@..@@@@@@..",
"++@@++..@@@@++..@@@@++..@@@@++..++@@++..++@@@@..++@@@@..@@@@++..++@@++..++@@++..@@@@@@..@@@@@@..@@@@@@..@@@@@@..@@@@@@..@@@@@@..@@@@@@..@@@@@@..@@@@@@..@@@@@@..@@@@@@..@@@@@@..@@@@@@..@@@@@@..@@@@@@..@@@@@@..",
"++@@++..@@@@++..@@@@++..@@@@++..++@@++..++@@@@..++@@@@..@@@@++..++@@++..++@@++..@@@@@@..@@@@@@..@@@@@@..@@@@@@..@@@@@@..@@@@@@..@@@@@@..@@@@@@..@@@@@@..@@@@@@..@@@@@@..@@@@@@..@@@@@@..@@@@@@..@@@@@@..@@@@@@..",
"++@@++..@@@@++..++++@@..++++@@..++++++..++++@@..++++++..@@@@++..++++++..++++++..@@@@@@..@@@@@@..@@@@@@..@@@@@@..@@@@@@..@@@@@@..@@@@@@..@@@@@@..@@@@@@..@@@@@@..@@@@@@..@@@@@@..@@@@@@..@@@@@@..@@@@@@..@@@@@@..",
"++@@++..@@@@++..++++@@..++++@@..++++++..++++@@..++++++..@@@@++..++++++..++++++..@@@@@@..@@@@@@..@@@@@@..@@@@@@..@@@@@@..@@@@@@..@@@@@@..@@@@@@..@@@@@@..@@@@@@..@@@@@@..@@@@@@..@@@@@@..@@@@@@..@@@@@@..@@@@@@..",
"++@@++..@@@@++..++@@@@..@@@@++..@@@@++..@@@@++..++@@++..@@++@@..++@@++..@@@@++..@@@@@@..@@@@@@..@@@@@@..@@@@@@..@@@@@@..@@@@@@..@@@@@@..@@@@@@..@@@@@@..@@@@@@..@@@@@@..@@@@@@..@@@@@@..@@@@@@..@@@@@@..@@@@@@..",
"++@@++..@@@@++..++@@@@..@@@@++..@@@@++..@@@@++..++@@++..@@++@@..++@@++..@@@@++..@@@@@@..@@@@@@..@@@@@@..@@@@@@..@@@@@@..@@@@@@..@@@@@@..@@@@@@..@@@@@@..@@@@@@..@@@@@@..@@@@@@..@@@@@@..@@@@@@..@@@@@@..@@@@@@..",
"++++++..@@@@++..++++++..++++@@..@@@@++..++++@@..++++++..++@@@@..++++++..++++++..@@@@@@..@@@@@@..@@@@@@..@@@@@@..@@@@@@..@@@@@@..@@@@@@..@@@@@@..@@@@@@..@@@@@@..@@@@@@..@@@@@@..@@@@@@..@@@@@@..@@@@@@..@@@@@@..",
"++++++..@@@@++..++++++..++++@@..@@@@++..++++@@..++++++..++@@@@..++++++..++++++..@@@@@@..@@@@@@..@@@@@@..@@@@@@..@@@@@@..@@@@@@..@@@@@@..@@@@@@..@@@@@@..@@@@@@..@@@@@@..@@@@@@..@@@@@@..@@@@@@..@@@@@@..@@@@@@..",
"++++++..$$$$++..++++++..++++$$..++$$++..++++++..++++++..++++++..++++++..++++++..$$$$$$..$$$$$$..$$$$$$..$$$$$$..$$$$$$..$$$$$$..$$$$$$..$$$$$$..$$$$$$..$$$$$$..$$$$$$..$$$$$$..$$$$$$..$$$$$$..$$$$$$..$$$$$$..",
"++++++..$$$$++..++++++..++++$$..++$$++..++++++..++++++..++++++..++++++..++++++..$$$$$$..$$$$$$..$$$$$$..$$$$$$..$$$$$$..$$$$$$..$$$$$$..$$$$$$..$$$$$$..$$$$$$..$$$$$$..$$$$$$..$$$$$$..$$$$$$..$$$$$$..$$$$$$..",
"++$$++..$$$$++..$$$$++..$$$$++..++$$++..++$$$$..++$$$$..$$$$++..++$$++..++$$++..$$$$$$..$$$$$$..$$$$$$..$$$$$$..$$$$$$..$$$$$$..$$$$$$..$$$$$$..$$$$$$..$$$$$$..$$$$$$..$$$$$$..$$$$$$..$$$$$$..$$$$$$..$$$$$$..",
"++$$++..$$$$++..$$$$++..$$$$++..++$$++..++$$$$..++$$$$..$$$$++..++$$++..++$$++..$$$$$$..$$$$$$..$$$$$$..$$$$$$..$$$$$$..$$$$$$..$$$$$$..$$$$$$..$$$$$$..$$$$$$..$$$$$$..$$$$$$..$$$$$$..$$$$$$..$$$$$$..$$$$$$..",
"++$$++..$$$$++..++++$$..++++$$..++++++..++++$$..++++++..$$$$++..++++++..++++++..$$$$$$..$$$$$$..$$$$$$..$$$$$$..$$$$$$..$$$$$$..$$$$$$..$$$$$$..$$$$$$..$$$$$$..$$$$$$..$$$$$$..$$$$$$..$$$$$$..$$$$$$..$$$$$$..",
"++$$++..$$$$++..++++$$..++++$$..++++++..++++$$..++++++..$$$$++..++++++..++++++..$$$$$$..$$$$$$..$$$$$$..$$$$$$..$$$$$$..$$$$$$..$$$$$$..$$$$$$..$$$$$$..$$$$$$..$$$$$$..$$$$$$..$$$$$$..$$$$$$..$$$$$$..$$$$$$..",
"++$$++..$$$$++..++$$$$..$$$$++..$$$$++..$$$$++..++$$++..$$++$$..++$$++..$$$$++..$$$$$$..$$$$$$..$$$$$$..$$$$$$..$$$$$$..$$$$$$..$$$$$$..$$$$$$..$$$$$$..$$$$$$..$$$$$$..$$$$$$..$$$$$$..$$$$$$..$$$$$$..$$$$$$..",
"++$$++..$$$$++..++$$$$..$$$$++..$$$$++..$$$$++..++$$++..$$++$$..++$$++..$$$$++..$$$$$$..$$$$$$..$$$$$$..$$$$$$..$$$$$$..$$$$$$..$$$$$$..$$$$$$..$$$$$$..$$$$$$..$$$$$$..$$$$$$..$$$$$$..$$$$$$..$$$$$$..$$$$$$..",
"++++++..$$$$++..++++++..++++$$..$$$$++..++++$$..++++++..++$$$$..++++++..++++++..$$$$$$..$$$$$$..$$$$$$..$$$$$$..$$$$$$..$$$$$$..$$$$$$..$$$$$$..$$$$$$..$$$$$$..$$$$$$..$$$$$$..$$$$$$..$$$$$$..$$$$$$..$$$$$$..",
"++++++..$$$$++..++++++..++++$$..$$$$++..++++$$..++++++..++$$$$..++++++..++++++..$$$$$$..$$$$$$..$$$$$$..$$$$$$..$$$$$$..$$$$$$..$$$$$$..$$$$$$..$$$$$$..$$$$$$..$$$$$$..$$$$$$..$$$$$$..$$$$$$..$$$$$$..$$$$$$..",
"....++++++++++++........++++++++++++........++++++++++++........++++++++++++........@@@@@@@@@@@@........++++++++++++........++++++++++++........++++++++++++........++++++++++++........++++++++++++....++++++++",
"....++++++++++++........++++++++++++........++++++++++++........++++++++++++........@@@@@@@@@@@@........++++++++++++........++++++++++++........++++++++++++........++++++++++++........++++++++++++....++++++++",
"++....++++++++....++++....++++++++....@@@@....++++++++....++@@....++++++++....++++....@@@@@@@@....++++....++++++++....@@++....++++++++....@@@@....++++++++....++++....++++++++....++++....++++++++....++........",
"++....++++++++....++++....++++++++....@@@@....++++++++....++@@....++++++++....++++....@@@@@@@@....++++....++++++++....@@++....++++++++....@@@@....++++++++....++++....++++++++....++++....++++++++....++........",
"++++............++++++++............@@@@@@@@............++++@@@@............++++++++............++++++++............@@@@++++............@@@@@@@@............++++++++............++++++++............++++++++++++",
"++++............++++++++............@@@@@@@@............++++@@@@............++++++++............++++++++............@@@@++++............@@@@@@@@............++++++++............++++++++............++++++++++++",
"++++............++++++++............@@@@@@@@............++++@@@@............++++++++............++++++++............@@@@++++............@@@@@@@@............++++++++............++++++++............++++........",
"++++............++++++++............@@@@@@@@............++++@@@@............++++++++............++++++++............@@@@++++............@@@@@@@@............++++++++............++++++++............++++........",
"++++............++++++++............@@@@@@@@............++++@@@@............++++++++............++++++++............@@@@++++............@@@@@@@@............++++++++............++++++++............++++++++++++",
"++++............++++++++............@@@@@@@@............++++@@@@............++++++++............++++++++............@@@@++++............@@@@@@@@............++++++++............++++++++............++++++++++++",
"++++............++++++++............@@@@@@@@............++++@@@@............++++++++............++++++++............@@@@++++............@@@@@@@@............++++++++............++++++++............++++........",
"++++............++++++++............@@@@@@@@............++++@@@@............++++++++............++++++++............@@@@++++............@@@@@@@@............++++++++............++++++++............++++........",
"++++............++++++++............@@@@@@@@............++++@@@@............++++++++............++++++++............@@@@++++............@@@@@@@@............++++++++............++++++++............++++++++++++",
"++++............++++++++............@@@@@@@@............++++@@@@............++++++++............++++++++............@@@@++++............@@@@@@@@............++++++++............++++++++............++++++++++++",
"++++............++++++++............@@@@@@@@............++++@@@@............++++++++............++++++++............@@@@++++............@@@@@@@@............++++++++............++++++++............++++........",
"++++............++++++++............@@@@@@@@............++++@@@@............++++++++............++++++++............@@@@++++............@@@@@@@@............++++++++............++++++++............++++........",
"++++............++++++++............@@@@@@@@............++++@@@@............++++++++............++++++++............@@@@++++............@@@@@@@@............++++++++............++++++++............++++++++++++",
"++++............++++++++............@@@@@@@@............++++@@@@............++++++++............++++++++............@@@@++++............@@@@@@@@............++++++++............++++++++............++++++++++++",
"++....++++++++....++++....@@@@@@@@....@@@@....++++++++....++@@....++++++++....++++....++++++++....++++....++++++++....@@++....++++++++....@@@@....@@@@@@@@....++++....++++++++....++++....++++++++....++........",
"++....++++++++....++++....@@@@@@@@....@@@@....++++++++....++@@....++++++++....++++....++++++++....++++....++++++++....@@++....++++++++....@@@@....@@@@@@@@....++++....++++++++....++++....++++++++....++........",
"....++++++++++++........@@@@@@@@@@@@........++++++++++++........++++++++++++........++++++++++++........++++++++++++........++++++++++++........@@@@@@@@@@@@........++++++++++++........++++++++++++....++++++++",
"....++++++++++++........@@@@@@@@@@@@........++++++++++++........++++++++++++........++++++++++++........++++++++++++........++++++++++++........@@@@@@@@@@@@........++++++++++++........++++++++++++....++++++++",
"++................++++................@@++................@@@@................++@@................++@@................++++................++@@................++++................++@@................++........",
"++................++++................@@++................@@@@................++@@................++@@................++++................++@@................++++................++@@................++........",
"++++............++++++++............@@@@++++............@@@@@@@@............++++@@@@............++++@@@@............++++++++............++++@@@@............++++++++............++++@@@@............++++++++++++",
"++++............++++++++............@@@@++++............@@@@@@@@............++++@@@@............++++@@@@............++++++++............++++@@@@............++++++++............++++@@@@............++++++++++++",
"++++............++++++++............@@@@++++............@@@@@@@@............++++@@@@............++++@@@@............++++++++............++++@@@@............++++++++............++++@@@@............++++........",
"++++............++++++++............@@@@++++............@@@@@@@@............++++@@@@............++++@@@@............++++++++............++++@@@@............++++++++............++++@@@@............++++........",
"++++............++++++++............@@@@++++............@@@@@@@@............++++@@@@............++++@@@@............++++++++............++++@@@@............++++++++............++++@@@@............++++++++++++",
"++++............++++++++............@@@@++++............@@@@@@@@............++++@@@@............++++@@@@............++++++++............++++@@@@............++++++++............++++@@@@............++++++++++++",
"++++............++++++++............@@@@++++............@@@@@@@@............++++@@@@............++++@@@@............++++++++............++++@@@@............++++++++............++++@@@@............++++........",
"++++............++++++++............@@@@++++............@@@@@@@@............++++@@@@............++++@@@@............++++++++............++++@@@@............++++++++............++++@@@@............++++........",
"++++............++++++++............@@@@++++............@@@@@@@@............++++@@@@............++++@@@@............++++++++............++++@@@@............++++++++............++++@@@@............++++++++++++",
"++++............++++++++............@@@@++++............@@@@@@@@............++++@@@@............++++@@@@............++++++++............++++@@@@............++++++++............++++@@@@............++++++++++++",
"++++............++++++++............@@@@++++............@@@@@@@@............++++@@@@............++++@@@@............++++++++............++++@@@@............++++++++............++++@@@@............++++........",
"++++............++++++++............@@@@++++............@@@@@@@@............++++@@@@............++++@@@@............++++++++............++++@@@@............++++++++............++++@@@@............++++........",
"++....@@@@@@@@....++++....++++++++....@@++....++++++++....@@@@....++++++++....++@@....@@@@@@@@....++@@....++++++++....++++....++++++++....++@@....@@@@@@@@....++++....++++++++....++@@....++++++++....++++++++++",
"++....@@@@@@@@....++++....++++++++....@@++....++++++++....@@@@....++++++++....++@@....@@@@@@@@....++@@....++++++++....++++....++++++++....++@@....@@@@@@@@....++++....++++++++....++@@....++++++++....++++++++++",
"....@@@@@@@@@@@@........++++++++++++........++++++++++++........++++++++++++........@@@@@@@@@@@@........++++++++++++........++++++++++++........@@@@@@@@@@@@........++++++++++++........++++++++++++........####",
"....@@@@@@@@@@@@........++++++++++++........++++++++++++........++++++++++++........@@@@@@@@@@@@........++++++++++++........++++++++++++........@@@@@@@@@@@@........++++++++++++........++++++++++++........####",
"####++++++++++++########++++++++++++########++++++++++++########++++++++++++########$$$$$$$$$$$$########++++++++++++########++++++++++++########++++++++++++########++++++++++++########++++++++++++####++++++++",
"####++++++++++++########++++++++++++########++++++++++++########++++++++++++########$$$$$$$$$$$$########++++++++++++########++++++++++++########++++++++++++########++++++++++++########++++++++++++####++++++++",
"++####++++++++####++++####++++++++####$$$$####++++++++####++$$####++++++++####++++####$$$$$$$$####++++####++++++++####$$++####++++++++####$$$$####++++++++####++++####++++++++####++++####++++++++####++%%%%%%%%",
"++####++++++++####++++####++++++++####$$$$####++++++++####++$$####++++++++####++++####$$$$$$$$####++++####++++++++####$$++####++++++++####$$$$####++++++++####++++####++++++++####++++####++++++++####++%%%%%%%%",
"++++############++++++++############$$$$$$$$############++++$$$$############++++++++############++++++++############$$$$++++############$$$$$$$$############++++++++############++++++++############++++%%%%%%%%",
"++++############++++++++############$$$$$$$$############++++$$$$############++++++++############++++++++############$$$$++++############$$$$$$$$############++++++++############++++++++############++++%%%%%%%%",
"++++############++++++++############$$$$$$$$############++++$$$$############++++++++############++++++++############$$$$++++############$$$$$$$$############++++++++############++++++++############++++%%%%%%%%",
"++++############++++++++############$$$$$$$$############++++$$$$############++++++++############++++++++############$$$$++++############$$$$$$$$############++++++++############++++++++############++++%%%%%%%%",
"++++############++++++++############$$$$$$$$############++++$$$$############++++++++############++++++++############$$$$++++############$$$$$$$$############++++++++############++++++++############++++%%%%%%%%",
"++++############++++++++############$$$$$$$$############++++$$$$############++++++++############++++++++############$$$$++++############$$$$$$$$############++++++++############++++++++############++++%%%%%%%%",
"++++############++++++++############$$$$$$$$############++++$$$$############++++++++############++++++++############$$$$++++############$$$$$$$$############++++++++############++++++++############++++%%%%%%%%",
"++++############++++++++############$$$$$$$$############++++$$$$############++++++++############++++++++############$$$$++++############$$$$$$$$############++++++++############++++++++############++++%%%%%%%%",
"++++############++++++++############$$$$$$$$############++++$$$$############++++++++############++++++++############$$$$++++############$$$$$$$$############++++++++############++++++++############++++%%%%%%%%",
"++++############++++++++############$$$$$$$$############++++$$$$############++++++++############++++++++############$$$$++++############$$$$$$$$############++++++++############++++++++############++++%%%%%%%%",
"++++############++++++++############$$$$$$$$############++++$$$$############++++++++############++++++++############$$$$++++############$$$$$$$$############++++++++############++++++++############++++%%%%%%%%",
"++++############++++++++############$$$$$$$$############++++$$$$############++++++++############++++++++############$$$$++++############$$$$$$$$############++++++++############++++++++############++++%%%%%%%%",
"++++############++++++++############$$$$$$$$############++++$$$$############++++++++############++++++++############$$$$++++############$$$$$$$$############++++++++############++++++++############++++%%%%%%%%",
"++++############++++++++############$$$$$$$$############++++$$$$############++++++++############++++++++############$$$$++++############$$$$$$$$############++++++++############++++++++############++++%%%%%%%%",
"++####++++++++####++++####$$$$$$$$####$$$$####++++++++####++$$####++++++++####++++####++++++++####++++####++++++++####$$++####++++++++####$$$$####$$$$$$$$####++++####++++++++####++++####++++++++####++%%%%%%%%",
"++####++++++++####++++####$$$$$$$$####$$$$####++++++++####++$$####++++++++####++++####++++++++####++++####++++++++####$$++####++++++++####$$$$####$$$$$$$$####++++####++++++++####++++####++++++++####++%%%%%%%%",
"####++++++++++++########$$$$$$$$$$$$########++++++++++++########++++++++++++########++++++++++++########++++++++++++########++++++++++++########$$$$$$$$$$$$########++++++++++++########++++++++++++####%%%%%%%%",
"####++++++++++++########$$$$$$$$$$$$########++++++++++++########++++++++++++########++++++++++++########++++++++++++########++++++++++++########$$$$$$$$$$$$########++++++++++++########++++++++++++####%%%%%%%%",
"++################++++################$$++################$$$$################++$$################++$$################++++################++$$################++++################++$$################++..++++++",
"++################++++################$$++################$$$$################++$$################++$$################++++################++$$################++++################++$$################++..++++++",
"++++############++++++++############$$$$++++############$$$$$$$$############++++$$$$############++++$$$$############++++++++############++++$$$$############++++++++############++++$$$$############++++++......",
"++++############++++++++############$$$$++++############$$$$$$$$############++++$$$$############++++$$$$############++++++++############++++$$$$############++++++++############++++$$$$############++++++......",
"++++############++++++++############$$$$++++############$$$$$$$$############++++$$$$############++++$$$$############++++++++############++++$$$$############++++++++############++++$$$$############++++++......",
"++++############++++++++############$$$$++++############$$$$$$$$############++++$$$$############++++$$$$############++++++++############++++$$$$############++++++++############++++$$$$############++++++......",
"++++############++++++++############$$$$++++############$$$$$$$$############++++$$$$############++++$$$$############++++++++############++++$$$$############++++++++############++++$$$$############++++++......",
"++++############++++++++############$$$$++++############$$$$$$$$############++++$$$$############++++$$$$############++++++++############++++$$$$############++++++++############++++$$$$############++++++......",
"++++############++++++++############$$$$++++############$$$$$$$$############++++$$$$############++++$$$$############++++++++############++++$$$$############++++++++############++++$$$$############++++&&@@@@@@",
"++++############++++++++############$$$$++++############$$$$$$$$############++++$$$$############++++$$$$############++++++++############++++$$$$############++++++++############++++$$$$############++++&&@@@@@@",
"++++############++++++++############$$$$++++############$$$$$$$$############++++$$$$############++++$$$$############++++++++############++++$$$$############++++++++############++++$$$$############++++++......",
"++++############++++++++############$$$$++++############$$$$$$$$############++++$$$$############++++$$$$############++++++++############++++$$$$############++++++++############++++$$$$############++++++......",
"++++############++++++++############$$$$++++############$$$$$$$$############++++$$$$############++++$$$$############++++++++############++++$$$$############++++++++############++++$$$$############++++++......",
"++++############++++++++############$$$$++++############$$$$$$$$############++++$$$$############++++$$$$############++++++++############++++$$$$############++++++++############++++$$$$############++++++......",
"++####$$$$$$$$####++++####++++++++####$$++####++++++++####$$$$####++++++++####++$$####$$$$$$$$####++$$####++++++++####++++####++++++++####++$$####$$$$$$$$####++++####++++++++####++$$####++++++++####++++......",
"++####$$$$$$$$####++++####++++++++####$$++####++++++++####$$$$####++++++++####++$$####$$$$$$$$####++$$####++++++++####++++####++++++++####++$$####$$$$$$$$####++++####++++++++####++$$####++++++++####++++......",
"####$$$$$$$$$$$$########++++++++++++########++++++++++++########++++++++++++########$$$$$$$$$$$$########++++++++++++########++++++++++++########$$$$$$$$$$$$########++++++++++++########++++++++++++####..++++++",
"####$$$$$$$$$$$$########++++++++++++########++++++++++++########++++++++++++########$$$$$$$$$$$$########++++++++++++########++++++++++++########$$$$$$$$$$$$########++++++++++++########++++++++++++####..++++++"};
