/* XPM */
static char * led_on3_xpm[] = {
"18 18 142 2",
"  	c None",
". 	c #B1B1B1",
"+ 	c #B2B2B2",
"@ 	c #B4B4B4",
"# 	c #B5B5B5",
"$ 	c #B6B6B6",
"% 	c #949494",
"& 	c #999999",
"* 	c #8E8E8E",
"= 	c #8D8D8D",
"- 	c #8F8F8F",
"; 	c #919191",
"> 	c #9A9A9A",
", 	c #B0B0B0",
"' 	c #B7B7B7",
") 	c #A4A4A4",
"! 	c #737373",
"~ 	c #5C5C5C",
"{ 	c #575757",
"] 	c #545454",
"^ 	c #595959",
"/ 	c #666666",
"( 	c #787878",
"_ 	c #A0A0A0",
": 	c #BFBFBF",
"< 	c #A2A2A2",
"[ 	c #6D6D6D",
"} 	c #525252",
"| 	c #383838",
"1 	c #272727",
"2 	c #252525",
"3 	c #2C2C2C",
"4 	c #353535",
"5 	c #454545",
"6 	c #6B6B6B",
"7 	c #878787",
"8 	c #9F9F9F",
"9 	c #BEBEBE",
"0 	c #929292",
"a 	c #505050",
"b 	c #393939",
"c 	c #282828",
"d 	c #1E1E1E",
"e 	c #212121",
"f 	c #2E2E2E",
"g 	c #323232",
"h 	c #707070",
"i 	c #8A8A8A",
"j 	c #BBBBBB",
"k 	c #717171",
"l 	c #333333",
"m 	c #262626",
"n 	c #2F2F2F",
"o 	c #424242",
"p 	c #5B5B5B",
"q 	c #767676",
"r 	c #AEAEAE",
"s 	c #B9B9B9",
"t 	c #A3A3A3",
"u 	c #7E7E7E",
"v 	c #4C4C4C",
"w 	c #222222",
"x 	c #292929",
"y 	c #303030",
"z 	c #363636",
"A 	c #3F3F3F",
"B 	c #444444",
"C 	c #484848",
"D 	c #4A4A4A",
"E 	c #565656",
"F 	c #9B9B9B",
"G 	c #C0C0C0",
"H 	c #9C9C9C",
"I 	c #3D3D3D",
"J 	c #404040",
"K 	c #434343",
"L 	c #515151",
"M 	c #585858",
"N 	c #5E5E5E",
"O 	c #ABABAB",
"P 	c #989898",
"Q 	c #747474",
"R 	c #343434",
"S 	c #5A5A5A",
"T 	c #636363",
"U 	c #686868",
"V 	c #A8A8A8",
"W 	c #BDBDBD",
"X 	c #7B7B7B",
"Y 	c #3E3E3E",
"Z 	c #414141",
"` 	c #494949",
" .	c #4B4B4B",
"..	c #626262",
"+.	c #6A6A6A",
"@.	c #848484",
"#.	c #C1C1C1",
"$.	c #A7A7A7",
"%.	c #555555",
"&.	c #616161",
"*.	c #6C6C6C",
"=.	c #7A7A7A",
"-.	c #858585",
";.	c #B3B3B3",
">.	c #676767",
",.	c #4F4F4F",
"'.	c #606060",
").	c #7F7F7F",
"!.	c #888888",
"~.	c #939393",
"{.	c #9E9E9E",
"].	c #ADADAD",
"^.	c #646464",
"/.	c #727272",
"(.	c #797979",
"_.	c #808080",
":.	c #BABABA",
"<.	c #7C7C7C",
"[.	c #818181",
"}.	c #898989",
"|.	c #A5A5A5",
"1.	c #868686",
"2.	c #A1A1A1",
"3.	c #A9A9A9",
"4.	c #BCBCBC",
"5.	c #C2C2C2",
"6.	c #C4C4C4",
"7.	c #C7C7C7",
"8.	c #AFAFAF",
"9.	c #C8C8C8",
"0.	c #D0D0D0",
"a.	c #D1D1D1",
"b.	c #CBCBCB",
"c.	c #C5C5C5",
"d.	c #C9C9C9",
"e.	c #CECECE",
"f.	c #CCCCCC",
"g.	c #D7D7D7",
"h.	c #DCDCDC",
"i.	c #E1E1E1",
"j.	c #DEDEDE",
"k.	c #D5D5D5",
"            . + @ # # $             ",
"        % & * = - ; % > , '         ",
"      ) * ! ~ { ] ^ / ( _ + :       ",
"    < [ } | 1 2 1 3 4 5 6 7 8 9     ",
"  0 = a b c d e 1 f g b } h i ' j   ",
"  0 k l m 2 e c n | | b o p q r s   ",
"t u v 1 w 2 x y z A B C D E 6 F , G ",
"H ( A 3 3 n | I J K D L M N 6 0 O 9 ",
"P Q | R z b B C D D } S T U k * V W ",
"_ X Y Z 5 `  .L E ../ +.[ ( @.F , #.",
"$.@.a B D L %.p &.*.k Q =.-.; ) ;.G ",
"r * >. .,.^ './ [ q =.).!.~.{.].$ 9 ",
"  ) ~.U ^.U /.(._.!.* % 8 V , s :.  ",
"  r O !.<.! X [.}.~.F < r @ :.: G   ",
"    9 |.% 1.!.= % 2.3.+ 4.: 5.6.    ",
"      7.6.: ;.8.8.W 9.0.a.b.c.      ",
"        d.d.7.d.b.0.0.e.b.f.        ",
"            g.h.i.j.k.d.            "};
