/* XPM */
static char * led_off4_xpm[] = {
"24 24 117 2",
"  	c None",
". 	c #6B6B6B",
"+ 	c #6E6E6E",
"@ 	c #676767",
"# 	c #666666",
"$ 	c #696969",
"% 	c #6A6A6A",
"& 	c #717171",
"* 	c #636363",
"= 	c #4F4F4F",
"- 	c #4B4B4B",
"; 	c #404040",
"> 	c #3E3E3E",
", 	c #3D3D3D",
"' 	c #4A4A4A",
") 	c #646464",
"! 	c #686868",
"~ 	c #747474",
"{ 	c #626262",
"] 	c #5F5F5F",
"^ 	c #494949",
"/ 	c #444444",
"( 	c #373737",
"_ 	c #343434",
": 	c #313131",
"< 	c #333333",
"[ 	c #353535",
"} 	c #434343",
"| 	c #484848",
"1 	c #606060",
"2 	c #737373",
"3 	c #616161",
"4 	c #272727",
"5 	c #222222",
"6 	c #191919",
"7 	c #181818",
"8 	c #1B1B1B",
"9 	c #1C1C1C",
"0 	c #262626",
"a 	c #2B2B2B",
"b 	c #414141",
"c 	c #474747",
"d 	c #5D5D5D",
"e 	c #5E5E5E",
"f 	c #363636",
"g 	c #1F1F1F",
"h 	c #121212",
"i 	c #101010",
"j 	c #131313",
"k 	c #171717",
"l 	c #202020",
"m 	c #252525",
"n 	c #393939",
"o 	c #595959",
"p 	c #4E4E4E",
"q 	c #161616",
"r 	c #1A1A1A",
"s 	c #212121",
"t 	c #292929",
"u 	c #2E2E2E",
"v 	c #454545",
"w 	c #4C4C4C",
"x 	c #141414",
"y 	c #151515",
"z 	c #1D1D1D",
"A 	c #232323",
"B 	c #2C2C2C",
"C 	c #6D6D6D",
"D 	c #2D2D2D",
"E 	c #2A2A2A",
"F 	c #3B3B3B",
"G 	c #323232",
"H 	c #282828",
"I 	c #2F2F2F",
"J 	c #5B5B5B",
"K 	c #727272",
"L 	c #1E1E1E",
"M 	c #3A3A3A",
"N 	c #555555",
"O 	c #5A5A5A",
"P 	c #707070",
"Q 	c #3C3C3C",
"R 	c #424242",
"S 	c #3F3F3F",
"T 	c #4D4D4D",
"U 	c #505050",
"V 	c #757575",
"W 	c #303030",
"X 	c #464646",
"Y 	c #535353",
"Z 	c #767676",
"` 	c #383838",
" .	c #515151",
"..	c #656565",
"+.	c #525252",
"@.	c #6C6C6C",
"#.	c #5C5C5C",
"$.	c #585858",
"%.	c #545454",
"&.	c #575757",
"*.	c #6F6F6F",
"=.	c #777777",
"-.	c #787878",
";.	c #7D7D7D",
">.	c #7E7E7E",
",.	c #7F7F7F",
"'.	c #7A7A7A",
").	c #797979",
"!.	c #808080",
"~.	c #818181",
"{.	c #858585",
"].	c #868686",
"^.	c #848484",
"/.	c #7C7C7C",
"(.	c #888888",
"_.	c #898989",
":.	c #878787",
"                  . + + + + +                   ",
"              + @ # $ $ % % % . &               ",
"          * = - ; > , , > ; ' = ) ! ~           ",
"        { ] ^ / ( _ : : < [ } | 1 ) & 2         ",
"      3 / > 4 5 6 7 7 7 8 9 0 a b c d { 2       ",
"    { e , f g 6 h i j j k 6 l m n ; o d & ~     ",
"    p | m 9 7 q j j r 9 l s s 5 t u v w . +     ",
"  @ ^ } g q q q x y 9 z 5 A 5 A 4 B ; | ! C ~   ",
"  e f D 7 j q q 7 6 l s 0 4 E a B u F b d { 2   ",
"{ d G H 7 y 7 7 8 9 s A 4 H D D I : F b J 1 K ~ ",
"d o B s L L l s 4 t a a E a _ [ M F ; } N O P 2 ",
"d o B l l l 5 A t E D D D u f ( Q , R v N O P 2 ",
"{ d u A 4 H a B D u < _ F Q S ; b } T U d 3 2 V ",
"* ] : 0 H t D u I W [ ( , > b R / X U Y ] * 2 Z ",
"$ ) S ( E E < _ ` n > ; v X ' - =  .J d # $ K ~ ",
"  ..v > D B [ ( M F b } | ^ w p +.N e 1 $ . K   ",
"  @.#.$.> M > S v X w p +.Y $.o 1 { $ . P & &   ",
"    1 d v b b b c | p U %.N J d * ... C & K     ",
"    K P 1 #.w - p = N &.e 1 @ $ *.P ~ V Z Z     ",
"      2 ..{ %.+.Y %.o O { * . C 2 2 Z Z =.      ",
"        -.=.~ 2 @.. ! $ & ~ ;.>.,.>.-.=.        ",
"          '.).=.& P + *.Z =.,.!.!.,.-.          ",
"              ;.!.~.{.].{.^./.'.2               ",
"                  ^.(._.:.]./.                  "};
