/* XPM */
static char * master2_xpm[] = {
"312 236 64 1",
" 	c None",
".	c #89C7E9",
"+	c #85C2E3",
"@	c #80BDDE",
"#	c #81BEDE",
"$	c #7BB8D9",
"%	c #76B3D4",
"&	c #72AFCF",
"*	c #6CA9CA",
"=	c #67A4C5",
"-	c #282828",
";	c #5D9ABC",
">	c #62A0C0",
",	c #63A0C0",
"'	c #5391B1",
")	c #5390B1",
"!	c #003C5E",
"~	c #003C5D",
"{	c #90CDED",
"]	c #A600FF s border_dark",
"^	c #FF7300 s border_light",
"/	c #8FCCED",
"(	c #5D9ABB",
"_	c #6BA9CB",
":	c #8AC7E8",
"<	c #71AECF",
"[	c #54FC00",
"}	c #7AB8DA",
"|	c #DEDEDE",
"1	c #D6D6D6",
"2	c #CECECE",
"3	c #C6C6C6",
"4	c #BEBEBE",
"5	c #B6B6B6",
"6	c #AEAEAE",
"7	c #A6A6A6",
"8	c #969696",
"9	c #9E9E9E",
"0	c #868686",
"a	c #000000",
"b	c #E6E6E6",
"c	c #00FF00",
"d	c #222222",
"e	c #888888",
"f	c #EEEEEE",
"g	c #00BB00",
"h	c #DDDDDD",
"i	c #CCCCCC",
"j	c #BBBBBB",
"k	c #AAAAAA",
"l	c #999999",
"m	c #333333",
"n	c #777777",
"o	c #666666",
"p	c #555555",
"q	c #DD0000",
"r	c #0000DD",
"s	c #444444",
"t	c #FFFF00",
"u	c #F7F3FF",
"v	c #86828E",
"w	c #AEAAAE",
"x	c #808080",
"y	c #E0E4E0",
"                                                                                                                                ........++++++++@@######$$$$$$$$%%%%%%%%&&&&&&&&********========------------------------------------------------------------------------------------------------------------            ",
"                                                                                                                                ........++++++++@@######$$$$$$$$%%%%%%%%&&&&&&&&********========------------------------------------------------------------------------------------------------------------            ",
"                                                                                                                                ..;;;;>>>>>>>>========********&&&&&&&&%%%%%%%%$$$$$$$$########,,------------------------------------------------------------------------------------------------------------            ",
"                                                                                                                                ..;;;;>>>>>>>>========********&&&&&&&&%%%%%%%%$$$$$$$$########,,------------------------------------------------------------------------------------------------------------            ",
"                                                                                                                                ..;;>>''''''''''''''))))))))))))))))))))))))))))))))))))))##++,,------------------------------------------------------------------------------------------------------------            ",
"                                                                                                                                ..;;>>''''''''''''''))))))))))))))))))))))))))))))))))))))##++,,------------------------------------------------------------------------------------------------------------            ",
"                                                                                                                                ..>>''!!!!!!!!!!!!!!~~~~~~~~~~~~~~~~~~~~~~~~~~~~~~~~~~~~~~{{++,,------------------------------------------------------------------------------------------------------------            ",
"                                                                                                                                ..>>''!!!!!!!!!!!!!!~~~~~~~~~~~~~~~~~~~~~~~~~~~~~~~~~~~~~~{{++,,------------------------------------------------------------------------------------------------------------            ",
"        ]]]]]]]]]]]]]]]]]]]]]]]]]]]]]]]]]]]]]]]]]]]]]]]]]]]]]]]]]]]]]]]]]]]]]]]]]]]]]]]]]]]]]]]]]]]]]]]]]]]]]]]]]]]]]]]]        ++>>''!!!!!!!!!!!!!!~~~~~~~~~~~~~~~~~~~~~~~~~~~~~~~~~~~~~~{{++,,------------------------------------------------------------------------------------------------------------            ",
"        ]]]]]]]]]]]]]]]]]]]]]]]]]]]]]]]]]]]]]]]]]]]]]]]]]]]]]]]]]]]]]]]]]]]]]]]]]]]]]]]]]]]]]]]]]]]]]]]]]]]]]]]]]]]]]]]]        ++>>''!!!!!!!!!!!!!!~~~~~~~~~~~~~~~~~~~~~~~~~~~~~~~~~~~~~~{{++,,------------------------------------------------------------------------------------------------------------            ",
"        ]]------------------------------------------------------------------------------------------------------------^^        ++>>>>////////////////{{%%%%%%%%%%%%%%%%{{{{{{{{{{{{{{{{{{++++((------------------------------------------------------------------------------------------------------------            ",
"        ]]------------------------------------------------------------------------------------------------------------^^        ++>>>>////////////////{{%%%%%%%%%%%%%%%%{{{{{{{{{{{{{{{{{{++++((------------------------------------------------------------------------------------------------------------            ",
"        ]]------------------------------------------------------------------------------------------------------------^^        ++>>========________&&&&{{############{{$$$$########++++++++::((------------------------------------------------------------------------------------------------------------            ",
"        ]]------------------------------------------------------------------------------------------------------------^^        ++>>========________&&&&{{############{{$$$$########++++++++::((------------------------------------------------------------------------------------------------------------            ",
"        ]]------------------------------------------------------------------------------------------------------------^^        ++========________<<&&&&&&{{{{::::{{{{$$$$########++[[[[++::::((------------------------------------------------------------------------------------------------------------            ",
"        ]]------------------------------------------------------------------------------------------------------------^^        ++========________<<&&&&&&{{{{::::{{{{$$$$########++[[[[++::::((------------------------------------------------------------------------------------------------------------            ",
"        ]]------------------------------------------------------------------------------------------------------------^^        @@======________<<<<&&&&%%%%%%{{{{$$$$$$########++++++++::::::((------------------------------------------------------------------------------------------------------------            ",
"        ]]------------------------------------------------------------------------------------------------------------^^        @@======________<<<<&&&&%%%%%%{{{{$$$$$$########++++++++::::::((------------------------------------------------------------------------------------------------------------            ",
"        ]]------------------------------------------------------------------------------------------------------------^^        @@@@@@}}}}}}}}%%%%%%%%&&&&&&&&********========,,,,,,,,((((((((((------------------------------------------------------------------------------------------------------------            ",
"        ]]------------------------------------------------------------------------------------------------------------^^        @@@@@@}}}}}}}}%%%%%%%%&&&&&&&&********========,,,,,,,,((((((((((------------------------------------------------------------------------------------------------------------            ",
"        ]]------------------------------------------------------------------------------------------------------------^^        ||||||||11111111222222223333333344444444555555556666666677777777------------------------------------------------------------------------------------------------------------            ",
"        ]]------------------------------------------------------------------------------------------------------------^^        ||||||||11111111222222223333333344444444555555556666666677777777------------------------------------------------------------------------------------------------------------            ",
"        ]]------------------------------------------------------------------------------------------------------------^^        ||88889999999977777777666666665555555544444444333333332222222299------------------------------------------------------------------------------------------------------------            ",
"        ]]------------------------------------------------------------------------------------------------------------^^        ||88889999999977777777666666665555555544444444333333332222222299------------------------------------------------------------------------------------------------------------            ",
"        ]]------------------------------------------------------------------------------------------------------------^^        ||88990000000000000000000000000000000000000000000000000000221199------------------------------------------------------------------------------------------------------------            ",
"        ]]------------------------------------------------------------------------------------------------------------^^        ||88990000000000000000000000000000000000000000000000000000221199------------------------------------------------------------------------------------------------------------            ",
"        ]]------------------------------------------------------------------------------------------------------------^^        ||9900aaaaaaaaaaaaaaaaaaaaaaaaaaaaaaaaaaaaaaaaaaaaaaaaaaaabb1199------------------------------------------------------------------------------------------------------------            ",
"        ]]------------------------------------------------------------------------------------------------------------^^        ||9900aaaaaaaaaaaaaaaaaaaaaaaaaaaaaaaaaaaaaaaaaaaaaaaaaaaabb1199------------------------------------------------------------------------------------------------------------            ",
"        ]]------------------------------------------------------------------------------------------------------------^^        119900aaaaaaaaaaaaaaaaaaaaaaaaaaaaaaaaaaaaaaaaaaaaaaaaaaaabb1199------------------------------------------------------------------------------------------------------------            ",
"        ]]------------------------------------------------------------------------------------------------------------^^        119900aaaaaaaaaaaaaaaaaaaaaaaaaaaaaaaaaaaaaaaaaaaaaaaaaaaabb1199------------------------------------------------------------------------------------------------------------            ",
"        ]]------------------------------------------------------------------------------------------------------------^^        119999bbbbbbbbbbbbbbbbbb4444444444444444bbbbbbbbbbbbbbbbbb111188------------------------------------------------------------------------------------------------------------            ",
"        ]]------------------------------------------------------------------------------------------------------------^^        119999bbbbbbbbbbbbbbbbbb4444444444444444bbbbbbbbbbbbbbbbbb111188------------------------------------------------------------------------------------------------------------            ",
"        ]]------------------------------------------------------------------------------------------------------------^^        119977777777666666665555bb222222222222bb33332222222211111111||88------------------------------------------------------------------------------------------------------------            ",
"        ]]------------------------------------------------------------------------------------------------------------^^        119977777777666666665555bb222222222222bb33332222222211111111||88------------------------------------------------------------------------------------------------------------            ",
"        ]]------------------------------------------------------------------------------------------------------------^^        11777777776666666655555555bbbb||||bbbb33332222222211cccc11||||88------------------------------------------------------------------------------------------------------------            ",
"        ]]------------------------------------------------------------------------------------------------------------^^        11777777776666666655555555bbbb||||bbbb33332222222211cccc11||||88------------------------------------------------------------------------------------------------------------            ",
"        ]]------------------------------------------------------------------------------------------------------------^^        227777776666666655555555444444bbbb3333332222222211111111||||||88------------------------------------------------------------------------------------------------------------            ",
"        ]]------------------------------------------------------------------------------------------------------------^^        227777776666666655555555444444bbbb3333332222222211111111||||||88------------------------------------------------------------------------------------------------------------            ",
"        ]]------------------------------------------------------------------------------------------------------------^^        2222223333333344444444555555556666666677777777999999998888888888------------------------------------------------------------------------------------------------------------            ",
"        ]]------------------------------------------------------------------------------------------------------------^^        2222223333333344444444555555556666666677777777999999998888888888------------------------------------------------------------------------------------------------------------            ",
"        ]]------------------------------------------------------------------------------------------------------------^^        ||||||||11111111222222223333333344444444555555556666666677777777------------------------------------------------------------------------------------------------------------            ",
"        ]]------------------------------------------------------------------------------------------------------------^^        ||||||||11111111222222223333333344444444555555556666666677777777------------------------------------------------------------------------------------------------------------            ",
"        ]]------------------------------------------------------------------------------------------------------------^^        ||||||1111111122222222333333334444444455555555666666667777777799------------------------------------------------------------------------------------------------------------            ",
"        ]]------------------------------------------------------------------------------------------------------------^^        ||||||1111111122222222333333334444444455555555666666667777777799------------------------------------------------------------------------------------------------------------            ",
"        ]]------------------------------------------------------------------------------------------------------------^^        ||0000000000000000000000000000000000000000000000000000000000bb99------------------------------------------------------------------------------------------------------------            ",
"        ]]------------------------------------------------------------------------------------------------------------^^        ||0000000000000000000000000000000000000000000000000000000000bb99------------------------------------------------------------------------------------------------------------            ",
"        ]]------------------------------------------------------------------------------------------------------------^^        ||00aaaaaaaaaaaaaaaaaaaaaaaaaaaaaaaaaaaaaaaaaaaaaaaaaaaaaa00bb99------------------------------------------------------------------------------------------------------------            ",
"        ]]------------------------------------------------------------------------------------------------------------^^        ||00aaaaaaaaaaaaaaaaaaaaaaaaaaaaaaaaaaaaaaaaaaaaaaaaaaaaaa00bb99------------------------------------------------------------------------------------------------------------            ",
"        ]]------------------------------------------------------------------------------------------------------------^^        110000000000000000000000000000000000000000000000000000000000bb99------------------------------------------------------------------------------------------------------------            ",
"        ]]------------------------------------------------------------------------------------------------------------^^        110000000000000000000000000000000000000000000000000000000000bb99------------------------------------------------------------------------------------------------------------            ",
"        ]]------------------------------------------------------------------------------------------------------------^^        1199997777777766666666555555554444444433333333222222221111111188------------------------------------------------------------------------------------------------------------            ",
"        ]]------------------------------------------------------------------------------------------------------------^^        1199997777777766666666555555554444444433333333222222221111111188------------------------------------------------------------------------------------------------------------            ",
"        ]]------------------------------------------------------------------------------------------------------------^^        119977777777666666665555555544444444333333332222222211111111||88------------------------------------------------------------------------------------------------------------            ",
"        ]]------------------------------------------------------------------------------------------------------------^^        119977777777666666665555555544444444333333332222222211111111||88------------------------------------------------------------------------------------------------------------            ",
"        ]]------------------------------------------------------------------------------------------------------------^^        1177aa7777aa00886655555555444444443333333322cccc2211bbbbbb77||88------------------------------------------------------------------------------------------------------------            ",
"        ]]------------------------------------------------------------------------------------------------------------^^        1177aa7777aa00886655555555444444443333333322cccc2211bbbbbb77||88------------------------------------------------------------------------------------------------------------            ",
"        ]]------------------------------------------------------------------------------------------------------------^^        227777776666666655555555444444443333333322222222111188887777||88------------------------------------------------------------------------------------------------------------            ",
"        ]]------------------------------------------------------------------------------------------------------------^^        227777776666666655555555444444443333333322222222111188887777||88------------------------------------------------------------------------------------------------------------            ",
"        ]]------------------------------------------------------------------------------------------------------------^^        2222223333333344444444555555556666666677777777999999998888888888------------------------------------------------------------------------------------------------------------            ",
"        ]]------------------------------------------------------------------------------------------------------------^^        2222223333333344444444555555556666666677777777999999998888888888------------------------------------------------------------------------------------------------------------            ",
"        ]]------------------------------------------------------------------------------------------------------------^^        ddeeeeeeeeeeeeeeeeeeeeeeeeeeeeeeeeeeeeeeeeeeeeeeeeeeeeeeeeeedddd------------------------------------------------------------------------------------------------------------            ",
"        ]]------------------------------------------------------------------------------------------------------------^^        ddeeeeeeeeeeeeeeeeeeeeeeeeeeeeeeeeeeeeeeeeeeeeeeeeeeeeeeeeeedddd------------------------------------------------------------------------------------------------------------            ",
"        ]]------------------------------------------------------------------------------------------------------------^^        eeffgggghhhhiiiiiijjjjjjkkkkllllllllmmmmmmmmnnnnnnnnnnnnnnooppdd------------------------------------------------------------------------------------------------------------            ",
"        ]]------------------------------------------------------------------------------------------------------------^^        eeffgggghhhhiiiiiijjjjjjkkkkllllllllmmmmmmmmnnnnnnnnnnnnnnooppdd------------------------------------------------------------------------------------------------------------            ",
"        ]]------------------------------------------------------------------------------------------------------------^^        oojjqqqqhhhhhhhhhhkkkkkkkkkknnnnnnnnmmmmmmmmppddddddddddddmmdddd------------------------------------------------------------------------------------------------------------            ",
"        ]]------------------------------------------------------------------------------------------------------------^^        oojjqqqqhhhhhhhhhhkkkkkkkkkknnnnnnnnmmmmmmmmppddddddddddddmmdddd------------------------------------------------------------------------------------------------------------            ",
"        ]]------------------------------------------------------------------------------------------------------------^^        eeffrrrrhhhhiiiiiijjjjjjkkkkkkkkkkkklllllleeeeeeeennnnnnoooooodd------------------------------------------------------------------------------------------------------------            ",
"        ]]------------------------------------------------------------------------------------------------------------^^        eeffrrrrhhhhiiiiiijjjjjjkkkkkkkkkkkklllllleeeeeeeennnnnnoooooodd------------------------------------------------------------------------------------------------------------            ",
"        ]]------------------------------------------------------------------------------------------------------------^^        llllllkkkklllllleeeeeeeennnnnnnnnnnnooooooppppppssssmmmmmmdddddd------------------------------------------------------------------------------------------------------------            ",
"        ]]------------------------------------------------------------------------------------------------------------^^        llllllkkkklllllleeeeeeeennnnnnnnnnnnooooooppppppssssmmmmmmdddddd------------------------------------------------------------------------------------------------------------            ",
"        ]]------------------------------------------------------------------------------------------------------------^^        eeffffhhhhlliiiiiijjjjjjkkkkkkkkkkoolllllleeeeeennnnnnnnoooooodd------------------------------------------------------------------------------------------------------------            ",
"        ]]------------------------------------------------------------------------------------------------------------^^        eeffffhhhhlliiiiiijjjjjjkkkkkkkkkkoolllllleeeeeennnnnnnnoooooodd------------------------------------------------------------------------------------------------------------            ",
"        ]]------------------------------------------------------------------------------------------------------------^^        eeffpppphhlliiiijjddddddddddddddkkookkllddddddddddddddddddddoodd------------------------------------------------------------------------------------------------------------            ",
"        ]]------------------------------------------------------------------------------------------------------------^^        eeffpppphhlliiiijjddddddddddddddkkookkllddddddddddddddddddddoodd------------------------------------------------------------------------------------------------------------            ",
"        ]]------------------------------------------------------------------------------------------------------------^^        eeffpppphhlliiiijjjjjjkkkkkkllkkkkookkllddddddddddddddddddddoodd                                                                                                                        ",
"        ]]------------------------------------------------------------------------------------------------------------^^        eeffpppphhlliiiijjjjjjkkkkkkllkkkkookkllddddddddddddddddddddoodd                                                                                                                        ",
"        ]]------------------------------------------------------------------------------------------------------------^^        eefftttthhlliiiijjjjjjkkkkkkllkkkkoolllleeeeeeeennnnnnoooooooodd                                                                                                                        ",
"        ]]------------------------------------------------------------------------------------------------------------^^        eefftttthhlliiiijjjjjjkkkkkkllkkkkoolllleeeeeeeennnnnnoooooooodd                                                                                                                        ",
"        ]]------------------------------------------------------------------------------------------------------------^^        ddppppppppppppppppssssssssssssssssssssssmmmmmmmmmmmmmmdddddddddd                                                                                                                        ",
"        ]]------------------------------------------------------------------------------------------------------------^^        ddppppppppppppppppssssssssssssssssssssssmmmmmmmmmmmmmmdddddddddd                                                                                                                        ",
"        ]]------------------------------------------------------------------------------------------------------------^^        ||||||||11111111222222223333333344444444555555556666666677777777                                                                                                                        ",
"        ]]------------------------------------------------------------------------------------------------------------^^        ||||||||11111111222222223333333344444444555555556666666677777777                                                                                                                        ",
"        ]]------------------------------------------------------------------------------------------------------------^^        ||88889999999977777777666666665555555544444444333333332222222299                                                                                                                        ",
"        ]]------------------------------------------------------------------------------------------------------------^^        ||88889999999977777777666666665555555544444444333333332222222299                                                                                                                        ",
"        ^^^^^^^^^^^^^^^^^^^^^^^^^^^^^^^^^^^^^^^^^^^^^^^^^^^^^^^^^^^^^^^^^^^^^^^^^^^^^^^^^^^^^^^^^^^^^^^^^^^^^^^^^^^^^^^^        ||88999999997777777766666666555555554444444433333333222222221199                                                                                                                        ",
"        ^^^^^^^^^^^^^^^^^^^^^^^^^^^^^^^^^^^^^^^^^^^^^^^^^^^^^^^^^^^^^^^^^^^^^^^^^^^^^^^^^^^^^^^^^^^^^^^^^^^^^^^^^^^^^^^^        ||88999999997777777766666666555555554444444433333333222222221199                                                                                                                        ",
"                                                                                                                                ||99999999777777776666666655555555444444443333333322222222111199                                                                                                                        ",
"                                                                                                                                ||99999999777777776666666655555555444444443333333322222222111199                                                                                                                        ",
"                                                                                                                                1199000000000000000000000000000000000000333333cccc22222211111199                                                                                                                        ",
"                                                                                                                                1199000000000000000000000000000000000000333333cccc22222211111199                                                                                                                        ",
"                                                                                                                                1199bbbbbbbbbbbbbbbbbbbbbbbbbbbbbbbbbbbb333333222222221111111188                                                                                                                        ",
"                                                                                                                                1199bbbbbbbbbbbbbbbbbbbbbbbbbbbbbbbbbbbb333333222222221111111188                                                                                                                        ",
"                                                                                                                                119900000000000000000000000000000000000033332222222211111111||88                                                                                                                        ",
"                                                                                                                                119900000000000000000000000000000000000033332222222211111111||88                                                                                                                        ",
"        ]]]]]]]]]]]]]]]]]]]]]]]]]]]]]]]]]]]]]]]]]]]]]]]]]]]]]]]]]]]]]]]]]]]]]]]]]]]]]]]]]]]]]]]]]]]]]]]]]]]]]]]]]]]]]]]]        1177bbbbbbbbbbbbbbbbbbbbbbbbbbbbbbbbbbbb332222222211111111||||88                                                                                                                        ",
"        ]]]]]]]]]]]]]]]]]]]]]]]]]]]]]]]]]]]]]]]]]]]]]]]]]]]]]]]]]]]]]]]]]]]]]]]]]]]]]]]]]]]]]]]]]]]]]]]]]]]]]]]]]]]]]]]]        1177bbbbbbbbbbbbbbbbbbbbbbbbbbbbbbbbbbbb332222222211111111||||88                                                                                                                        ",
"        ]]uuuuuuuuuuuuuuuuuuuuuuuuuuuuuuuuuuuuuuuuuuuuuuuuuuuuuuvvuuuuuuuuuuuuuuuuuuuuuuuuvvuuuuuuuuuuuuuuuuuuuuuuuuvv^^        22777777666666665555555544444444333333332222222211111111||||||88                                                                                                                        ",
"        ]]uuuuuuuuuuuuuuuuuuuuuuuuuuuuuuuuuuuuuuuuuuuuuuuuuuuuuuvvuuuuuuuuuuuuuuuuuuuuuuuuvvuuuuuuuuuuuuuuuuuuuuuuuuvv^^        22777777666666665555555544444444333333332222222211111111||||||88                                                                                                                        ",
"        ]]uuwwwwwwwwwwwwwwwwwwwwwwwwwwwwwwwwwwwwwwwwwwwwwwwwwwwwaauuwwwwwwwwwwwwwwwwwwwwwwaauuwwwwwwwwwwwwwwwwwwwwwwaa^^        2222223333333344444444555555556666666677777777999999998888888888                                                                                                                        ",
"        ]]uuwwwwwwwwwwwwwwwwwwwwwwwwwwwwwwwwwwwwwwwwwwwwwwwwwwwwaauuwwwwwwwwwwwwwwwwwwwwwwaauuwwwwwwwwwwwwwwwwwwwwwwaa^^        2222223333333344444444555555556666666677777777999999998888888888                                                                                                                        ",
"        ]]uuwwwwwwwwwwwwwwwwwwwwwwwwwwwwwwwwwwwwwwwwwwwwwwwwwwwwaauuwwwwwwwwwwwwaawwwwwwwwaauuwwwwwwwwaawwwwwwwwwwwwaa^^        ||||||||11111111222222223333333344444444555555556666666677777777                                                                                                                        ",
"        ]]uuwwwwwwwwwwwwwwwwwwwwwwwwwwwwwwwwwwwwwwwwwwwwwwwwwwwwaauuwwwwwwwwwwwaaawwwwwwwwaauuwwwwwwwwaaawwwwwwwwwwwaa^^        ||||||||11111111222222223333333344444444555555556666666677777777                                                                                                                        ",
"        ]]uuwwwwwwwwwwwwwwwwwwwwwwwwwwwwwwwwwwwwaaaawwwwwwwwwwwwaauuwwwwwwwwwwaaaawwwwwwwwaauuwwwwwwwwaaaawwwwwwwwwwaa^^        ||88889999999977777777666666665555555544444444333333332222222299                                                                                                                        ",
"        ]]uuwwwwwwwwwwwwwwwwwwwwwwwwwwwwwwwwwwwwaaaawwwwwwwwwwwwaauuwwwwwwwwwaaaaawwwwwwwwaauuwwwwwwwwaaaaawwwwwwwwwaa^^        ||88889999999977777777666666665555555544444444333333332222222299                                                                                                                        ",
"        ]]uuwwwwwwwwwwwwaawwaawwaawwaawwaawwaawwaaaawwwwwwwwwwwwaauuwwwwwwwwaaaaaawwwwwwwwaauuwwwwwwwwaaaaaawwwwwwwwaa^^        ||88999999997777777766000000000000000000004433333333222222221199                                                                                                                        ",
"        ]]uuwwwwwwwwwwwwaawwaawwaawwaawwaawwaawwaaaawwwwwwwwwwwwaauuwwwwwwwaaaaaaawwwwwwwwaauuwwwwwwwwaaaaaaawwwwwwwaa^^        ||88999999997777777766000000000000000000004433333333222222221199                                                                                                                        ",
"        ]]uuwwwwwwwwwwwwaaaaaaaaaaaaaaaaaaaaaaaaaaaawwwwwwwwwwwwaauuwwwwwwaaaaaaaawwwwwwwwaauuwwwwwwwwaaaaaaaawwwwwwaa^^        ||9999000000000000000000aaaaaaaaaaaaaaaa000000000000000000111199                                                                                                                        ",
"        ]]uuwwwwwwwwwwwwaaaaaaaaaaaaaaaaaaaaaaaaaaaawwwwwwwwwwwwaauuwwwwwwaaaaaaaawwwwwwwwaauuwwwwwwwwaaaaaaaawwwwwwaa^^        ||9999000000000000000000aaaaaaaaaaaaaaaa000000000000000000111199                                                                                                                        ",
"        ]]uuwwwwwwwwwwwwwwaawwaawwaawwaawwaawwaaaaaawwwwwwwwwwwwaauuwwwwwwwaaaaaaawwwwwwwwaauuwwwwwwwwaaaaaaawwwwwwwaa^^        119900aaaaaaaaaaaaaaaaaaaaaaaaaaaaaaaaaaaaaaaaaaaaaaaaaaaabb1199                                                                                                                        ",
"        ]]uuwwwwwwwwwwwwwwaawwaawwaawwaawwaawwaaaaaawwwwwwwwwwwwaauuwwwwwwwwaaaaaawwwwwwwwaauuwwwwwwwwaaaaaawwwwwwwwaa^^        119900aaaaaaaaaaaaaaaaaaaaaaaaaaaaaaaaaaaaaaaaaaaaaaaaaaaabb1199                                                                                                                        ",
"        ]]uuwwwwwwwwwwwwwwwwwwwwwwwwwwwwwwwwwwwwaaaawwwwwwwwwwwwaauuwwwwwwwwwaaaaawwwwwwwwaauuwwwwwwwwaaaaawwwwwwwwwaa^^        119999bbbbbbbbbbbbbbbbbb4444444444444444bbbbbbbbbbbbbbbbbb111188                                                                                                                        ",
"        ]]uuwwwwwwwwwwwwwwwwwwwwwwwwwwwwwwwwwwwwaaaawwwwwwwwwwwwaauuwwwwwwwwwwaaaawwwwwwwwaauuwwwwwwwwaaaawwwwwwwwwwaa^^        119999bbbbbbbbbbbbbbbbbb4444444444444444bbbbbbbbbbbbbbbbbb111188                                                                                                                        ",
"        ]]uuwwwwwwwwwwwwwwwwwwwwwwwwwwwwwwwwwwwwwwwwwwwwwwwwwwwwaauuwwwwwwwwwwwaaawwwwwwwwaauuwwwwwwwwaaawwwwwwwwwwwaa^^        1199777777776666666655bb2222222222222222bb332222222211111111||88                                                                                                                        ",
"        ]]uuwwwwwwwwwwwwwwwwwwwwwwwwwwwwwwwwwwwwwwwwwwwwwwwwwwwwaauuwwwwwwwwwwwwaawwwwwwwwaauuwwwwwwwwaawwwwwwwwwwwwaa^^        1199777777776666666655bb2222222222222222bb332222222211111111||88                                                                                                                        ",
"        ]]uuwwwwwwwwwwwwwwwwwwwwwwwwwwwwwwwwwwwwwwwwwwwwwwwwwwwwaauuwwwwwwwwwwwwwwwwwwwwwwaauuwwwwwwwwwwwwwwwwwwwwwwaa^^        117777777766cccc665555bbbbbbbbbbbbbbbbbbbb222222bbbb881111||||88                                                                                                                        ",
"        ]]uuwwwwwwwwwwwwwwwwwwwwwwwwwwwwwwwwwwwwwwwwwwwwwwwwwwwwaauuwwwwwwwwwwwwwwwwwwwwwwaauuwwwwwwwwwwwwwwwwwwwwwwaa^^        117777777766cccc665555bbbbbbbbbbbbbbbbbbbb222222bbbb881111||||88                                                                                                                        ",
"        ]]vvaaaaaaaaaaaaaaaaaaaaaaaaaaaaaaaaaaaaaaaaaaaaaaaaaaaaaavvaaaaaaaaaaaaaaaaaaaaaaaavvaaaaaaaaaaaaaaaaaaaaaaaa^^        22777777666666665555555544444444333333332222222288888811||||||88                                                                                                                        ",
"        ]]vvaaaaaaaaaaaaaaaaaaaaaaaaaaaaaaaaaaaaaaaaaaaaaaaaaaaaaavvaaaaaaaaaaaaaaaaaaaaaaaavvaaaaaaaaaaaaaaaaaaaaaaaa^^        22777777666666665555555544444444333333332222222288888811||||||88                                                                                                                        ",
"        ^^^^^^^^^^^^^^^^^^^^^^^^^^^^^^^^^^^^^^^^^^^^^^^^^^^^^^^^^^^^^^^^^^^^^^^^^^^^^^^^^^^^^^^^^^^^^^^^^^^^^^^^^^^^^^^^        2222223333333344444444555555556666666677777777999999998888888888                                                                                                                        ",
"        ^^^^^^^^^^^^^^^^^^^^^^^^^^^^^^^^^^^^^^^^^^^^^^^^^^^^^^^^^^^^^^^^^^^^^^^^^^^^^^^^^^^^^^^^^^^^^^^^^^^^^^^^^^^^^^^^        2222223333333344444444555555556666666677777777999999998888888888                                                                                                                        ",
"                                                                                                                                ||||||||11111111222222223333333344444444555555556666666677777777                                                                                                                        ",
"                                                                                                                                ||||||||11111111222222223333333344444444555555556666666677777777                                                                                                                        ",
"                                                                                                                                ||88889999999977777777666666665555555544444444333333332222222299                                                                                                                        ",
"                                                                                                                                ||88889999999977777777666666665555555544444444333333332222222299                                                                                                                        ",
"                                                                                                                                ||88999999997777777766666666555555554444444433333333222222221199                                                                                                                        ",
"                                                                                                                                ||88999999997777777766666666555555554444444433333333222222221199                                                                                                                        ",
"                                                                                                                                ||999999997777777766666666555555aa444444443333333322222222111199                                                                                                                        ",
"                                                                                                                                ||999999997777777766666666555555aa444444443333333322222222111199                                                                                                                        ",
"uuuuuuuuuuuuuuuuuuuuuuuuuuuuuuuuuuuuuuuuuuuuuuuuuuuuuuvvuuuuuuuuuuuuuuuuuuuuuuuuvvuuuuuuuuuuuuuuuuuuuuuuuuvv                    119900000000000000000000000000aaaaaa0000333333cccc22222211111199                                                                                                                        ",
"uuuuuuuuuuuuuuuuuuuuuuuuuuuuuuuuuuuuuuuuuuuuuuuuuuuuuuvvuuuuuuuuuuuuuuuuuuuuuuuuvvuuuuuuuuuuuuuuuuuuuuuuuuvv                    119900000000000000000000000000aaaaaa0000333333cccc22222211111199                                                                                                                        ",
"uuwwwwwwwwwwwwwwwwwwwwwwwwwwwwwwwwwwwwwwwwwwwwwwwwwwwwaauuwwwwwwwwwwwwwwwwwwwwwwaauuwwwwwwwwwwwwwwwwwwwwwwaa                    1199bbbbbbbbbbaabbbbbbbbbbbbbbaaaaaabbbb333333222222221111111188                                                                                                                        ",
"uuwwwwwwwwwwwwwwwwwwwwwwwwwwwwwwwwwwwwwwwwwwwwwwwwwwwwaauuwwwwwwwwwwwwwwwwwwwwwwaauuwwwwwwwwwwwwwwwwwwwwwwaa                    1199bbbbbbbbbbaabbbbbbbbbbbbbbaaaaaabbbb333333222222221111111188                                                                                                                        ",
"uuwwwwwwwwwwwwwwwwwwwwwwwwwwwwwwwwwwwwwwwwwwwwwwwwwwwwaauuwwwwwwwwwwwwaawwwwwwwwaauuwwwwwwwwaawwwwwwwwwwwwaa                    119900000000aaaaaa00000000000000aa00000033332222222211111111||88                                                                                                                        ",
"uuwwwwwwwwwwwwwwwwwwwwwwwwwwwwwwwwwwwwwwwwwwwwwwwwwwwwaauuwwwwwwwwwwwaaawwwwwwwwaauuwwwwwwwwaaawwwwwwwwwwwaa                    119900000000aaaaaa00000000000000aa00000033332222222211111111||88                                                                                                                        ",
"uuwwwwwwwwwwwwwwwwwwwwwwwwwwwwwwwwwwwwaaaawwwwwwwwwwwwaauuwwwwwwwwwwaaaawwwwwwwwaauuwwwwwwwwaaaawwwwwwwwwwaa                    1177bbbbbbbbbbaabbbbbbbbbbbbbbbbbbbbbbbb33222222221111aa11||||88                                                                                                                        ",
"uuwwwwwwwwwwwwwwwwwwwwwwwwwwwwwwwwwwwwaaaawwwwwwwwwwwwaauuwwwwwwwwwaaaaawwwwwwwwaauuwwwwwwwwaaaaawwwwwwwwwaa                    1177bbbbbbbbbbaabbbbbbbbbbbbbbbbbbbbbbbb33222222221111aa11||||88                                                                                                                        ",
"uuwwwwwwwwwwwwaawwaawwaawwaawwaawwaawwaaaawwwwwwwwwwwwaauuwwwwwwwwaaaaaawwwwwwwwaauuwwwwwwwwaaaaaawwwwwwwwaa                    2277777766666666555555554444444433333333222222221111aaaaaa||||88                                                                                                                        ",
"uuwwwwwwwwwwwwaawwaawwaawwaawwaawwaawwaaaawwwwwwwwwwwwaauuwwwwwwwaaaaaaawwwwwwwwaauuwwwwwwwwaaaaaaawwwwwwwaa                    2277777766666666555555554444444433333333222222221111aaaaaa||||88                                                                                                                        ",
"uuwwwwwwwwwwwwaaaaaaaaaaaaaaaaaaaaaaaaaaaawwwwwwwwwwwwaauuwwwwwwaaaaaaaawwwwwwwwaauuwwwwwwwwaaaaaaaawwwwwwaa                    2222223333333344444444555555556666666677777777999999998888888888                                                                                                                        ",
"uuwwwwwwwwwwwwaaaaaaaaaaaaaaaaaaaaaaaaaaaawwwwwwwwwwwwaauuwwwwwwaaaaaaaawwwwwwwwaauuwwwwwwwwaaaaaaaawwwwwwaa                    2222223333333344444444555555556666666677777777999999998888888888                                                                                                                        ",
"uuwwwwwwwwwwwwwwaawwaawwaawwaawwaawwaaaaaawwwwwwwwwwwwaauuwwwwwwwaaaaaaawwwwwwwwaauuwwwwwwwwaaaaaaawwwwwwwaa                    ||||||||11111111222222223333333344444444555555556666666677777777                                                                                                                        ",
"uuwwwwwwwwwwwwwwaawwaawwaawwaawwaawwaaaaaawwwwwwwwwwwwaauuwwwwwwwwaaaaaawwwwwwwwaauuwwwwwwwwaaaaaawwwwwwwwaa                    ||||||||11111111222222223333333344444444555555556666666677777777                                                                                                                        ",
"uuwwwwwwwwwwwwwwwwwwwwwwwwwwwwwwwwwwwwaaaawwwwwwwwwwwwaauuwwwwwwwwwaaaaawwwwwwwwaauuwwwwwwwwaaaaawwwwwwwwwaa                    ||00000000000000000000000000000000000000000000000000000000002299                                                                                                                        ",
"uuwwwwwwwwwwwwwwwwwwwwwwwwwwwwwwwwwwwwaaaawwwwwwwwwwwwaauuwwwwwwwwwwaaaawwwwwwwwaauuwwwwwwwwaaaawwwwwwwwwwaa                    ||00000000000000000000000000000000000000000000000000000000002299                                                                                                                        ",
"uuwwwwwwwwwwwwwwwwwwwwwwwwwwwwwwwwwwwwwwwwwwwwwwwwwwwwaauuwwwwwwwwwwwaaawwwwwwwwaauuwwwwwwwwaaawwwwwwwwwwwaa                    ||00bbbbbbbbbbbbbbbbbbbbbbbbbbbbbbbbbbbbbbbbbbbbbbbbbbbbbb00bb99                                                                                                                        ",
"uuwwwwwwwwwwwwwwwwwwwwwwwwwwwwwwwwwwwwwwwwwwwwwwwwwwwwaauuwwwwwwwwwwwwaawwwwwwwwaauuwwwwwwwwaawwwwwwwwwwwwaa                    ||00bbbbbbbbbbbbbbbbbbbbbbbbbbbbbbbbbbbbbbbbbbbbbbbbbbbbbb00bb99                                                                                                                        ",
"uuwwwwwwwwwwwwwwwwwwwwwwwwwwwwwwwwwwwwwwwwwwwwwwwwwwwwaauuwwwwwwwwwwwwwwwwwwwwwwaauuwwwwwwwwwwwwwwwwwwwwwwaa                    ||00bb999977777777666666665555555544444444333333332222222200bb99                                                                                                                        ",
"uuwwwwwwwwwwwwwwwwwwwwwwwwwwwwwwwwwwwwwwwwwwwwwwwwwwwwaauuwwwwwwwwwwwwwwwwwwwwwwaauuwwwwwwwwwwwwwwwwwwwwwwaa                    ||00bb999977777777666666665555555544444444333333332222222200bb99                                                                                                                        ",
"vvaaaaaaaaaaaaaaaaaaaaaaaaaaaaaaaaaaaaaaaaaaaaaaaaaaaaaavvaaaaaaaaaaaaaaaaaaaaaaaavvaaaaaaaaaaaaaaaaaaaaaaaa                    110000000000000000000000000000000000000000000000000000000000bb99                                                                                                                        ",
"vvaaaaaaaaaaaaaaaaaaaaaaaaaaaaaaaaaaaaaaaaaaaaaaaaaaaaaavvaaaaaaaaaaaaaaaaaaaaaaaavvaaaaaaaaaaaaaaaaaaaaaaaa                    110000000000000000000000000000000000000000000000000000000000bb99                                                                                                                        ",
"aaaaaaaaaaaaaaaaaaaaaaaaaaaaaaaaaaaaaaaaaaaaaaaaaaaaaavvaaaaaaaaaaaaaaaaaaaaaaaavvaaaaaaaaaaaaaaaaaaaaaaaavv                    1199bbbbbbbbbbbbbbbbbbbbbbbbbbbbbbbbbbbbbbbbbbbbbbbbbbbbbbbbbb88                                                                                                                        ",
"aaaaaaaaaaaaaaaaaaaaaaaaaaaaaaaaaaaaaaaaaaaaaaaaaaaaaavvaaaaaaaaaaaaaaaaaaaaaaaavvaaaaaaaaaaaaaaaaaaaaaaaavv                    1199bbbbbbbbbbbbbbbbbbbbbbbbbbbbbbbbbbbbbbbbbbbbbbbbbbbbbbbbbb88                                                                                                                        ",
"aawwwwwwwwwwwwwwwwwwwwwwwwwwwwwwwwwwwwwwwwwwwwwwwwwwwwuuaawwwwwwwwwwwwwwwwwwwwwwuuaawwwwwwwwwwwwwwwwwwwwwwuu                    119977777777666666665555555544444444333333332222222211111111||88                                                                                                                        ",
"aawwwwwwwwwwwwwwwwwwwwwwwwwwwwwwwwwwwwwwwwwwwwwwwwwwwwuuaawwwwwwwwwwwwwwwwwwwwwwuuaawwwwwwwwwwwwwwwwwwwwwwuu                    119977777777666666665555555544444444333333332222222211111111||88                                                                                                                        ",
"aawwwwwwwwwwwwwwwwwwwwwwwwwwwwwwwwwwwwwwwwwwwwwwwwwwwwuuaawwwwwwwwwwwwaawwwwwwwwuuaawwwwwwwwaawwwwwwwwwwwwuu                    1177aa7777aa00886655555555444444443333333322cccc2211bbbbbb77||88                                                                                                                        ",
"aawwwwwwwwwwwwwwwwwwwwwwwwwwwwwwwwwwwwwwwwwwwwwwwwwwwwuuaawwwwwwwwwwwaaawwwwwwwwuuaawwwwwwwwaaawwwwwwwwwwwuu                    1177aa7777aa00886655555555444444443333333322cccc2211bbbbbb77||88                                                                                                                        ",
"aawwwwwwwwwwwwwwwwwwwwwwwwwwwwwwwwwwwwaaaawwwwwwwwwwwwuuaawwwwwwwwwwaaaawwwwwwwwuuaawwwwwwwwaaaawwwwwwwwwwuu                    227777776666666655555555444444443333333322222222111188887777||88                                                                                                                        ",
"aawwwwwwwwwwwwwwwwwwwwwwwwwwwwwwwwwwwwaaaawwwwwwwwwwwwuuaawwwwwwwwwaaaaawwwwwwwwuuaawwwwwwwwaaaaawwwwwwwwwuu                    227777776666666655555555444444443333333322222222111188887777||88                                                                                                                        ",
"aawwwwwwwwwwwwaawwaawwaawwaawwaawwaawwaaaawwwwwwwwwwwwuuaawwwwwwwwaaaaaawwwwwwwwuuaawwwwwwwwaaaaaawwwwwwwwuu                    2222223333333344444444555555556666666677777777999999998888888888                                                                                                                        ",
"aawwwwwwwwwwwwaawwaawwaawwaawwaawwaawwaaaawwwwwwwwwwwwuuaawwwwwwwaaaaaaawwwwwwwwuuaawwwwwwwwaaaaaaawwwwwwwuu                    2222223333333344444444555555556666666677777777999999998888888888                                                                                                                        ",
"aawwwwwwwwwwwwaaaaaaaaaaaaaaaaaaaaaaaaaaaawwwwwwwwwwwwuuaawwwwwwaaaaaaaawwwwwwwwuuaawwwwwwwwaaaaaaaawwwwwwuu                    ||||||||11111111222222223333333344444444555555556666666677777777                                                                                                                        ",
"aawwwwwwwwwwwwaaaaaaaaaaaaaaaaaaaaaaaaaaaawwwwwwwwwwwwuuaawwwwwwaaaaaaaawwwwwwwwuuaawwwwwwwwaaaaaaaawwwwwwuu                    ||||||||11111111222222223333333344444444555555556666666677777777                                                                                                                        ",
"aawwwwwwwwwwwwwwaawwaawwaawwaawwaawwaaaaaawwwwwwwwwwwwuuaawwwwwwwaaaaaaawwwwwwwwuuaawwwwwwwwaaaaaaawwwwwwwuu                    ||88889999999977777777666666665555555544444444333333332222222299                                                                                                                        ",
"aawwwwwwwwwwwwwwaawwaawwaawwaawwaawwaaaaaawwwwwwwwwwwwuuaawwwwwwwwaaaaaawwwwwwwwuuaawwwwwwwwaaaaaawwwwwwwwuu                    ||88889999999977777777666666665555555544444444333333332222222299                                                                                                                        ",
"aawwwwwwwwwwwwwwwwwwwwwwwwwwwwwwwwwwwwaaaawwwwwwwwwwwwuuaawwwwwwwwwaaaaawwwwwwwwuuaawwwwwwwwaaaaawwwwwwwwwuu                    ||88999999997777777766666666555555554444444433333333222222221199                                                                                                                        ",
"aawwwwwwwwwwwwwwwwwwwwwwwwwwwwwwwwwwwwaaaawwwwwwwwwwwwuuaawwwwwwwwwwaaaawwwwwwwwuuaawwwwwwwwaaaawwwwwwwwwwuu                    ||88999999997777777766666666555555554444444433333333222222221199                                                                                                                        ",
"aawwwwwwwwwwwwwwwwwwwwwwwwwwwwwwwwwwwwwwwwwwwwwwwwwwwwuuaawwwwwwwwwwwaaawwwwwwwwuuaawwwwwwwwaaawwwwwwwwwwwuu                    ||99999999777777776666666655555555444444443333333322222222111199                                                                                                                        ",
"aawwwwwwwwwwwwwwwwwwwwwwwwwwwwwwwwwwwwwwwwwwwwwwwwwwwwuuaawwwwwwwwwwwwaawwwwwwwwuuaawwwwwwwwaawwwwwwwwwwwwuu                    ||99999999777777776666666655555555444444443333333322222222111199                                                                                                                        ",
"aawwwwwwwwwwwwwwwwwwwwwwwwwwwwwwwwwwwwwwwwwwwwwwwwwwwwuuaawwwwwwwwwwwwwwwwwwwwwwuuaawwwwwwwwwwwwwwwwwwwwwwuu                    1199999977777777666666665555555544444444333333332222222211111199                                                                                                                        ",
"aawwwwwwwwwwwwwwwwwwwwwwwwwwwwwwwwwwwwwwwwwwwwwwwwwwwwuuaawwwwwwwwwwwwwwwwwwwwwwuuaawwwwwwwwwwwwwwwwwwwwwwuu                    1199999977777777666666665555555544444444333333332222222211111199                                                                                                                        ",
"vvuuuuuuuuuuuuuuuuuuuuuuuuuuuuuuuuuuuuuuuuuuuuuuuuuuuuuuvvuuuuuuuuuuuuuuuuuuuuuuuuvvuuuuuuuuuuuuuuuuuuuuuuuu                    1199997777777766666666555555554444444433333333222222221111111188                                                                                                                        ",
"vvuuuuuuuuuuuuuuuuuuuuuuuuuuuuuuuuuuuuuuuuuuuuuuuuuuuuuuvvuuuuuuuuuuuuuuuuuuuuuuuuvvuuuuuuuuuuuuuuuuuuuuuuuu                    1199997777777766666666555555554444444433333333222222221111111188                                                                                                                        ",
"uuuuuuuuuuuuuuuuuuuuuuuuuuuuuuuuuuuuuuuuuuuuuuuuuuuuuuvvuuuuuuuuuuuuuuuuuuuuuuuuvvuuuuuuuuuuuuuuuuuuuuuuuuvv                    119977777777666666665555555544444444333333332222222211111111||88                                                                                                                        ",
"uuuuuuuuuuuuuuuuuuuuuuuuuuuuuuuuuuuuuuuuuuuuuuuuuuuuuuvvuuuuuuuuuuuuuuuuuuuuuuuuvvuuuuuuuuuuuuuuuuuuuuuuuuvv                    119977777777666666665555555544444444333333332222222211111111||88                                                                                                                        ",
"uuwwwwwwwwwwwwwwwwwwwwwwwwwwwwwwwwwwwwwwwwwwwwwwwwwwwwaauuwwwwwwwwwwwwwwwwwwwwwwaauuwwwwwwwwwwwwwwwwwwwwwwaa                    1177777777666666665555555544444444333333332222222211111111||||88                                                                                                                        ",
"uuwwwwwwwwwwwwwwwwwwwwwwwwwwwwwwwwwwwwwwwwwwwwwwwwwwwwaauuwwwwwwwwwwwwwwwwwwwwwwaauuwwwwwwwwwwwwwwwwwwwwwwaa                    1177777777666666665555555544444444333333332222222211111111||||88                                                                                                                        ",
"uuwwwwwwwwwwwwwwwwwwwwwwwwwwwwwwwwwwwwwwwwwwwwwwwwwwwwaauuwwwwwwwwwwwwxxwwwwwwwwaauuwwwwwwwwxxwwwwwwwwwwwwaa                    22777777666666665555555544444444333333332222222211111111||||||88                                                                                                                        ",
"uuwwwwwwwwwwwwwwwwwwwwwwwwwwwwwwwwwwwwwwwwwwwwwwwwwwwwaauuwwwwwwwwwwwxxxwwwwwwwwaauuwwwwwwwwxxxwwwwwwwwwwwaa                    22777777666666665555555544444444333333332222222211111111||||||88                                                                                                                        ",
"uuwwwwwwwwwwwwwwwwwwwwwwwwwwwwwwwwwwwwxxxxwwwwwwwwwwwwaauuwwwwwwwwwwxxxxwwwwwwwwaauuwwwwwwwwxxxxwwwwwwwwwwaa                    2222223333333344444444555555556666666677777777999999998888888888                                                                                                                        ",
"uuwwwwwwwwwwwwwwwwwwwwwwwwwwwwwwwwwwwwxxxxwwwwwwwwwwwwaauuwwwwwwwwwxxxxxwwwwwwwwaauuwwwwwwwwxxxxxwwwwwwwwwaa                    2222223333333344444444555555556666666677777777999999998888888888                                                                                                                        ",
"uuwwwwwwwwwwwwxxwwxxwwxxwwxxwwxxwwxxwwxxxxwwwwwwwwwwwwaauuwwwwwwwwxxxxxxwwwwwwwwaauuwwwwwwwwxxxxxxwwwwwwwwaa                                                                                                                                                                                                            ",
"uuwwwwwwwwwwwwxxwwxxwwxxwwxxwwxxwwxxwwxxxxwwwwwwwwwwwwaauuwwwwwwwxxxxxxxwwwwwwwwaauuwwwwwwwwxxxxxxxwwwwwwwaa                                                                                                                                                                                                            ",
"uuwwwwwwwwwwwwxxxxxxxxxxxxxxxxxxxxxxxxxxxxwwwwwwwwwwwwaauuwwwwwwxxxxxxxxwwwwwwwwaauuwwwwwwwwxxxxxxxxwwwwwwaa                                                                                                                                                                                                            ",
"uuwwwwwwwwwwwwxxxxxxxxxxxxxxxxxxxxxxxxxxxxwwwwwwwwwwwwaauuwwwwwwxxxxxxxxwwwwwwwwaauuwwwwwwwwxxxxxxxxwwwwwwaa                                                                                                                                                                                                            ",
"uuwwwwwwwwwwwwwwxxwwxxwwxxwwxxwwxxwwxxxxxxwwwwwwwwwwwwaauuwwwwwwwxxxxxxxwwwwwwwwaauuwwwwwwwwxxxxxxxwwwwwwwaa                                                                                                                                                                                                            ",
"uuwwwwwwwwwwwwwwxxwwxxwwxxwwxxwwxxwwxxxxxxwwwwwwwwwwwwaauuwwwwwwwwxxxxxxwwwwwwwwaauuwwwwwwwwxxxxxxwwwwwwwwaa                                                                                                                                                                                                            ",
"uuwwwwwwwwwwwwwwwwwwwwwwwwwwwwwwwwwwwwxxxxwwwwwwwwwwwwaauuwwwwwwwwwxxxxxwwwwwwwwaauuwwwwwwwwxxxxxwwwwwwwwwaa                                                                                                                                                                                                            ",
"uuwwwwwwwwwwwwwwwwwwwwwwwwwwwwwwwwwwwwxxxxwwwwwwwwwwwwaauuwwwwwwwwwwxxxxwwwwwwwwaauuwwwwwwwwxxxxwwwwwwwwwwaa                                                                                                                                                                                                            ",
"uuwwwwwwwwwwwwwwwwwwwwwwwwwwwwwwwwwwwwwwwwwwwwwwwwwwwwaauuwwwwwwwwwwwxxxwwwwwwwwaauuwwwwwwwwxxxwwwwwwwwwwwaa                                                                                                                                                                                                            ",
"uuwwwwwwwwwwwwwwwwwwwwwwwwwwwwwwwwwwwwwwwwwwwwwwwwwwwwaauuwwwwwwwwwwwwxxwwwwwwwwaauuwwwwwwwwxxwwwwwwwwwwwwaa                                                                                                                                                                                                            ",
"uuwwwwwwwwwwwwwwwwwwwwwwwwwwwwwwwwwwwwwwwwwwwwwwwwwwwwaauuwwwwwwwwwwwwwwwwwwwwwwaauuwwwwwwwwwwwwwwwwwwwwwwaa                                                                                                                                                                                                            ",
"uuwwwwwwwwwwwwwwwwwwwwwwwwwwwwwwwwwwwwwwwwwwwwwwwwwwwwaauuwwwwwwwwwwwwwwwwwwwwwwaauuwwwwwwwwwwwwwwwwwwwwwwaa                                                                                                                                                                                                            ",
"vvaaaaaaaaaaaaaaaaaaaaaaaaaaaaaaaaaaaaaaaaaaaaaaaaaaaaaavvaaaaaaaaaaaaaaaaaaaaaaaavvaaaaaaaaaaaaaaaaaaaaaaaa                                                                                                                                                                                                            ",
"vvaaaaaaaaaaaaaaaaaaaaaaaaaaaaaaaaaaaaaaaaaaaaaaaaaaaaaavvaaaaaaaaaaaaaaaaaaaaaaaavvaaaaaaaaaaaaaaaaaaaaaaaa                                                                                                                                                                                                            ",
"----yyyyyy----------yy------yyyyyy------yyyyyy----------yy------yyyyyyyy----yyyyyy------yyyyyy------yyyyyy------yyyyyy----------yy------yy--yy--                                                                                                                                                                        ",
"----yyyyyy----------yy------yyyyyy------yyyyyy----------yy------yyyyyyyy----yyyyyy------yyyyyy------yyyyyy------yyyyyy----------yy------yy--yy--                                                                                                                                                                        ",
"--yy------yy------yyyy----yy------yy--yy------yy------yyyy----yy----------yy------yy----------yy--yy------yy--yy------yy--------yy----yy--yyyy--                                                                                                                                                                        ",
"--yy------yy------yyyy----yy------yy--yy------yy------yyyy----yy----------yy------yy----------yy--yy------yy--yy------yy--------yy----yy--yyyy--                                                                                                                                                                        ",
"--yy------yy--------yy------------yy----------yy----yy--yy----yy----------yy------------------yy--yy------yy--yy------yy------yy--------yyyy----                                                                                                                                                                        ",
"--yy------yy--------yy------------yy----------yy----yy--yy----yy----------yy------------------yy--yy------yy--yy------yy------yy--------yyyy----                                                                                                                                                                        ",
"--------------------yy--------yyyy--------yyyy------yy--yy------yyyyyy----yyyyyyyy------------yy----yyyyyy------yyyyyyyy------yy----------yy----                                                                                                                                                                        ",
"--------------------yy--------yyyy--------yyyy------yy--yy------yyyyyy----yyyyyyyy------------yy----yyyyyy------yyyyyyyy------yy----------yy----                                                                                                                                                                        ",
"--yy------yy--------yy------yy----------------yy--yy----yy------------yy--yy------yy----------yy--yy------yy----------yy----yy----------yy------                                                                                                                                                                        ",
"--yy------yy--------yy------yy----------------yy--yy----yy------------yy--yy------yy----------yy--yy------yy----------yy----yy----------yy------                                                                                                                                                                        ",
"--yy------yy--------yy----yy------------------yy--yyyyyyyyyy----------yy--yy------yy----------yy--yy------yy----------yy----yy----------yy--yy--                                                                                                                                                                        ",
"--yy------yy--------yy----yy------------------yy--yyyyyyyyyy----------yy--yy------yy----------yy--yy------yy----------yy----yy----------yy--yy--                                                                                                                                                                        ",
"--yy------yy--------yy----yy----------yy------yy--------yy------------yy--yy------yy----------yy--yy------yy--yy------yy--yy----------yy--yy--yy                                                                                                                                                                        ",
"--yy------yy--------yy----yy----------yy------yy--------yy------------yy--yy------yy----------yy--yy------yy--yy------yy--yy----------yy--yy--yy                                                                                                                                                                        ",
"----yyyyyy----------yy------yyyyyy------yyyyyy----------yy----yyyyyyyy------yyyyyy------------yy----yyyyyy------yyyyyy----yy----------yy----yy--                                                                                                                                                                        ",
"----yyyyyy----------yy------yyyyyy------yyyyyy----------yy----yyyyyyyy------yyyyyy------------yy----yyyyyy------yyyyyy----yy----------yy----yy--                                                                                                                                                                        ",
"----yyyyyy----yyyyyyyy------yyyyyy----yyyyyyyy------yyyyyyyy----yyyyyyyy----yyyyyy----yy------yy--------yy------------yy--yy------yy--yy----------yy------yy--yy------yy----yyyyyy------yyyyyy------yyyyyy----yyyyyyyy------yyyyyy----yyyyyyyyyy--yy------yy--yy------yy--yy------yy--yy------yy--yy------yy--yyyyyyyyyy",
"----yyyyyy----yyyyyyyy------yyyyyy----yyyyyyyy------yyyyyyyy----yyyyyyyy----yyyyyy----yy------yy--------yy------------yy--yy------yy--yy----------yy------yy--yy------yy----yyyyyy------yyyyyy------yyyyyy----yyyyyyyy------yyyyyy----yyyyyyyyyy--yy------yy--yy------yy--yy------yy--yy------yy--yy------yy--yyyyyyyyyy",
"--yy------yy--yy------yy--yy------yy--yy------yy--yy----------yy----------yy------yy--yy------yy--------yy------------yy--yy----yy----yy----------yyyy--yyyy--yyyy----yy--yy------yy--yy------yy--yy------yy--yy------yy--yy------yy------yy------yy------yy--yy------yy--yy------yy--yy------yy--yy------yy----------yy",
"--yy------yy--yy------yy--yy------yy--yy------yy--yy----------yy----------yy------yy--yy------yy--------yy------------yy--yy----yy----yy----------yyyy--yyyy--yyyy----yy--yy------yy--yy------yy--yy------yy--yy------yy--yy------yy------yy------yy------yy--yy------yy--yy------yy--yy------yy--yy------yy----------yy",
"--yy------yy--yy------yy--yy----------yy------yy--yy----------yy----------yy----------yy------yy--------yy------------yy--yy--yy------yy----------yy--yy--yy--yy--yy--yy--yy------yy--yy------yy--yy------yy--yy------yy--yy--------------yy------yy------yy--yy------yy--yy------yy----yy--yy----yy------yy--------yy--",
"--yy------yy--yy------yy--yy----------yy------yy--yy----------yy----------yy----------yy------yy--------yy------------yy--yy--yy------yy----------yy--yy--yy--yy--yy--yy--yy------yy--yy------yy--yy------yy--yy------yy--yy--------------yy------yy------yy--yy------yy--yy------yy----yy--yy----yy------yy--------yy--",
"----yyyyyy----yyyyyyyy----yy----------yy------yy----yyyyyy----yyyyyyyy------yyyyyy------yyyyyy----------yy------------yy--yyyy--------yy----------yy------yy--yy--yy--yy--yy------yy--yyyyyyyy----yy------yy--yyyyyyyy------yyyyyy--------yy------yy------yy--yy------yy--yy------yy------yy--------yyyyyyyy------yy----",
"----yyyyyy----yyyyyyyy----yy----------yy------yy----yyyyyy----yyyyyyyy------yyyyyy------yyyyyy----------yy------------yy--yyyy--------yy----------yy------yy--yy--yy--yy--yy------yy--yyyyyyyy----yy------yy--yyyyyyyy------yyyyyy--------yy------yy------yy--yy------yy--yy------yy------yy--------yyyyyyyy------yy----",
"--yy------yy--yy------yy--yy----------yy------yy--yy----------yy----------yy------yy--yy------yy--------yy------------yy--yy--yy------yy----------yy------yy--yy--yy--yy--yy------yy--yy----------yyyy----yy--yy------yy----------yy------yy------yy------yy--yy------yy--yy------yy------yy--------------yy------yy----",
"--yy------yy--yy------yy--yy----------yy------yy--yy----------yy----------yy------yy--yy------yy--------yy------------yy--yy--yy------yy----------yy------yy--yy--yy--yy--yy------yy--yy----------yyyy----yy--yy------yy----------yy------yy------yy------yy--yy------yy--yy------yy------yy--------------yy------yy----",
"--yy------yy--yy------yy--yy----------yy------yy--yy----------yy----------yy------yy--yy------yy--------yy------------yy--yy----yy----yy----------yy------yy--yy----yyyy--yy------yy--yy----------yy--yy--yy--yy------yy----------yy------yy------yy------yy--yy------yy--yy--yy--yy----yy--yy------------yy----yy------",
"--yy------yy--yy------yy--yy----------yy------yy--yy----------yy----------yy------yy--yy------yy--------yy------------yy--yy----yy----yy----------yy------yy--yy----yyyy--yy------yy--yy----------yy--yy--yy--yy------yy----------yy------yy------yy------yy--yy------yy--yy--yy--yy----yy--yy------------yy----yy------",
"--yy------yy--yy------yy--yy------yy--yy------yy--yy----------yy----------yy------yy--yy------yy--------yy----yy------yy--yy------yy--yy----------yy------yy--yy------yy--yy------yy--yy----------yy----yyyy--yy------yy--yy------yy------yy------yy------yy----yy--yy----yyyy--yyyy--yy------yy----------yy--yy--------",
"--yy------yy--yy------yy--yy------yy--yy------yy--yy----------yy----------yy------yy--yy------yy--------yy----yy------yy--yy------yy--yy----------yy------yy--yy------yy--yy------yy--yy----------yy----yyyy--yy------yy--yy------yy------yy------yy------yy----yy--yy----yyyy--yyyy--yy------yy----------yy--yy--------",
"--yy------yy--yyyyyyyy------yyyyyy----yyyyyyyy------yyyyyyyy--yy------------yyyyyy----yy------yy--------yy------yyyyyy----yy------yy----yyyyyyyy--yy------yy--yy------yy----yyyyyy----yy------------yyyyyy----yy------yy----yyyyyy--------yy--------yyyyyy--------yy------yy------yy--yy------yy----------yy--yyyyyyyyyy",
"--yy------yy--yyyyyyyy------yyyyyy----yyyyyyyy------yyyyyyyy--yy------------yyyyyy----yy------yy--------yy------yyyyyy----yy------yy----yyyyyyyy--yy------yy--yy------yy----yyyyyy----yy------------yyyyyy----yy------yy----yyyyyy--------yy--------yyyyyy--------yy------yy------yy--yy------yy----------yy--yyyyyyyyyy",
"----yyyyyy----yyyyyyyy------yyyyyy----yyyyyyyy------yyyyyyyy----yyyyyyyy----yyyyyy----yy------yy--------yy------------yy--yy------yy--yy----------yyyy--yyyy--yyyy----yy----yyyyyy------yyyyyy------yyyyyy----yyyyyyyy------yyyyyy----yyyyyyyyyy--yy------yy--yy------yy--yy------yy--yy------yy--yy------yy--yyyyyyyyyy",
"----yyyyyy----yyyyyyyy------yyyyyy----yyyyyyyy------yyyyyyyy----yyyyyyyy----yyyyyy----yy------yy--------yy------------yy--yy------yy--yy----------yyyy--yyyy--yyyy----yy----yyyyyy------yyyyyy------yyyyyy----yyyyyyyy------yyyyyy----yyyyyyyyyy--yy------yy--yy------yy--yy------yy--yy------yy--yy------yy--yyyyyyyyyy",
"--yy------yy--yy------yy--yy----------yy------yy--yy----------yy----------yy----------yy------yy--------yy------------yy--yy----yy----yy----------yy--yy--yy--yy--yy--yy--yy------yy--yy------yy--yy------yy--yy------yy--yy--------------yy------yy------yy--yy------yy--yy------yy----yy--yy----yy------yy--------yy--",
"--yy------yy--yy------yy--yy----------yy------yy--yy----------yy----------yy----------yy------yy--------yy------------yy--yy----yy----yy----------yy--yy--yy--yy--yy--yy--yy------yy--yy------yy--yy------yy--yy------yy--yy--------------yy------yy------yy--yy------yy--yy------yy----yy--yy----yy------yy--------yy--",
"--yyyyyyyyyy--yyyyyyyy----yy----------yy------yy--yyyyyyyy----yyyyyyyy----yyyyyyyyyy----yyyyyy----------yy------------yy--yyyyyy------yy----------yy------yy--yy--yy--yy--yy------yy--yyyyyyyy----yyyy----yy--yyyyyyyy------yyyyyy--------yy------yy------yy--yy------yy--yy------yy------yy--------yyyyyyyy------yy----",
"--yyyyyyyyyy--yyyyyyyy----yy----------yy------yy--yyyyyyyy----yyyyyyyy----yyyyyyyyyy----yyyyyy----------yy------------yy--yyyyyy------yy----------yy------yy--yy--yy--yy--yy------yy--yyyyyyyy----yyyy----yy--yyyyyyyy------yyyyyy--------yy------yy------yy--yy------yy--yy------yy------yy--------yyyyyyyy------yy----",
"--yy------yy--yy------yy--yy----------yy------yy--yy----------yy----------yy------yy--yy------yy--------yy----yy------yy--yy----yy----yy----------yy------yy--yy----yyyy--yy------yy--yy----------yy--yy--yy--yy------yy----------yy------yy------yy------yy----yy--yy----yyyy--yyyy----yy--yy------------yy----yy------",
"--yy------yy--yy------yy--yy----------yy------yy--yy----------yy----------yy------yy--yy------yy--------yy----yy------yy--yy----yy----yy----------yy------yy--yy----yyyy--yy------yy--yy----------yy--yy--yy--yy------yy----------yy------yy------yy------yy----yy--yy----yyyy--yyyy----yy--yy------------yy----yy------",
"--yy------yy--yyyyyyyy------yyyyyy----yyyyyyyy------yyyyyyyy--yy------------yyyyyy----yy------yy--------yy------yyyyyy----yy------yy----yyyyyyyy--yy------yy--yy------yy----yyyyyy----yy------------yyyyyy----yy------yy----yyyyyy--------yy--------yyyyyy--------yy------yy--yy--yy--yy------yy----------yy--yyyyyyyyyy",
"--yy------yy--yyyyyyyy------yyyyyy----yyyyyyyy------yyyyyyyy--yy------------yyyyyy----yy------yy--------yy------yyyyyy----yy------yy----yyyyyyyy--yy------yy--yy------yy----yyyyyy----yy------------yyyyyy----yy------yy----yyyyyy--------yy--------yyyyyy--------yy------yy--yy--yy--yy------yy----------yy--yyyyyyyyyy"};
