/* XPM */
static char * brk2_xpm[] = {
"128 128 211 2",
"  	c None",
". 	c #A600FF s border_dark",
"+ 	c #FF00F3 s border_middark",
"@ 	c #90D7E3",
"# 	c #93D9E2",
"$ 	c #96DADE",
"% 	c #9BDCDB",
"& 	c #9EDDD6",
"* 	c #A6DFCF",
"= 	c #A3DED3",
"- 	c #A6E0D1",
"; 	c #A8DFCE",
"> 	c #AAE1CC",
", 	c #ACE1CB",
"' 	c #B3E4C5",
") 	c #BCE7BD",
"! 	c #C3E9BB",
"~ 	c #CBECB6",
"{ 	c #D6F0AF",
"] 	c #D2EFB3",
"^ 	c #DCF3AD",
"/ 	c #EDF9A7",
"( 	c #E4F5AB",
"_ 	c #F5FBA5",
": 	c #FDFEA5",
"< 	c #FFFFAC",
"[ 	c #FFFFB5",
"} 	c #FFFFBB",
"| 	c #FEFFC5",
"1 	c #FF7700 s border_light",
"2 	c #EBF7AA",
"3 	c #FEFFD3",
"4 	c #FFFFDC",
"5 	c #FFFFE3",
"6 	c #F6FCAA",
"7 	c #FEFECC",
"8 	c #FFFFEB",
"9 	c #FDFEF6",
"0 	c #FDFEFE",
"a 	c #A8DFD3",
"b 	c #BAE6C2",
"c 	c #9ADBE3",
"d 	c #A3DEDB",
"e 	c #A9E0D2",
"f 	c #B2E3CA",
"g 	c #BCE6C9",
"h 	c #DAF1B4",
"i 	c #ABE2E8",
"j 	c #CAEBCD",
"k 	c #A5DDE5",
"l 	c #B4E4E3",
"m 	c #BEE8ED",
"n 	c #ADE1E5",
"o 	c #BAE6D7",
"p 	c #CCECD2",
"q 	c #D1EECC",
"r 	c #DCF2C8",
"s 	c #D3EFD3",
"t 	c #E5F5B7",
"u 	c #DBF2B8",
"v 	c #EDF9AA",
"w 	c #F2FAB3",
"x 	c #B5E3EA",
"y 	c #BDE8E6",
"z 	c #C6E9D8",
"A 	c #C4EAE6",
"B 	c #CCECEC",
"C 	c #D6F0EA",
"D 	c #DBF2D8",
"E 	c #E3F5D4",
"F 	c #E8F6C7",
"G 	c #E4F5CC",
"H 	c #CDEBE4",
"I 	c #F3FAD5",
"J 	c #D6F0F3",
"K 	c #DCF1EB",
"L 	c #DCF1F3",
"M 	c #D4EEDD",
"N 	c #DDF1E3",
"O 	c #E4F4E4",
"P 	c #E4F5DC",
"Q 	c #EAF7D9",
"R 	c #F5FACB",
"S 	c #D3ECE5",
"T 	c #F3FABF",
"U 	c #C6EAF0",
"V 	c #E3F4EC",
"W 	c #EEF8DC",
"X 	c #E9F7E5",
"Y 	c #EAF7EC",
"Z 	c #EDF8EB",
"` 	c #F3FAEC",
" .	c #F3FAE4",
"..	c #EFF9E5",
"+.	c #F5FBDC",
"@.	c #CDECF1",
"#.	c #C3E9EE",
"$.	c #E7F6F8",
"%.	c #EEF8F4",
"&.	c #EEF8F9",
"*.	c #D9EFE3",
"=.	c #F3FAF5",
"-.	c #E4F3F4",
";.	c #F4FAFA",
">.	c #D3EFBB",
",.	c #EBF6F5",
"'.	c #C6E5F0",
").	c #BCE4EC",
"!.	c #F2F7F7",
"~.	c #C5E2ED",
"{.	c #D4EAF1",
"].	c #DCEDF2",
"^.	c #DAEDED",
"/.	c #E6E7EB",
"(.	c #ECF6F8",
"_.	c #E3E4E8",
":.	c #ADDCE9",
"<.	c #B4DCEA",
"[.	c #C9E5E4",
"}.	c #ADD5E8",
"|.	c #AADBE6",
"1.	c #CCE6F0",
"2.	c #ACD3E5",
"3.	c #A6D1E4",
"4.	c #CCE4EE",
"5.	c #9BD5E0",
"6.	c #EFEFF2",
"7.	c #BBDCEB",
"8.	c #D4EAED",
"9.	c #D1E7F0",
"0.	c #E1EFF4",
"a.	c #CCD2D9",
"b.	c #C5E4E2",
"c.	c #C6DAE4",
"d.	c #D1E7EF",
"e.	c #C1DEEB",
"f.	c #B5D9E6",
"g.	c #B2D7E9",
"h.	c #BADAE4",
"i.	c #D9DCE2",
"j.	c #9BCBE2",
"k.	c #A1CEE3",
"l.	c #95C7E2",
"m.	c #B5CED9",
"n.	c #72767B",
"o.	c #767A7E",
"p.	c #757D84",
"q.	c #7A7D82",
"r.	c #7E8185",
"s.	c #7E8389",
"t.	c #8B8E93",
"u.	c #9AA3AA",
"v.	c #94A5B0",
"w.	c #AACDDC",
"x.	c #939599",
"y.	c #95999D",
"z.	c #989EA3",
"A.	c #A3A5AA",
"B.	c #A0A3A6",
"C.	c #A7AAAD",
"D.	c #CACDD2",
"E.	c #AAB5BB",
"F.	c #A5ADB3",
"G.	c #BBCBD3",
"H.	c #B5BFC3",
"I.	c #B7BABD",
"J.	c #B4B9BC",
"K.	c #B9C4CA",
"L.	c #8BC2E0",
"M.	c #82858A",
"N.	c #85898D",
"O.	c #94989B",
"P.	c #7B8C96",
"Q.	c #656A70",
"R.	c #6A6D72",
"S.	c #A0AFB8",
"T.	c #8A969D",
"U.	c #A9BBC5",
"V.	c #8E9296",
"W.	c #B2D6E6",
"X.	c #6C7378",
"Y.	c #99B8C7",
"Z.	c #84868B",
"`.	c #84BEDB",
" +	c #595D62",
".+	c #5F6369",
"++	c #FF0000 s border_midlight",
"@+	c #52565C",
"#+	c #D7D9DD",
"$+	c #63676C",
"%+	c #55595E",
"&+	c #252A31",
"*+	c #2A2E35",
"=+	c #6D7175",
"-+	c #9BCADE",
";+	c #99C6DA",
">+	c #474B51",
",+	c #2E3239",
"'+	c #3D4147",
")+	c #42464C",
"!+	c #5E6166",
"~+	c #8EB7CC",
"{+	c #93C6DD",
"]+	c #89C1DB",
"^+	c #45494F",
"/+	c #565B60",
"(+	c #A2C0CD",
"_+	c #4E5258",
":+	c #7E9EAE",
"<+	c #3F444A",
"[+	c #33383E",
"                                                                                                                                                                                                                                                                ",
"                                                                                                                                                                                                                                                                ",
"                                                                                                                                                                                                                                                                ",
"                                                                                                                                                                                                                                                                ",
"        . . . . . . . . . . . . . . . . . . . . . . . . . . . . . . . . . . . . . . . . . . . . . . . . . . . . . . . . . . . . . . . . . . . . . . . . . . . . . . . . . . . . . . . . . . . . . . . . . . . . . . . . . . . . . . . . . . . . . . + +         ",
"        . . . . . . . . . . . . . . . . . . . . . . . . . . . . . . . . . . . . . . . . . . . . . . . . . . . . . . . . . . . . . . . . . . . . . . . . . . . . . . . . . . . . . . . . . . . . . . . . . . . . . . . . . . . . . . . . . . . . . . + +         ",
"        . . @ @ @ @ # @ # @ # # $ # # # # # $ # # $ $ $ $ $ % $ $ $ $ % $ % % % % % & % & & & & & & * & & = - - * * ; * > > , , , , ' , ' ' ' ' ) ) ) ) ) ) ! ! ~ ) ~ ~ { ] { ^ ^ ^ / ( / / _ _ : : < [ [ } } } | } } } [ } < < : : : _ / _ ( ( ^ ( 1 1         ",
"        . . @ @ @ @ @ @ # # # # $ # # # # # # $ # # $ $ $ % $ $ $ $ % $ $ & $ & & & % & & % & & & & & * & = = - * * * * > > , , , , ' ' ' ' ) ' ) ' ) ) ) ) ! ! ~ ) ] ~ ] ] ^ ^ ( ^ 2 ( / / _ _ : : < [ [ } } } } } | } [ [ [ < : : _ _ / / 2 ( ^ ^ 1 1         ",
"        . . @ @ @ @ # @ # # # # # # # # # $ $ # $ $ $ $ $ $ $ $ $ % % $ % & & $ % % & & % & & & * & * & * & * * * * * * , ; , , > ' ' ' ' ' ' ) ' ) ) ) ) ) ~ ! ~ ~ ] ] { { ^ ^ 2 ( / / : : < < [ } | | 3 3 4 4 4 5 4 4 3 3 | | } } < < : _ / / 2 2 1 1         ",
"        . . @ @ @ @ # # # # # @ @ $ # # $ @ $ $ $ $ $ $ $ $ $ $ $ $ $ % $ & $ & & % % % & & & % & & & * & * * * = * * > ; , ' ; > , , ' ' ' ' ' ' ) ) ) ) ! ! ~ ~ ~ ] ] { { ^ ^ ( ( / / _ 6 : < } [ | | 3 3 4 4 4 4 4 4 3 3 | 7 } } : : _ : / / ( ( 1 1         ",
"        . . @ @ @ @ @ # @ # @ # $ @ # # # $ $ # # # $ $ $ $ $ $ % $ % % & $ % & & % % & & & & = & * * & = = - = - * > * , ; , , ' > , ' ' ' ) ' ) ) ) ) ) ~ ~ ~ ~ ] ] ] { ^ ^ ( / / _ : : < } } 3 7 8 5 9 9 0 0 0 0 0 0 9 9 5 5 7 3 } } : < _ _ / / 1 1         ",
"        . . @ @ @ @ @ # # # # # $ @ # # $ @ # # $ $ $ $ $ $ $ & $ $ % % $ & % % % & & % & & = & & & & * = = a = - > * > ; ; , , > ' ' ' ' ' ' b ) ) ) ) ) ) ~ ) ~ ~ ] ] { ^ ^ ( 2 / _ _ < < } } 3 3 5 5 9 9 0 0 0 0 0 0 9 9 5 8 3 7 | } < : _ : / / 1 1         ",
"        . . @ # @ @ @ # @ @ # @ @ @ $ $ # # $ $ $ $ $ $ % $ % $ % c % % d & c - & & & & & & - - - & - - - - - - > * > e , , , f ' ' ' ' b ' g b ) b ! ) ~ ! ~ ~ ] ~ h h h ^ ( 2 / _ : : [ } 7 7 8 8 0 0 0 0 0 0 0 0 0 0 0 0 0 0 8 8 3 7 } [ : : / _ 1 1         ",
"        . . @ @ @ @ @ # @ # # # @ $ $ @ # # $ $ $ $ $ % $ % $ % % c % % % c d % % & & & & & d & = - % - d - - - a > e e ; , , , ' , , ' ' ' b b b b ! ! ! ! ~ ~ ] ~ { { ^ ^ 2 ( _ / : : } [ 3 3 8 8 0 0 0 0 0 0 0 0 0 0 0 0 0 0 8 8 3 3 [ } : : _ _ 1 1         ",
"        . . @ @ @ @ # @ # # # # # # # # $ $ $ $ $ $ c % % c % % c - c c d % - c i - - - d d - d - - - e - a e e > > e f f f f f f f ' ' b b b b j ) ) ! ! ~ ~ ~ ] ] h h ( ( 2 2 _ : [ < | 7 5 8 0 0 0 0 0 0 0 0 0 0 0 0 0 0 0 0 0 0 5 5 | | < [ _ _ 1 1         ",
"        . . @ @ @ @ @ # # @ # # $ # $ # # c $ $ c $ c $ % % c c % c - - % % % % % c - c - d d d - & - - d e e e e e , , f e f f f ' ' ' b g b b ) ) j ! ~ ! ~ ~ ] ] h h h ( 2 2 6 _ [ [ | | 5 8 0 0 0 0 0 0 0 0 0 0 0 0 0 0 0 0 0 0 5 8 7 | < < _ _ 1 1         ",
"        . . @ @ # @ @ c @ @ @ @ # # $ # i k i l m i l i l i n n d d d d d d d & & % & & & - & - - n - - - - - - > - > > > > ' > ' f g o j g j p q p q q r s r r r r t u 2 t v w < 6 } } 3 3 9 9 0 0 0 0 0 0 0 0 0 0 0 0 0 0 0 0 0 0 9 9 3 7 } } : : 1 1         ",
"        . . # @ @ @ @ @ @ @ c c # $ c c i i l x l m m y i m d n k k k d k % % % % & & & & & - & - - e - - - - - - - > > > > > > ' f f g j z p j j q q q r r r r u r u u ( ( v v : : } } 3 3 9 9 0 0 0 0 0 0 0 0 0 0 0 0 0 0 0 0 0 0 9 9 3 3 [ [ : : 1 1         ",
"        . . # # c @ c @ c @ c @ i c x x m x m l m l i i i l n n - i k i d d % d d d l o A B B C m A o n - - > - > e f > > f > ' f f j g p p p j q s s D D D E D E E F G F t w w < [ | } 5 4 0 0 0 0 0 0 0 0 0 0 0 0 0 0 0 0 0 0 0 0 0 0 4 4 } } : : 1 1         ",
"        . . # # # c @ c @ c @ @ c i x y m l x l i m m l l l n l n n d - d d d % d d l l C H B B A A e o = - > > e > > > f > f f f ' o j p p p p s s s D D D D G G G F I t t w 6 < [ } | 4 4 0 0 0 0 0 0 0 0 0 0 0 0 0 0 0 0 0 0 0 0 0 0 4 4 } } : : 1 1         ",
"        . . # c c @ c c c c c i x x x x x y x m m m m y y m n n n n n n d k d n l l A A J J J K L L H H A H o y o o z o o o g f ' f M M M N N N O N P P P P E E G E F Q R R w w [ [ | 7 5 5 0 0 0 0 0 0 0 0 0 0 0 0 0 0 0 0 0 0 0 0 0 0 4 5 } | : : 1 1         ",
"        . . # # @ c # c c @ c c x x x y x x m x l m l y m l n n l i o i - k - - o l A A C L J C K L C H z H o o o o o o o o f o f f M S N D N D O D D P P D E E E E F F F F T w [ [ | | 5 5 0 0 0 0 0 0 0 0 0 0 0 0 0 0 0 0 0 0 0 0 0 0 4 4 } | : : 1 1         ",
"        . . c @ c c # c @ c i c i i i i i i y x m m A U U B y A A A A y m m y y y y B y C C A C C C A H H A H H H H H z z z f o g o K N K V O O O O P O P P P W Q Q Q F F R T T [ } 7 7 4 5 0 0 0 0 0 0 0 0 0 0 0 0 0 0 0 0 0 0 0 0 0 0 4 4 } } : : 1 1         ",
"        . . @ c c c c @ c @ c i i i l i i i y y m m U U B B A U U A m m y y y y y A A A B C C B B B A H H H H H H A z z z o o o g g N N O O O O O N P P O P X P Q G F E R R T T } } | | 5 5 0 0 0 0 0 0 0 0 0 0 0 0 0 0 0 0 0 0 0 0 0 0 4 4 } } : : 1 1         ",
"        . . m m k k @ @ @ c i c i i i i m m B U J J L L J L B B B B B J B B C B C L B B H A z A A H H A H A H H C C s H z z f o o o O Y O Y O V Z Y X Z Z Z ` Z  . .W W I I F R } | R 7 4 4 9 9 0 0 0 0 0 0 0 0 0 0 0 0 0 0 0 0 0 0 9 9 3 3 [ [ : : 1 1         ",
"        . . m m k i @ @ @ @ i i i i i i m m B U J L J L L J B B B B B B B B B C C L A H B B A A A A H H H H H H C C H H z z f f z g N N Y O O O Y Y X Y ..Z ` ` ....+.W I I R R } } 7 7 4 4 9 0 0 0 0 0 0 0 0 0 0 0 0 0 0 0 0 0 0 0 9 9 3 3 } [ : : 1 1         ",
"        . . @.@.m m m m i i m i m m J B #.U B J $.L %.$.%.$.%.$.$.L $.L L L K L L L $.V &.&.%.$.L L C C C H H H K K K C C z f f f f *.*.N N N N %.Z %.` 8 =.=.=.` ` ` `  .+.I I | R 7 7 4 3 8 8 0 0 0 0 0 0 0 0 0 0 0 0 0 0 0 0 0 0 5 5 | | < [ _ _ 1 1         ",
"        . . @.J m m m m i i i m y m B J U B J J $.$.$.$.$.$.%.L L $.L L L L J C L $.$.$.%.&.$.-.V $.C C H H C H K L N N H H f f f f D M N N O O Z Z Z =.=.=.` 8 =.` ` ` +.+.I I R | 7 7 3 3 8 8 0 0 0 0 0 0 0 0 0 0 0 0 0 0 0 0 0 0 5 8 | | [ < : _ 1 1         ",
"        . . m U m m m m #.m U #.B @.@.J B U J J &.$.&.&.&.&.$.$.V $.$.$.L V L L &.%.&.&.;.;.;.;.;.;.%.%.L $.K K Y V $.$.$.V z z o p Y K Z Z Z %.=.=.=.=.9 =.=.=.` 8 `  .`  .+.+.R R | } 3 3 4 5 9 8 0 0 0 0 0 0 0 0 0 0 0 0 0 0 8 8 3 3 } [ : : / _ 1 1         ",
"        . . U m m m m m m m U m J @.@.@.U U L J $.$.&.&.&.&.&.$.$.$.$.V $.$.L K &.%.&.&.;.;.;.;.=.=.%.%.$.Y K L $.Y Y V Y V M z p o K Y Z $.=.%.=.9 =.9 =.9 =.=.` ` ` `  .8 +.+.R 7 | } 3 3 4 5 8 9 0 0 0 0 0 0 0 0 0 0 0 0 0 0 8 8 3 7 } } : : _ _ 1 1         ",
"        . . x x x m m m #.m J J J J J B #.m J L &.$.&.$.&.&.$.$.$.$.$.L $.$.$.$.&.&.&.&.;.;.&.%.&.&.%.$.$.%.%.%.%.&.$.%.$.%.K K C N %.%.%.=.=.9 ;.9 =.=.=.9 =.9 =.` ` `  .` +.+.+.I R R 3 3 4 3 5 4 8 8 9 9 0 0 0 0 0 0 9 9 5 5 3 3 } } < : _ _ 2 2 1 1         ",
"        . . x m x m m m m U J J J J @.@.m U L L $.&.$.&.&.&.$.&.$.Y $.$.$.V $.%.&.=.&.&.=.=.&.&.&.&.$.%.%.$.%.%.&.&.Z &.Z %.N K N C Z %.=.=.=.;.0 =.0 =.0 =.9 =.` ` ` ` `  .+.+.I I | | 3 3 3 4 5 5 8 8 0 9 0 0 0 0 0 0 9 9 5 8 7 3 } } : : _ _ / / 1 1         ",
"        . . m m m m m U U U L L L J J @.m m @.B L $.$.$.&.&.$.$.$.$.%.$.&.$.&.$.;.&.&.;.;.&.%.$.$.$.Y $.Y $.$.Z =.;.&.=.=.=.N C N K Z %.%.%.=.=.0 =.;.=.0 =.9 =.9 ` 8 =.` `  . .+. .3 +.3 I 3 3 3 3 3 4 4 4 5 5 5 5 4 4 3 3 | 7 } } : < _ 6 / / ( 2 1 1         ",
"        . . m m m m U m U U L L L J J @.x m @.B L L $.$.$.&.$.$.$.$.$.$.&.&.$.&.;.;.;.&.&.;.$.$.V $.$.Y V $.$.Y ;.;.=.=.&.&.C N K N %.%.Z %.Z %.=.;.9 9 =.0 =.9 ` =.=.=.8 `  . .+.+.+.+.3 3 3 3 3 3 4 4 4 4 4 5 5 5 4 4 3 3 | | [ } : < : 6 / 6 ( ( 1 1         ",
"        . . @.@.@.@.@.@.@.@.$.L L $.L L m U @.B J J L L $.&.&.&.&.&.&.&.;.&.&.&.;.;.;.;.;.=.Y $.V $.$.Y $.$.Y $.=.&.;.;.%.Z *.S *.C N K O V Y -.=.=.=.=.=.9 0 =.=.=.=.` ` ` ` 8  .` +. .+.+.I 3 3 3 7 7 7 7 7 7 7 | | } } } [ [ : : 6 6 / / 2 2 ^ ^ 1 1         ",
"        . . @.@.J @.@.@.@.@.L $.L L L L U U @.B J L L $.&.&.&.;.;.&.&.&.&.&.&.&.;.;.;.;.;.=.$.$.$.Y $.$.Y $.$.Y =.;.=.&.%.%.C S C M K K V O Y Y =.=.=.=.9 =.=.=.9 ` 8 =.` ` ` `  . .+. .4 +.3 3 3 7 7 3 7 7 7 7 | | | | } } [ [ < : 6 6 / v ( ( ^ ( 1 1         ",
"        . . @.J J @.J J J J $.L L $.$.$.L L L L L L $.$.&.&.;.;.;.;.;.;.;.;.;.&.;.;.;.;.;.;.;.&.$.%.%.&.$.%.Z $.&.;.;.9 ;.=.V $.N K O K V V Y Y =.=.=.=.9 =.9 9 =.` =.` =.` ` `  . .+.+. . .+.+.I 3 7 R | | } } } [ [ [ < < 6 6 6 6 2 2 t ( h ( h h 1 1         ",
"        . . @.J @.@.J J J J L $.$.L $.$.L L L L L L $.$.;.;.;.;.;.;.;.;.;.;.&.&.;.;.0 ;.;.;.&.&.&.%.&.%.%.%.$.%.;.=.;.=.=.;.V V K K K Y V O Y Y 9 =.9 =.=.=.;.=.` =.` =.` =.` ` `  .+.+.+. .I 4 I I R 7 | | } } [ } < [ < [ 6 w v 6 2 2 2 ( ( ^ h h 1 1         ",
"        . . U U U U @.@.@.J $.L $.$.$.$.J L L $.$.$.$.&.;.;.;.;.;.;.;.;.&.;.;.&.0 ;.;.;.;.0 =.;.&.&.&.%.%.&.&.&.;.;.0 ;.0 ;.=.;.%.%.%.Z =.%.;.=.0 =.;.0 ;.0 9 0 =.` =.=.` Z  .` ....W W  .+.+.I +.I R R R R F T w w w w v v 2 2 t ( ( t t h t r r u 1 1         ",
"        . . U U U U U U @.@.$.L $.$.$.$.L J $.$.$.$.&.&.;.;.;.;.;.;.;.;.&.&.&.;.;.0 0 ;.0 ;.;.;.=.&.=.&.&.%.&.&.;.;.;.;.;.0 &.=.%.%.$.%.%.&.=.=.9 0 =.0 9 0 ;.;.=.=.=.` ` ` ` ` ....W W W  .I +.I I R R R R T T w w w w v v 2 2 ( 2 ( ( u t r t r F 1 1         ",
"        . . m m m m m m U U U U J J L L J J L J $.L $.%.;.;.&.&.&.&.&.$.$.%.&.&.;.;.;.;.0 0 &.;.%.&.%.%.$.%.%.%.0 ;.=.0 ;.0 =.%.%.%.%.Y &.=.=.=.0 =.0 9 =.0 =.9 ` =.Z =.Z Z  .Z Z  .....`  . .` `  . . .I F F T t t w t t ( ( ( ^ ^ ^ ^ r u r r r r 1 1         ",
"        . . m m m m m m U U @.@.J J J L J J J J L $.$.&.;.;.&.&.&.&.$.%.$.%.%.&.;.0 ;.;.;.;.&.&.&.&.&.%.%.$.%.%.;.;.;.;.0 ;.%.%.=.Z %.%.%.=.=.=.=.0 ;.0 0 =.=.=.` =.` =.Z Z  .Z  .Z Z  . .` 8 ` 8 `  .+.I F T F t t t t t t ( ^ ^ ^ { ^ t u F r r r 1 1         ",
"        . . @.U U @.U U U m U U J J J J @.J @.@.J J J J $.$.$.L $.$.%.$.$.$.$.$.&.$.&.&.&.&.&.&.%.%.$.$.$.$.V $.-.Y %.=.%.&.Z $.%.%.%.%.Z $.%.%.%.=.%.=.=.%.=.Z Z Z Z Y X Z Z Z Z ..Z ` ` ` =.=.` ` ` ` ....I W F F F F G u F u h h ] ] E E Q P P Q 1 1         ",
"        . . U m U U U U U U @.U J J J J @.@.J @.J @.J J L $.$.$.$.$.L $.$.%.$.$.&.&.&.&.&.&.&.&.$.%.$.$.Y $.$.Y %.-.%.&.=.%.$.&.%.-.Z %.%.%.Z %.Z %.=.&.%.` Z =.%.Z Z Z Z Z Z X ..Z  .` ` ` ` ` ` ` 8 ` +...Q W F F F F t G u F h h ] ] E E E Q P P 1 1         ",
"        . . J @.J U U J J J J J L L L $.L L L L J J J J L $.$.$.%.$.%.%.%.%.%.%.%.$.$.$.$.$.$.$.$.Y %.%.$.Y L Y K V $.Y $.Y L V $.Y $.Z Y Y V Y Z Y Y Y Y Y Y Y Y Y Y Z Z Y X X ..X ` Z Y ` ` ` ` `  .Z W X Q Q E E E E G G r r >.>.>.>.P P ..X P O 1 1         ",
"        . . J J J J J J J J J J L J $.L $.L L L J B J J $.L L $.$.$.&.$.$.&.$.$.$.$.L $.$.V $.Y $.$.%.$.$.$.V L V L Y $.Y $.V V Y $.Z $.$.Y Y $.$.Y $.Z %.Y Z Y O Y Y Y Y X X Z Y ..Z ` ` ` ` ` `  . . .P W Q Q Q Q Q E G r r G >.>.>.>.P P P P X O 1 1         ",
"        . . U J U U @.@.J @.J J L L L L $.L $.$.L $.$.$.%.$.$.$.&.&.&.$.&.&.&.&.%.&.&.%.&.&.%.%.%.%.$.%.Y %.$.%.%.$.%.$.$.V $.Y $.Y $.Y $.Z $.Z %.Z %.Z %.%.%.%.Y Y Y Y Y O Z Y Z Y Z Z Y ` ..Y ..X P P P P Q Q E E P W E E s r ~ ~ q q O P O P D P 1 1         ",
"        . . J J @.J @.@.@.@.J @.L L L L $.$.$.$.$.$.$.$.$.$.&.&.$.$.&.&.&.&.&.&.%.&.&.&.&.$.%.%.&.%.%.$.$.$.%.%.$.Z $.$.Y $.Y $.Z $.Z $.Z $.Z $.%.%.%.%.%.Z Z ,.Y Y Y O Y Y X Y Z Z Z ` Z Z Z Z X ..P ..P W Q P P P P P E E r D ~ ~ q >.P P P P D D 1 1         ",
"        . . J @.U U U U @.U @.@.J J L L L L $.$.$.L $.$.$.$.$.$.%.$.%.$.%.$.%.$.-.&.&.%.$.$.$.%.$.$.$.$.Y %.-.Y -.$.Y -.$.Y $.Y $.Y $.V -.Y -.Z %.$.%.Z %.%.%.%.Z %.Z Z Z Z Z Z %.%.` =.,.` Z Z X X X P O P P P P P ..X P O r D j ! ! ! s q s s s s 1 1         ",
"        . . @.@.U U U U U @.U U J @.L L L L $.L L -.$.L $.$.$.$.$.$.$.%.$.%.$.$.&.$.$.%.$.%.%.$.$.%.%.-.$.$.$.%.$.%.$.V V $.V $.Y $.Y V Y -.Y -.%.Z %.%.%.Z %.Z %.Z Y %.Y %.Z %.Z Z Z =.` Z %.` X X O O P O P Q P E X X X O E D ! ! ! ! q q s s s D 1 1         ",
"        . . m m m m m m U U '.'.U U @.@.J J J J L J L L J L L L L L $.$.$.$.$.L $.V -.-.$.$.K V $.$.K $.$.V K $.$.K K -.$.$.K V K Y L L K V V V Y Z Z Z Y %.%.=.%.%.Z %.Z ,.Y Y Y Y =.=.Z =.` ,.Y Y X Y X X O O P N Y X X O O O q q j j s p M s N M 1 1         ",
"        . . m m ).m m ).m m m U U U @.@.J J J J J L L J L L $.L L $.$.L L L $.$.$.-.-.-.V $.$.$.V $.$.V L $.K $.K -.-.L K V V L L L K Y -.K V V -.$.-.%.,.Y %.%.Z %.,.%.,.Z Z Y ,.Y =.Z =.Z !.` Y X Y X X Y O O O P X X O X P O j q j j p p s M D N 1 1         ",
"        . . x x x x ).).m ).).).).m #.~.@.'.@.{.{.@.{.J ].J J J J L J L K L L L L -.K L L -.L -.-.L L L K L K K K L K ^.K K K K N K C C K C K K V $.Y Y Y Y %.%.Y Z Y V Y Y V V Y Y ` ,.` ,.,.` Y X O O /.X O O O O Y Y X Y Y Y D O D D *.M D N V O 1 1         ",
"        . . x x x x ).x ).m ).).#.).m m @.@.@.@.@.{.J {.J K J J L J J J L L L L L J L L L L V ].L -.K J K L K L K K K K J K K K K C C N K K K N V O $.-.Y ,.%.,.,.Y ,.Y V V Y X Y Y Y !.,.` ` =.X Y Y V O O O O O O Y Y Y Y Y Y D N N D D M N M O V 1 1         ",
"        . . m x ).x ).).).).).).).'.#.#.U '.@.U @.B B @.@.B {.@.L J &.&.;.&.&.=.;.;.;.;.!.!.&.&.,.-.(.,.%.%.&.&.(.,.,.,.,.(.,.,.$.L %.$.%.,.%.%.&.&.;.=.=.;.=.;.Y !.=.;.;.;.9 =.;.9 ;.;.9 ;.;.;.Y Y O N O *.D P N N O Y Y Y Y ,.N D *.M M s M M K O 1 1         ",
"        . . m x ).).).).).).).).).m #.m '.U '.@.U @.@.@.@.{.{.@.L L &.&.;.;.;.=.;.;.;.;.&.;.&.!.,.,.&.%.&.%.&.&.%.,.%.,.,.,.(.(.V $.$.Z ,.%.,.%.%.%.=.=.;.=.;.;.!.=.=.;.;.;.;.;.=.;.9 9 ;.0 9 =.V Y N _.N O *.N N K O Y Y Y Y Y N *.M M M M M M K N 1 1         ",
"        . . :.:.i i <.x x x x x x <.x x ).x ).y ).#.#.~.U U -.-.;.;.;.;.;.;.;.;.;.;.;.;.&.&.&.(.&.,.,.,.,.,.,.,.(.%.;.;.;.;.!.;.%.,.-.,.Y -.,.-.Y -.Y -.%.Y &.%.=.=.;.;.=.!.!.!.=.;.9 =.;.;.;.9 =.=.Y %.M *.M M M M M M *.^.^.O M [.M M z p z z *.*.1 1         ",
"        . . :.i x :.<.i <.x x x x x <.x x ).).).#.).~.y '.U -.$.;.;.;.;.;.;.;.;.;.;.;.;.&.!.&.&.,.&.$.%.-.,.,.-.,.(.;.;.;.;.!.!.,.%.Y -.-.,.V Y -.Y ,.,.%.%.%.=.!.!.;.;.=.;.!.!.=.;.!.;.;.9 !.;.;.=.%.%.D *.M M M M M M N O O V M M M M p z M z *.*.1 1         ",
"        . . @.@.@.@.U '.<.x k k :.k :.i l :.l :.:.l <.l {.{.;.&.&.&.;.;.;.&.;.;.;.;.;.;.!.&.(.(.%.,.-.-.-.,.,.,.%.!.;.;.!.;.;.;.;.!.;.(.%.%.,.,.,.,.Y Y -.Y ,.,.;.!.;.;.9 ;.;.9 9 ;.;.;.;.=.;.!.=.9 !.=.Y ,.*.*.M M M M *.*.K N *.S M M M z z z z z 1 1         ",
"        . . @.@.@.@.'.U x :.:.}.k :.:.:.:.x :.x l :.<.x {.{.&.&.;.&.;.&.;.;.;.;.;.;.;.;.!.!.(.(.$.,.$.-.,.-.,.,.(.!.;.;.9 ;.;.!.;.!.&.%.%.%.,.(.,.Y -.,.Y -.%.Y ;.!.0 ;.;.9 0 !.;.;.!.9 =.;.;.!.=.;.=.;.Y Y *.*.M M M M *.*.N N *.M S S p [.z z z z 1 1         ",
"        . . {.@.@.J J J '.'.).'.<.x x <.x x <.x |.:.|.|.,.(.;.&.;.;.;.;.;.;.;.;.;.;.(.;.(.(.(.(.-.-.-.-.-.-.,.,.(.(.(.!.!.,.(.!.%.&.%.%.%.;.%.&.%.%.!.%.%.(.%.(.0 ;.0 0 ;.0 9 ;.9 ;.0 ;.;.0 ;.;.;.9 0 ;.!.!.K V V N V ^.O ^.^.O _.K K *.S S S M S S 1 1         ",
"        . . {.@.J @.J @.1.1.).'.x :.<.<.x <.x x |.|.|.2.(.(.&.;.;.;.;.;.;.;.&.;.;.;.;.;.(.(.(.(.-.-.-.-.-.-.,.,.,.,.!.(.!.!.(.(.%.&.%.&.!.&.&.%.(.%.%.=.%.%.%.(.;.9 !.9 9 ;.0 9 ;.9 ;.0 9 ;.;.9 ;.;.;.;.!.;.N V K O ^.O ^.N V V K O K K S *.M S S S 1 1         ",
"        . . #.'.'.'.m ).).).).).).).).).:.x <.<.k 3.k k &.&.;.&.&.;.&.&.&.;.&.;.;.;.(.;.(.(.(.-.,.,.-.-.-.-.(.(.(.,.,.,.-.V ,.,.,.,.(.(.(.,.;.=.!.!.!.,.Y ,.(.!.0 !.;.0 ;.;.0 !.;.9 0 !.;.0 9 0 9 0 9 ;.=.;.K V V K N _.N ^.K K K _.K K C *.S S S S 1 1         ",
"        . . U #.'.'.'.'.).).).).).).).).x <.x :.k k |.k &.;.&.;.;.&.&.;.;.;.;.;.;.;.;.(.(.(.-.(.-.-.-.%.,.,.(.(.,.,.(.,.,.,.,.,.,.,.,.,.%.%.!.!.!.%.,.(.,.,.=.,.;.!.0 ;.0 ;.;.;.0 ;.!.0 0 0 ;.;.0 ;.;.;.=.!.O ^.K K K K ^.O K V N ^.N *.S S S S S S 1 1         ",
"        . . <.).x :.:.<.<.:.<.x x ).4.#.).).x <.5.5.|.|.(.;.(.&.(.(.(.;.;.;.;.;.!.0 ;.;.;.;.(.;.(.(.(.(.(.(.!.;.;.;.;.!.-.,.,.6.,.,.,.,.,.,.=.;.;.;.(.=.V -.,.,.!.!.!.=.&.!.0 =.0 ;.0 ;.0 ;.0 ;.;.9 ;.;.;.!.V V K N N ^.N ^.^.K N _.C N S H H H H S 1 1         ",
"        . . ).7.:.:.).:.<.x ).x 7.).U ~.~.m <.<.5.5.|.}.(.&.(.&.$.(.;.(.;.!.;.;.;.;.;.;.;.;.!.!.(.(.(.,.(.(.;.;.!.&.;.;.,.,.,.,.,.,.,.,.(.!.;.;.!.;.!.!.-.V ,.V (.=.!.=.=.&.;.;.=.0 ;.0 0 0 ;.0 0 ;.9 ;.;.;._.^.K K 8.N 8.N ^.V ^.^.K ^.S S H H S [.1 1         ",
"        . . '.@.<.).<.).).x ).7.).).9.{.'.U <.).{.@.{.J 0.0.$.0.0.$.!.(.;.;.;.;.;.0 ;.;.;.;.;.;.&.;.(.;.;.(.;.0 ;.;.;.;.(.(.(.(.,.,.!.,.(.(.;.;.;.;.;.;.,.-.6.-.,.!.(.!.;.&.;.0 ;.0 0 0 0 ;.;.;.;.;.!.!.=.!.%.%.,.,.^.^.*.8.S S S S S S [.z [.[.a.[.1 1         ",
"        . . '.U :.:.<.).).<.7.).7.).@.{.@.1.).7.@.{.J {.0.$.L $.$.0.!.6.;.;.;.;.;.;.0 ;.0 ;.;.;.;.&.(.;.(.;.;.;.;.;.!.!.(.!.,.,.,.(.,.,.(.&.9 ;.;.;.;.;.,.Y ,.,.,.,.!.!.=.;.0 ;.0 ;.0 =.;.0 ;.;.;.;.=.;.=.!.%.=.,.,.*.*.8.*.S S S 8.S H [.M [.b.H z 1 1         ",
"        . . {.{.U '.'.'.'.'.).7.m ).9.{.{.@.1.@.].L L 0.$.L $.$.$.0.;.!.;.;.;.;.0 0 ;.0 ;.;.;.;.;.;.;.(.(.(.;.0 0 ;.0 ;.(.!.,.,.,.,.,.,.!.,.;.;.;.;.;.0 (.(.!.(.%.&.;.;.;.;.;.0 ;.0 0 ;.0 ;.!.;.!.!.!.!.%.%.%.&.,.,.*.8.S 8.H H H H H [.z c.b.b.b.b.1 1         ",
"        . . @.{.).'.U '.'.'.'.'.).).{.{.@.{.@.1.].J L ].L L L $.$.$.(.;.;.;.;.;.;.;.0 ;.;.;.!.;.;.&.(.(.(.(.;.;.;.;.;.;.(.!.,.,.,.,.,.,.!.(.;.;.;.0 ;.;.!.!.!.,.!.%.;.;.;.!.0 0 0 ;.;.0 ;.0 !.!.%.!.%.!.%.;.(.(.Y ,.8.*.S S H H H d.[.H z [.z c.z b.1 1         ",
"        . . 9.J ).'.'.'.'.'.'.'.'.'.J {.{.{.].].~.'.'.~.{.{.-.(.(.(.;.!.;.;.;.0 0 ;.;.;.;.;.(.;.(.(.;.(.(.(.;.;.;.;.;.0 (.(.(.(.(.(.,.,.!.(.;.0 0 ;.;.0 %.!.!.(.!.(.!.!.;.!.;.;.;.0 ;.;.!.!.!.!.%.;.,.,.V 0.^.^.^.^.^.^.8.8.^.^.8.8.*.*.8.8.H S 4.H 1 1         ",
"        . . J @.'.'.'.'.'.'.'.'.'.'.].J J {.J ].4.'.'.'.{.{.-.(.!.(.;.(.;.;.;.;.;.;.;.0 ;.;.(.;.;.;.(.(.6.(.;.0 ;.;.;.;.(.(.(.(.,.!.!.(.(.!.;.;.;.0 0 ;.;.!.!.,.(.(.;.!.;.!.9 0 9 ;.;.0 !.;.!.!.&.%.!.,.0.-.*.K ^.^.*.8.*.^.^.S N 8.8.8.S H 8.H H d.1 1         ",
"        . . {.{.).7.).7.).7.<.).'.).{.{.J L ].].'.'.~.~.).~.L ].(.(.;.(.;.(.;.!.(.!.;.(.(.!.!.(.6.(.(.(.(.;.(.(.(.(.(.(.(.(.&.(.,.(.,.,.(.-.,.,.;.!.!.!.,.,.,.,.,.,.,.,.!.!.;.;.;.0 ;.;.!.,.!.,.%.,.-.V ^.^.^.^.8.S ^.8.^.^.^.^.S 8.S 8.S 8.8.H d.S 1 1         ",
"        . . @.{.).).'.7.).).).).).'.].{.L ].].].'.'.~.).~.).L ].(.(.(.;.(.;.;.(.(.(.(.;.!.(.(.(.(.(.(.(.(.(.(.(.(.(.(.(.(.(.!.(.(.(.(.,.6.,.,.,.&.!.&.!.,.,.,.,.,.(.,.!.!.(.;.;.;.;.=.;.,.!.,.,.,.(.-.-.^.S S ^.8.S 8.8.8.*.*.^.8.S 8.8.8.S 8.8.d.H 1 1         ",
"        . . <.<.:.:.}.:.}.}.:.}.}.}.<.<.'.1.@.@.~.7.).7.<.<.).e.].].$.6.$.$.(.(.$.(.;.;.;.!.;.(.&.;.;.;.;.(.6.(.,.(.!.&.(.(.(.(.,.(.,.(.,.,.,.,.%.&.,.&.,.,.-.-.V 0.,.,.(.(.=.;.;.;.;.;.=.=.(.,.0.V ^.^.^.].8.^.S 8.H H ^.0.V 0.V ].K ^.S ^.S ^.H H 1 1         ",
"        . . <.<.}.:.:.:.}.:.:.}.:.:.<.<.1.'.1.1.).).7.).f.<.~.).].{.$.$.(.6.(.(.(.(.(.;.;.(.(.;.&.;.;.(.(.(.(.(.,.,.&.!.(.(.!.(.(.(.(.,.,.,.,.,.(.,.&.,.-.6.-.(.-.-.,.,.!.(.;.!.;.;.;.;.!.!.!.!.V -.K ^.^.^.^.^.d.S 4.H V 0.^.0.0.^.].^.^.^.S 8.4.H 1 1         ",
"        . . <.<.<.<.7.7.'.'.9.{.9.9.'.'.'.'.~.'.e.7.7.7.7.7.<.<.e.'.'.1.9.{.0.0.0.0.$.0.(.$.$.(.$.0.(.0.(.(.0.0.-.-.-.0.-.-.0.L ].0.].^.K ].].0.8.].^.^.d.8.8.d.8.8.K 0.K 0.-.-.,.-.-.,.0.V 0.0.].0.0.V 8.8.^.^.H d.[.H 0.0.V 0.V K ^.^.8.8.8.8.8.8.1 1         ",
"        . . <.<.7.g.<.).'.'.9.@.@.@.1.'.'.'.e.'.).).~.7.<.7.7.7.'.e.1.1.].{.0.].0.0.0.$.$.(.6.$.6.(.(.(.-.(.0.-.-.-.-.-.0.-.].].].0.0.].L J 0.^.^.{.^.^.8.8.H 8.8.8.0.^.V 0.,.-.-.,.-.V -.V 0.V V 0.0.].^.^.^.^.H H d.H 0.0.-.-.].0.^.^.^.8.8.8.8.8.1 1         ",
"        . . '.'.1.1.@.9.9.@.].].].].0.].].J ].{.9.9.{.{.J {.{.].{.{.].0.0.$.(.(.(.(.(.(.$.(.$.$.$.$.0.(.$.0.-.-.0.0.0.-.].].8.].^.].^.].^.{.].^.B 8.8.d.^.8.].].^.0.0.Y -.0.6.-.V 0.0.0.^.0.^.0.^.0.V V 0./.^.^.c.[.4.4.V -.^.^.^.8.^.^.^.8.8.^.^.^.1 1         ",
"        . . '.'.'.@.9.9.{.@.].].0.].].].J ].].J {.{.{.{.@.{.].J ].].].].$.$.$.(.$.(.(.(.(.$.6.$.0.(.(.0.(.$.-.-.-.].-.-.].-.].].].].].^.].8.].].8.4.d.B ^.^.].^.0.0.-.-.0.,.,.,.0.0.^.V 0.^.0.^.0.^.-.-.V ^.^.^.4.H [.[./.^.^.].8.8.^.8.S 8.8.8.^.^.1 1         ",
"        . . ~.'.'.'.1.{.1.@.{.{.].9.{.].9.9.{.].].].].].].].].].J ].J ].6.$.$.(.6.$.$.(.$.6.0.$.$.6.$.$.6.(.(.(.$.6.0.0.9.].d.d.].^.^.].].^.].].d.8.0.].0.0.0.0.0.-.(.,.(.(.(.!.0.(.-.6.0.-.0.V ^.0.-.-.0.V ^.8.o h.o h.[.[.[.4.[.[.8.^.].8.^.].^.^.1 1         ",
"        . . '.~.'.'.{.1.@.1.9.{.{.9.{.{.{.{.{.{.J ].].0.].].].L ].].].].$.$.(.$.(.$.6.$.$.$.$.$.$.$.$.$.(.(.(.6.$.0.0.0.].].8.].].{.].].^.].].].].^.0.0.0.K 0.].V 0.(.(.,.!.(.(.(.(.(.-.-.0.0.V 0.^.-.6.-.-.8.8.h.h.h.h.[.4.[.H [.~.8.].^.^.].^.^.].1 1         ",
"        . . '.~.1.'.9.9.1.1.1.1.'.e.1.1.'.1.{.].].].0.0.].].].].{.{.].].0.$.$.$.0.0.6.$.0.$.0.$.6.$.6.$.(.(.(.(.(.(.$.0.0.0.^.].].].].].].].].L ].^.-.,.-.-.,.,.(.(.!.(.(.(.!.(.(.-.6.-.,.0.0.0.^.0.V -.0.0.].0.d.H ^.].].].8.^.S d.].^.0.^.^.].0.].1 1         ",
"        . . ~.1.'.1.9.9.1.1.1.1.1.'.'.1.1.1.{.{.].].0.0.].].{.].{.@.].].$.0.$.$.$.$.$.$.$.0.0.$.$.(.$.(.(.(.(.(.(.(.0.$.0.].].].].-.L 0.-.-.^.0.].].,.0.,.-.,.,.(.(.(.!.(.!.(.(.,.,.(.(.,.,.0.0.^.0.-.V 0.0.0.].d.d.].^.].8.^.8.4.8.].].^.].].^.^.].1 1         ",
"        . . 1.'.1.'.{.{.{.@.{.{.'.'.'.e.1.1.1.9.L ].].$.L ].{.{.'.1.1.1.].J {.].].].0.0.0.0.6.0.$.$.$.6.$.6.$.6.0.$.0.0.].].].].0.-.0.].].0.0.].].9.0.,.-.,.,.-.-.(.-.(.(.(.!.6.,.(.0.0.,.0.0.0.0.0.-.-.0.,.-.,.0.0.V 0.0.-.0.-.-.-.,.0.0.0.^.-.V ].1 1         ",
"        . . e.'.'.1.].9.@.9.{.{.'.'.'.'.'.'.9.9.{.J 0.].].].].J '.1.1.1.].].].J {.0.0.$.0.$.$.$.6.$.$.0.$.$.$.$.0.$.0.].].].].].0.-.].].].L ].-.].].,.0.-.0.,.,.(.(.6.(.(.,.(.(.,.,.-.(.0.Y 0.0.0.V 0.-.0.0.-.6.V 0.,.0.6.0.-.0.V 0.0.,.V 0.-.].].L 1 1         ",
"        . . ~.'.'.'.{.].].{.].{.9.1.9.1.1.1.9.9.9.9.].0.].].].].9.9.1.1.9.9.9.9.9.{.0.0.$.0.0.6.$.(.$.0.0.0.0.0.0.0.].].9.9.].].].-.-.].^.0.^.0.8.^.0.-.0.0.0.-.0.0.(.(.,.,.(.(.-.6.,.0.0.-.].].].^.0.V -.,.6.-.^.].^.0.].^.8.^.].0.0.0.0.6.0.-.8.8.1 1         ",
"        . . 1.~.'.e.{.9.{.{.].{.1.1.1.9.1.9.9.9.9.{.].].].].L ].9.9.1.9.9.{.{.9.9.].0.0.0.$.0.$.$.6.0.$.0.$.0.0.0.0.].].9.].].].].].].0.0.].].].8.8.0.0.0.0.0.-.-.0.-.(.,.,.6.(.-.,.-.,.V 0.].0.8.8.6.0.-.0.,.-.].^.0.^.^.].^.8.].^.,.0.V 0.-.].8.].1 1         ",
"        . . e.).1.'.].{.{.].{.].1.1.1.1.1.1.9.9.{.9.].0.0.0.0.0.].].{.].0.].].].0.0.0.6.0.$.$.0.6.$.0.0.$.0.].0.].].].].d.9.9.].0.].].].d.d.e.[.e.b.4.4.d.d.d.d.0.0.0.0.(.0.6.-.0.0.0.-.].].8.^.8.d.8.^.].0.0.0.8.].d.^.4.4.4.4.d.d.d.^.9.^.^.].d.d.1 1         ",
"        . . ~.'.'.1.{.{.].{.{.].1.1.1.1.9.1.9.9.{.9.].0.0.0.0.$.].].].].].].].0.0.0.$.0.$.$.$.6.$.6.0.$.0.$.0.0.0.].].].d.d.].9.].0.].].d.d.4.e.c.~.4.4.^.d.d.8.0.0.0.0.0.(.$.(.(.0.-.0.0.0.8.8.4.8.8.8.].].0.0.{.].8.8.H 4.d.d.^.^.d.^.^.d.].^.d.8.1 1         ",
"        . . 7.7.7.7.9.9.9.9.9.].e.e.'.'.'.~.~.~.1.1.].9.].].0.0.9.].].{.].]./.].0.0.$.$.6.0.0.0.$.0.0.0.0.$.].].].0.0.].].0.].].].0.].].].].9.e.[.~.8.4.].d.9.].-.0.0.6.0.-.(.-.0.-.-.-.0.0.]./.^.].d.8.0.^.-.0.0.0.].0.d.d.[.c.c.9.4.H e.d.].0.^.].1 1         ",
"        . . 7.7.7.7.9.9.].9.{.9.'.e.'.'.e.'.~.~.1.1.].9.].0.0.0.{.{.{.{.].].].0.0.0.0.$.0.$.0.$.0.$.$.0.6.0.].].0.].0.0.].].].].-.0.].].].].d.e.~.4.B 4.d.d.].^.0.0.0.0.(.0.0.-.0.0.-.0.0.0.0.0.].8.d.d./.0.0.,.].]./.0.d.d.4.[.4.d.4.4.d.d.^.].].8.1 1         ",
"        . . }.}.}.}.g.}.7.7.7.g.g.g.7.g.g.7.g.7.g.g.e.7.1.9.9.9.9.{.9.9.].].9.9.9.].9.].].{.].].0.0.0.0.0.0.].].].].].].].].0.].0.-.0.-.0.(.].].].].].].].].0.0.-.,.-.-.6.(.(.-.-.-.-.-.-.0.0.-.0.0.0.].L 0.-.,.-.-.-.0.].].].].].].8.].].^.0.0.].0.1 1         ",
"        . . }.}.}.}.g.}.7.7.7.7.g.<.7.7.<.7.<.g.g.7.7.7.1.1.9.0.9.9.9.{.].].9.].].9.].9.{.].].].0.0.0.0.0.0.].].].].].].].0.].0.0.0.0.-.0.0.].].].].].]./.].0.0.-.0.-.-.(.0.(.6.0.-.$.6.0.-.-.-.0.0.].^.0.0.,.0.-.-.0.6.^.].].].^.].^.].].8.0.0.-.0.1 1         ",
"        . . }.}.}.}.3.}.}.}.}.g.7.<.7.7.7.7.7.7.g.g.g.g.e.e.1.1.9.9.9.9.9.].1.4.9.9.4.1.1.1.9.9.].].].0.0.0.9.].9.].{.].].9.].].0.0.-.-.0.0.].].d.d.].d.9.9.].0.0.-.0.-.0.0.0.0.0.0.0.0.0.0.0.0.0.0.0.0.0.0.0.0.-.-.0.0.].].9./.].9.].].].].0.0.0.0.1 1         ",
"        . . }.}.g.}.}.}.}.}.g.g.g.g.7.7.7.e.7.7.g.g.g.g.e.e.'.1.9.9.9.9.].9.1.9.1.1.4.4.4.1.1.9.].].].0.0.0.].].].9.].{.9.].9.{.0.0.0.-.0.$.].].^.].d.].9.].].].0.-.-.-.0.(.0.0.-.0.6.0.0.0.0.0.^.0.].0.0.0.0.,.-.-.0.0.].].^.].].].^.d.^.].0.0.0.0.1 1         ",
"        . . 7.7.7.e.e.e.e.7.~.~.~.~.e.e.e.e.e.e.e.1.e.1.e.1.1.e.1.1.1.1.9.9.1.1.i.9.1.9.9.1.9.9.9.9./.9.9.9.9.9.1.1.1.9.9.9.1.1.d.4.].9.].].8.d.d.8.8.d.d.d.d.d.d.9.].^.9.].^.].].0.0.0.0.].]./.0.].].].].]./.0.0.6.0.0.].d.^.d.d.d.d.d.8.d.0.0.0.0.1 1         ",
"        . . 7.7.7.e.7.e.e.e.~.~.~.~.e.1.e.e.e.1.e.e.e.e.e.e.e.1.e.1.1.1.9.1.1.1.9.1.9.1.1.i.9.9.9.9.9.9.9.9.9.9.1.i.9.9.i.9.4.4.d.4.].].^.].9.d.8.d.d.4.d.d.8.d.].d.].^.].^.0.].0.0.0./.].].].].0.].].].].].0.0.0.0.0.0.8.].d.8.d.^.d.d.d.8.0.0.0.0.1 1         ",
"        . . g.g.g.g.7.g.7.7.7.e.e.e.e.e.e.7.e.7.e.e.1.1.e.e.1.e.e.1.1.e.e.1.1.1.4.1.9.9.9.9.9.9.9.9.4.4.4.9.9.1.9.9.9.9.1.4.4.4.e.e.1.d.d.9.4.4.~.4.4.4.4.c.e.4.e.c.4.e.c.4.4.d.9.d.].].].].9.].^.].9.d.9.9.d.^.d.d.d.^.4.4.4.4.c.4.c.4.c.4.[.4.d.d.1 1         ",
"        . . <.g.7.g.g.7.7.7.e.7.e.e.e.e.7.e.7.e.e.e.e.e.1.e.1.e.e.e.e.e.1.1.c.1.9.1.9.9.9.9.9.9.9.9.4.4.4.4.4.4.9.9.9.9.1.4.4.4.e.e.d.d.d.d.4.4.4.4.4.4.4.~.4.4.e.d.e.4.4.4.4.4.9.d.].].9.].].].d.^.d.].^.^.d.9.].].d.d.d.4.4.4.4.4.e.4.4.e.e.4.].d.1 1         ",
"        . . 2.}.}.}.}.}.g.g.7.7.e.e.7.e.g.g.7.7.7.7.e.e.e.e.9.1.1.1.9.9.9.4.1.1.9.9.9.1.9.9.9.9.9.9.9.9.9./.9.9.9.9.9.9.9.9.9.9.^.d.d.9.9.{.9.d.d.d.4.4.4.d.d.d.].9.9.d.].9.d.d.d.d.8.].d.].d.^.].{.9.9.9.d.d.4.d.d.e.d.4.d.4.4.d.4.4.~.c.e.e.h.4.4.1 1         ",
"        . . 2.}.}.}.}.}.}.g.g.7.7.7.7.7.g.g.g.g.7.e.e.e.e.e.1.1.9.9.9.9.4.4.9.9.1.9.9.9.9.9.9.9.9./.9.9.9.9.9.9.9.9.9.9.9.9.9.9.9.].9.9.8.9.9.9.d.d.4.4.d.4.d.d.9.^.].d.9.9.d.d.d.d.9.^.d.].].d.].{.{.i.9.d.d.4.9.c.d.d.4.[.4.d.4.4.c.4.c.e.e.7.4.~.1 1         ",
"        . . j.j.k.k.3.k.k.k.3.3.}.k.}.k.}.}.}.}.}.}.g.g.7.g.7.7.1.e.4.1.e.1.~.1.c.1.1.1.1.1.1.1.9.9.1.1.9.9.9.9.1.9.1.1.9.4.4.1.e.d.d.e.4.{.9.4.9.d.4.8.4.d.d.d.].d.d.].{.{.].d.].].].].].9.].9.].9.].].9.].d.^.].].9.d.d.d.d.d.d.d.4.4.4.1.4.d.4.4.1 1         ",
"        . . k.k.k.k.k.k.k.k.3.3.k.}.k.}.}.k.}.}.}.}.g.g.g.g.7.7.e.e.e.e.1.e.1.1.9.1.1.1.c.9.1.1.1.9.9.~.9.9.9.9.1.9.4.1.i.4.4.4.d.d.d.d.9.4.d.9.4.1.4.1.4.4.d.4.d.d.d.d.{.i.].].].9.].9.9.].9.].9.].].9.].9.].9.9.9.^.].d.^.d.d.d.4.d.4.4.B d.4.4.4.1 1         ",
"        . . l.l.j.j.j.j.l.j.j.l.l.l.l.k.k.k.3.3.}.}.}.}.}.2.g.}.g.c.7.7.e.e.e.~.4.4.4.e.e.~.~.~.e.~.~.~.~.9.~.~.4.e.1.4.~.4.~.4.e.e.~.4.4.4.4.4.4.4.~.4.e.4.~.4.4.4.d.4.9.9.d.^.d.].i.9.9.9.9.^.9.d.9.9.i.9.9.{.d.d.d.9.d.4.4.d.4.4.4.~.e.[.~.~.4.4.1 1         ",
"        . . l.l.j.j.l.j.j.l.l.j.k.l.k.l.k.k.3.3.}.}.g.}.}.2.}.m.g.7.7.7.e.7.~.c.e.4.e.4.e.e.~.~.e.~.e.~.~.4.4.1.4.4.4.e.e.e.4.e.e.d.e.1.e.4.4.e.4.1.~.4.e.4.4.4.4.4.d.9.9.9.d.9.].].9.9.].9.].].9.].].9.].8.9.9.d.d.d.d.d.4.d.4.4.4.e.4.~.~.4.4.e.4.1 1         ",
"        . . l.l.l.l.n.n.o.o.p.q.q.q.q.r.q.s.s.s.t.t.u.v.w.m.e.g.x.x.y.x.x.y.z.z.A.B.4.e.c.e.A.A.C.A.c.c.e.1.A.C.B.B.B.B.B.B.e.i.D.m.E.E.A.A.C.C.A.A.A.A.F.E.D.G.4.4.e.4.e.~.D.G.H.H.I.J.J.J.I.I.K.K.a.a.d.d.d.d.4.4.4.4.4.4.4.~.c.7.e.e.e.e.c.7.c.7.1 1         ",
"        . . L.L.l.l.n.o.q.n.q.p.q.q.r.q.r.q.s.M.N.t.v.u.m.m.e.g.x.x.O.y.y.y.z.z.B.B.e.4.e.c.A.A.A.A.c.c.1.1.A.C.B.B.B.B.B.B.9.c.m.G.E.E.F.A.A.C.A.A.A.C.E.C.K.G.4.4.4.c.~.~.a.G.H.H.J.J.J.J.I.I.K.K.a.a.d.d.d.d.4.4.4.4.4.4.e.~.e.~.c.e.h.e.7.e.7.~.1 1         ",
"        . . L.L.L.L.P.P.Q.Q.R.R.S.S.S.S.v.S.T.y.o.o.q.q.r.M.G.G.F.U.r.N.N.N.t.t.K.H.].].K.K.y.y.y.y.K.H.9.9.H.U.y.y.x.x.H.H.J.E.V.x.x.V.O.y.E.U.H.H.F.F.x.x.E.E.{.{.d.c.F.F.z.B.B.B.H.H.G.D.H.D.C.C.C.C.I.I.d.d.4.4.e.c.7.7.7.h.f.h.f.f.<.f.f.W.f.f.1 1         ",
"        . . L.L.L.L.P.P.X.Q.X.X.S.S.S.S.S.v.T.T.o.q.q.q.s.M.G.m.U.Y.Z.N.N.t.t.t.K.G.{.].K.K.y.y.y.y.H.H.].9.U.U.y.y.x.T.H.H.U.H.x.x.V.V.O.y.E.J.H.H.F.F.x.x.E.E.].{.c.c.C.F.B.B.B.z.H.H.D.D.K.H.C.C.C.C.I.I.d.S 4.4.e.~.7.e.h.h.f.f.g.f.h.h.f.:.W.f.1 1         ",
"        . . `.`.`.`.`.`. +.+.+ +9.9.9.9.e.e.g.7.S.U.R.R.p.p.t.t.9.9.z.z.N.N.V.V.0.$.0.].z.u.t.t.V.V.B.z./.0.1.1.u.u.F.A.H.G.t.t.t.t.A.z.9.].].].{.{.1.i.F.F.F.F.{.].E.U.y.y.O.O.G.D.].0.].].9.].D.G.y.z.B.y.D.K.{.9.e.c.f.f.2.W.|.w.2.2.W.w.2.2.3.3.1 1         ",
"        . . `.`.`.L.`.`..+ +.+.+9.9.9._.e.e.7.g.Y.S.R.Q.Q.p.T.t.9.9.z.z.N.N.x.x.0.0.].].u.u.t.t.V.t.z.B.0.0.1.9.u.u.u.F.G.G.t.t.t.t.B.B.9.9.].].{.9.1.9.F.F.F.C.9.].H.I.y.y.y.y.G.G.0.].].{.].d.D.K.z.z.y.B.I.K.9.].e.e.f.f.2.2.W.2.2.2.2.W.2.w.3.3.1 1         ",
"        ++++1 1 1 1 1 1 @+@+@+@+/./././.i.#+a.a.a.a.Q.$+$+$+R.R.6.6.J.J.n.n.o.o.#+#+i.i.r.q.N.Z.r.r.s.s.c.i.1.1.s.r.U.Y.T.z.q.q.q.q.c.i.].0.1.1.7.7.W.W.W.W.W.h.e.e.V.t.t.N.V.t.].].0.0.1.d.e.e.h.h.V.V.V.V.y.z.0.0.4.4.h.f.w.2.w.2.w.3.w.3.3.3.3.3.1 1         ",
"        ++++1 1 1 1 1 1 @+@+%+@+/./././.#+i.a.a.a.a.Q.$+$+$+R.R.6.!.J.J.o.n.o.o.#+#+_._.r.r.N.P.r.r.r.s.i.i.1.1.s.q.U.U.z.z.q.q.q.q.c.a.].].9.1.7.7.W.g.W.W.g.h.e.e.V.t.N.N.t.t.].0.0.0.d.d.e.e.h.h.V.V.V.V.y.z.0.].4.4.f.h.|.2.2.3.w.3.3.3.w.5.w.3.1 1         ",
"                        &+&+&+&+0 0 !.;.            *+&+&+&+*+*+0 0 D.D.&+&+&+&+o.o.r.r.=+R.U.U.=+=+q.=+S.F.H.U.=+=+m.2.p.q.=+=+R.R.].].{.{.v.v.R.R.R.R.R.=+=+=+7.f.n.n.q.o.N.Z.0.0.].9.7.7.2.2.3.3.Z.N.Z.Z.M.s.0.0.d.d.g.f.3.k.w.j.$ j.-+w.-+;+-+-+1 1         ",
"                        &+&+&+&+0 0 0 0             *+&+&+&+*+*+0 0 D.D.&+&+&+&+n.o.r.r.X.X.Y.U.n.=+=+=+F.F.H.H.n.=+2.2.s.s.=+X.=+R.].].9.9.v.z.R.R.R.R.=+=+=+=+f.f.o.o.q.o.Z.Z.0.0.9.].c.h.2.2.3.2.Z.Z.M.M.M.M.-.0.1.d.f.g.j.3.5.-+j.w.& -+-+;+-+-+1 1         ",
"                        &+&+&+&+0 0 0 0             &+&+&+&+>+>+0 0 0 0 ,+,+&+&+'+'+)+)+n.n.e.e.q.p.!+!+p.R.T.V.q.p.7.7.N.P. +.+!+!+G.G.4.1.w.;+~+~+Y.~+ +!+!+.+e.4.n.X.Q.Q.=+=+/.].9.1.g.g.-+k.Y.;+n.n.n.n.p.q.0.0.9.9.2.2.;+;+{+{+{+{+{+]+{+]+{+{+1 1         ",
"                        &+&+&+&+0 0 0 0             &+&+&+&+>+>+0 0 0 0 ,+,+&+&+'+'+)+)+n.=+e.e.p.p.!+!+=+p.T.T.p.p.7.7.P.T.$+ +!+ +G.G.1.4.w.w.~+~+;+Y.!+ +.+.+~.e.=+=+R.R.=+=+].0.9.9.W.g.k.k.j.;+n.n.=+p.q.q.0.0.1.1.2.2.-+;+{+{+{+]+{+{+{+]+{+{+1 1         ",
"                        &+&+&+&+0 0 0 0         *+*+&+&+&+&+V.V.0 0     ^+)+&+&+&+&+&+&+x.O.d.~.T.v.%+@+@+@+/+/+z.v.e.~.(+(+_+/+@+@+Q.Q.m.m.2.2.l.l.l.~+_+_+_+@+4.4.T.T.%+ + + +U.E.i.1.3.2.~+l.:+:+$+$+.+$+z.z.].].e.~.k.k.]+{+]+]+]+]+]+`.]+`.`.`.1 1         ",
"                        &+&+&+&+0 0 0 0         &+*+&+&+&+&+V.V.0 0     )+)+&+&+&+&+&+&+x.x.c.d.v.v._+%+@+@+/+/+v.z.~.e.(+Y._+_+_+_+Q.$+m.a.2.2.l.l.l.l._+_+@+_+4.~.T.T. +%+ + +E.U.1.1.2.2.j.j.:+:+$+$+.+ +v.z.].0.e.~.j.j.{+]+]+]+]+]+]+]+]+]+`.]+1 1         ",
"                    *+&+&+&+&+&+q.q.q.q.%+%+,+*+&+&+&+&+^+>+9 !.0 0         &+&+&+&+&+*+i._././.D.G.>+)+>+^+^+^+D.D.6./.#+#+B.A.>+>+)+)+)+)+R.R.q.q.q.=+)+)+^+)+/./.i.i.Q.Q.>+_+_+_+t.t.A.A.Z.Z./+/+_+/+q.q.i._.6./.i.i.1 1 1 1 1 1 1 1 1 1 1 1 1 1 1 1         ",
"                    &+&+&+&+&+&+q.q.q.o.%+%+,+,+&+&+&+&+>+^+!.0 0 0         &+&+&+&+*+*+_._././.D.D.>+>+)+>+^+^+D.D././.#+i.A.A.>+>+)+<+)+)+Q.R.q.q.=+p.)+)+^+^+/./.i.i.Q.Q._+_+_+_+t.t.A.A.N.Z./+/+/+_+n.n.i._././.i.i.1 1 1 1 1 1 1 1 1 1 1 1 1 1 1 1         ",
"                    &+&+&+&+&+&+&+&+&+&+&+&+*+*+'+'+r.r.!.0 0 0             &+&+&+&+%+%+0 0 0 0     ,+,+&+&+[+[+0 0 0 0              + +<+<+,+,+&+&+&+&+,+*+>+>+0 0 0 0      +%+'+'+*+*+&+&+,+*+'+'+o.q.!.!.0 0                                                 ",
"                    &+&+&+&+&+&+&+&+&+&+&+&+*+,+'+'+M.r.!.;.0 0             &+&+&+&+%+%+0 0 0 0     ,+,+&+&+[+[+0 0 0 0              + +<+<+,+,+&+&+&+&+*+,+>+>+0 0 0 0      + +'+'+*+*+&+&+,+,+'+'+q.o.!.!.0 0                                                 ",
"                                0 0 0 0                                                 0 0                     0 0                                                                                                                                             ",
"                                0 0 0 0                                                 0 0                     0 0                                                                                                                                             ",
"                                                                                                                                                                                                                                                                ",
"                                                                                                                                                                                                                                                                "};
