/* XPM */
static char * master_xpm[] = {
"247 65 7 1",
" 	c None",
".	c #202020 s back_color",
"+	c #42A100 s led_color_med",
"@	c #51C300 s led_color_high",
"#	c #245800 s led_color_low",
"$	c #6A00FF s border_dark",
"%	c #FF7700 s border_light",
"                                                                .......................................................................................................................................................................................",
"                                                                .+@@@@+.##++##.+@@@@+.+@@@@+.++##++.@@@@@+.+@@@@+.+@@@@+.+@@@@+.+@@@@+.######.######.######.######.++####.+@@@@+.......................................................................",
"                                                                .@@@@@@.##@@##.+@@@@@.+@@@@@.@@##@@.@@@@@+.@@@@@+.+@@@@@.@@@@@@.@@@@@@.######.######.######.######.@@####.@@@@@@.......................................................................",
"                                                                .@@..@@.##@@##.##..@@.##..@@.@@..@@.@@..##.@@..##.##..@@.@@..@@.@@..@@.##..##.##..##.##..##.##..##.##..##.@@..@@.......................................................................",
"    $$$$$$$$$$$$$$$$$$$$$$$$$$$$$$$$$$$$$$$$$$$$$$$$$$$$$$$$    .@@##@@.##@@##.@@@@@@.+@@@@@.@@@@@@.@@@@@+.@@@@@+.####@@.@@@@@@.@@@@@@.######.######.+@@@@+.######.######.@@@@@@.......................................................................",
"    $......................................................%    .@@##@@.##@@##.@@@@@+.+@@@@@.+@@@@@.@@@@@@.@@@@@@.####@@.@@@@@@.+@@@@@.######.######.+@@@@+.######.######.+@@@@+.......................................................................",
"    $......................................................%    .@@..@@.##@@##.@@..##.##..@@.##..@@.##..@@.@@..@@.##..@@.@@..@@.##..@@.##..##.##..##.##..##.##..##.##..##.@@..##.......................................................................",
"    $......................................................%    .@@@@@@.##@@##.@@@@@+.+@@@@@.####@@.+@@@@@.@@@@@@.####@@.@@@@@@.+@@@@@.######.+@@@@+.######.++####.++####.@@@@@+.......................................................................",
"    $......................................................%    .+@@@@+.##++##.@@@@@+.+@@@@+.####++.+@@@@+.+@@@@+.####++.+@@@@+.+@@@@+.######.+@@@@+.######.@@####.@@####.+@@@@+.......................................................................",
"    $......................................................%    .......................................................................................................................................................................................",
"    $......................................................%    .......................................................................................................................................................................................",
"    $......................................................%    .#@@@@#.@@@@@#.#@@@@+.@@@@@#.#@@@@+.#@@@@+.#@@@@+.++##++.##++##.####++.++##++.++####.@####@.@@@@@#.#@@@@#.+@@@@#.#@@@@#.@@@@@#.#@@@@+.+@@@@+.++##++.++##++.++##++.++##++.++##++.+@@@@@.",
"    $......................................................%    .@@@@@@.@@@@@@.@@@@@+.@@@@@@.@@@@@+.@@@@@+.@@@@@+.@@##@@.##@@##.####@@.@@##@@.@@####.@@##@@.@@@@@@.@@@@@@.@@@@@@.@@@@@@.@@@@@@.@@@@@+.+@@@@+.@@##@@.@@##@@.@@##@@.@@##@@.@@##@@.+@@@@@.",
"    $......................................................%    .@@..@@.@@..@@.@@..##.@@..@@.@@..##.@@..##.@@..##.@@..@@.##..##.##..@@.@@..@@.@@..##.@@@@@@.@@..@@.@@..@@.@@..@@.@@..@@.@@..@@.@@..##.##@@##.@@..@@.@@..@@.@@..@@.@@..@@.@@..@@.##.@@@.",
"    $......................................................%    .@@@@@@.@@@@+#.@@####.@@##+@.@@@@@+.@@@+##.@@#@@+.@@@@@@.##@@##.####@@.@@@@@#.@@####.@@@@@@.@@##@@.@+##+@.@@@@@@.@@##@@.@@@@@#.@@@@@#.##@@##.@@##@@.@@##@@.@@##@@.#@@@@#.@@@@@@.##+@@#.",
"    %%%%%%%%%%%%%%%%%%%%%%%%%%%%%%%%%%%%%%%%%%%%%%%%%%%%%%%%    .@@@@@@.@@@@+#.@@####.@@##+@.@@@@@+.@@@+##.@@#@@@.@@@@@@.##@@##.####@@.@@@@@#.@@####.@@##@@.@@##@@.@+##+@.@@@@@#.@@@#@@.@@@@@#.#@@@@@.##@@##.@@##@@.@@##@@.@@@@@@.#@@@@#.#@@@@@.#+@@##.",
"                                                                .@@..@@.@@..@@.@@..##.@@..@@.@@..##.@@..##.@@..@@.@@..@@.##@@##.##..@@.@@..@@.@@..##.@@..@@.@@..@@.@@..@@.@@..##.@@.+@@.@@..@@.##..@@.##@@##.@@..@@.@@@@@@.@@@@@@.@@..@@.##..@@.@@@.##.",
"                                                                .@@##@@.@@@@@@.@@@@@+.@@@@@@.@@@@@+.@@####.@@@@@@.@@##@@.##@@##.+@@@@@.@@##@@.@@@@@+.@@##@@.@@##@@.@@@@@@.@@####.@@@@@@.@@##@@.+@@@@@.##@@##.@@@@@@.#@@@@#.@@##@@.@@##@@.+@@@@@.@@@@@+.",
"    $$$$$$$$$$$$$$$$$$$$$$$$$$$$$$$$$$$$$$$$$$$$$$$$$$$$$$$$    .++##++.@@@@@#.#@@@@+.@@@@@#.#@@@@+.@@####.#@@@@#.++##++.##++##.+@@@@#.++##++.#@@@@+.++##++.++##++.#@@@@#.++####.#@@@@#.++##++.+@@@@#.##++##.#@@@@#.##@@##.@####@.++##++.+@@@@#.@@@@@+.",
"    $......................................................%    .......................................................................................................................................................................................",
"    $......................................................%    .......................................................................................................................................................................................",
"    $......................................................%    .+@+.#+#.@@+.@@+.+#+.@@@.+@@.@@+.+@+.+@+...............................................................................................................................................",
"    $......................................................%    .@.@.#@#.#.@.#.@.@.@.@.#.@.#.#.@.@.@.@.@...............................................................................................................................................",
"    $......................................................%    .@.@.#@#.#.@.#.@.@.@.@.#.@.#.#.@.@.@.@.@...............................................................................................................................................",
"    $......................................................%    .@#@.#@#.@@+.@@@.+@@.@@+.@@+.##@.@@@.+@@...............................................................................................................................................",
"    $......................................................%    .@.@.#@#.@.#.#.@.#.@.#.@.@.@.#.@.@.@.#.@...............................................................................................................................................",
"    $......................................................%    .@.@.#@#.@.#.#.@.#.@.#.@.@.@.#.@.@.@.#.@...............................................................................................................................................",
"    $......................................................%    .+@+.#+#.@@@.@@+.##+.@@+.+@+.##@.+@+.@@+...............................................................................................................................................",
"    $......................................................%    .......................................................................................................................................................................................",
"    $......................................................%    .......................................................................................................................................................................................",
"    $......................................................%    .+@+.@@#.+@@.@@#.+@@.+@@.+@@.+#+.#@#.##@.@#@.@##.@#@.@@#.@@@.@@+.+@+.@@+.+@@.@@@.+#+.+#+.+#+.+#+.+#+.@@@.###.###.###.###.+##.+@+###@...................................................",
"    $......................................................%    .@.@.@.@.@.#.@.@.@.#.@.#.@.#.@.@.#.#.#.@.@.@.@.#.@+@.@.@.@.@.@.@.@.@.@.@.@.#.#@#.@.@.@.@.@.@.@.@.@.@.#.@.#.#.#.#.#.#.#.#.@.#.@.@.#@#...................................................",
"    $......................................................%    .@.@.@.@.@.#.@.@.@.#.@.#.@.#.@.@.#@#.#.@.@.+.@.#.@@@.@.@.@.@.@.@.@.@.@.@.@.#.#@#.@.@.@.@.@.@.@.@.@.@.#.+.#.#.#.#.#.#.#.#.#.#.@.@.@.#...................................................",
"    $......................................................%    .@@@.@+#.@##.@#+.@@@.@@#.@#@.@@@.#@#.##@.@@#.@##.@#@.@#@.+#+.@@+.@#@.@+#.+@+.#@#.@#@.@#@.@#@.#@#.@#@.#@#.###.###.+@+.###.###.+@+@+@+...................................................",
"    $......................................................%    .@.@.@.@.@.#.@.@.@.#.@.#.@.@.@.@.#@#.#.@.@.+.@.#.@.@.@.@.@.@.@.#.@.@.@.@.#.@.#@#.@.@.@.@.@@@.@.@.#@#.+.#.#.#.#.#.#.#.#.#.#.#.#.@.@.@...................................................",
"    $......................................................%    .@.@.@.@.@.#.@.@.@.#.@.#.@.@.@.@.#@#.@.@.@.@.@.#.@.@.@.@.@.@.@.#.+@+.@.@.#.@.#@#.@.@.@.@.@+@.@.@.#@#.@.#.#.#.#.#.#.#.+.#.+.#.#@#.@.@...................................................",
"    $......................................................%    .+#+.@@#.+@@.@@#.+@@.+##.+@+.+#+.#+#.+@+.@#@.+@@.+#+.+#+.@@@.@##.++@.@#@.@@+.#+#.@@@.#@#.@#@.+#+.#@#.@@@.###.+@+.###.@##.@##.@###+@+...................................................",
"    $......................................................%    .......................................................................................................................................................................................",
"    $......................................................%                                                                                                                                                                                           ",
"    $......................................................%                                                                                                                                                                                           ",
"    $......................................................%                                                                                                                                                                                           ",
"    $......................................................%                                                                                                                                                                                           ",
"    $......................................................%                                                                                                                                                                                           ",
"    $......................................................%                                                                                                                                                                                           ",
"    $......................................................%                                                                                                                                                                                           ",
"    $......................................................%                                                                                                                                                                                           ",
"    $......................................................%                                                                                                                                                                                           ",
"    $......................................................%                                                                                                                                                                                           ",
"    $......................................................%                                                                                                                                                                                           ",
"    $......................................................%                                                                                                                                                                                           ",
"    $......................................................%                                                                                                                                                                                           ",
"    $......................................................%                                                                                                                                                                                           ",
"    $......................................................%                                                                                                                                                                                           ",
"    $......................................................%                                                                                                                                                                                           ",
"    $......................................................%                                                                                                                                                                                           ",
"    $......................................................%                                                                                                                                                                                           ",
"    $......................................................%                                                                                                                                                                                           ",
"    $......................................................%                                                                                                                                                                                           ",
"    $......................................................%                                                                                                                                                                                           ",
"    %%%%%%%%%%%%%%%%%%%%%%%%%%%%%%%%%%%%%%%%%%%%%%%%%%%%%%%%                                                                                                                                                                                           ",
"                                                                                                                                                                                                                                                       ",
"                                                                                                                                                                                                                                                       ",
"                                                                                                                                                                                                                                                       ",
"                                                                                                                                                                                                                                                       ",
"                                                                                                                                                                                                                                                       "};
