/* XPM */
static char * default2_xpm[] = {
"240 128 188 2",
"  	c None",
". 	c #2F2542",
"+ 	c #302643",
"@ 	c #322745",
"# 	c #332846",
"$ 	c #342948",
"% 	c #352A49",
"& 	c #362B4B",
"* 	c #372C4C",
"= 	c #382D4E",
"- 	c #392E4F",
"; 	c #3A2E50",
"> 	c #3B2F52",
", 	c #3C3053",
"' 	c #3C3154",
") 	c #3D3155",
"! 	c #3E3256",
"~ 	c #3F3357",
"{ 	c #3F3358",
"] 	c #403459",
"^ 	c #41345A",
"/ 	c #41355A",
"( 	c #41355B",
"_ 	c #42355B",
": 	c #42365C",
"< 	c #43365D",
"[ 	c #312745",
"} 	c #352A4A",
"| 	c #372C4D",
"1 	c #392F50",
"2 	c #3B3052",
"3 	c #43365C",
"4 	c #43375E",
"5 	c #44375E",
"6 	c #44375F",
"7 	c #44385F",
"8 	c #45385F",
"9 	c #3A2F51",
"0 	c #322846",
"a 	c #392E50",
"b 	c #3A2F52",
"c 	c #453860",
"d 	c #463961",
"e 	c #3C3054",
"f 	c #3B3053",
"g 	c #A600FF",
"h 	c #332948",
"i 	c #403358",
"j 	c #463962",
"k 	c #473A62",
"l 	c #473A63",
"m 	c #483A63",
"n 	c #473963",
"o 	c #483A64",
"p 	c #3D3154",
"q 	c #FF7700",
"r 	c #332947",
"s 	c #342A49",
"t 	c #2E2F40",
"u 	c #483B64",
"v 	c #493B65",
"w 	c #493C65",
"x 	c #493C66",
"y 	c #303143",
"z 	c #2F2F40",
"A 	c #352B4A",
"B 	c #483B65",
"C 	c #4A3C66",
"D 	c #4A3C67",
"E 	c #4A3D67",
"F 	c #4B3D67",
"G 	c #4B3D68",
"H 	c #313143",
"I 	c #2F3041",
"J 	c #362B4C",
"K 	c #382D4D",
"L 	c #43375D",
"M 	c #4B3E69",
"N 	c #4C3E69",
"O 	c #4C3E6A",
"P 	c #313244",
"Q 	c #4C3F6A",
"R 	c #392D4F",
"S 	c #453960",
"T 	c #4D3F6A",
"U 	c #4D3F6B",
"V 	c #4E406C",
"W 	c #4F406D",
"X 	c #4F416D",
"Y 	c #4F416E",
"Z 	c #323245",
"` 	c #50416E",
" .	c #303042",
"..	c #382C4D",
"+.	c #4D3F6C",
"@.	c #4E406D",
"#.	c #50426F",
"$.	c #504270",
"%.	c #514270",
"&.	c #514371",
"*.	c #2F3042",
"=.	c #524371",
"-.	c #524372",
";.	c #524472",
">.	c #534473",
",.	c #323345",
"'.	c #303142",
").	c #534574",
"!.	c #544574",
"~.	c #544575",
"{.	c #333346",
"].	c #554676",
"^.	c #564777",
"/.	c #50416F",
"(.	c #554675",
"_.	c #574778",
":.	c #574879",
"<.	c #333347",
"[.	c #58497A",
"}.	c #58497B",
"|.	c #59497B",
"1.	c #343447",
"2.	c #3E3257",
"3.	c #564778",
"4.	c #594A7C",
"5.	c #5A4A7D",
"6.	c #5A4B7D",
"7.	c #343448",
"8.	c #5B4B7E",
"9.	c #313144",
"0.	c #5C4C7F",
"a.	c #5C4C80",
"b.	c #5A4A7C",
"c.	c #5D4D81",
"d.	c #5D4D82",
"e.	c #353448",
"f.	c #5E4D82",
"g.	c #5E4E83",
"h.	c #5F4F84",
"i.	c #353549",
"j.	c #5E4E82",
"k.	c #604F85",
"l.	c #615086",
"m.	c #605086",
"n.	c #615187",
"o.	c #625188",
"p.	c #35354A",
"q.	c #625288",
"r.	c #323244",
"s.	c #625187",
"t.	c #635289",
"u.	c #63528A",
"v.	c #36364A",
"w.	c #64538B",
"x.	c #64538A",
"y.	c #65548C",
"z.	c #36364B",
"A.	c #66548D",
"B.	c #66558D",
"C.	c #67558F",
"D.	c #685790",
"E.	c #584879",
"F.	c #59497C",
"G.	c #67568F",
"H.	c #37364B",
"I.	c #695791",
"J.	c #2E2F3F",
"K.	c #382E4E",
"L.	c #42355C",
"M.	c #2E2440",
"N.	c #B7BAC7",
"O.	c #848694",
"P.	c #838593",
"Q.	c #828392",
"R.	c #808290",
"S.	c #7F818F",
"T.	c #7E808E",
"U.	c #7C7E8C",
"V.	c #7B7D8B",
"W.	c #7A7C8A",
"X.	c #787A88",
"Y.	c #777987",
"Z.	c #767886",
"`.	c #747784",
" +	c #737583",
".+	c #000000",
"++	c #FF0000",
"@+	c #00FF29",
"                                                                                                                                                                                                                                                                . . + + @ @ # # $ $ % % & & * * = = - - ; ; > > , , ' ' ) ) ! ! ~ ~ { { ] ] ^ ^ / / ( ( _ _ : : : : < < < < < < < < < < < < < < : : : : _ _ ( ( / / ^ ^ ] ] { { ~ ~ ! ! ) ) ' ' , , > > ; ; - - = = * * & & % % $ $ # # @ @ + + ",
"                                                                                                                                                                                                                                                                . . + + @ @ # # $ $ % % & & * * = = - - ; ; > > , , ' ' ) ) ! ! ~ ~ { { ] ] ^ ^ / / ( ( _ _ : : : : < < < < < < < < < < < < < < : : : : _ _ ( ( / / ^ ^ ] ] { { ~ ~ ! ! ) ) ' ' , , > > ; ; - - = = * * & & % % $ $ # # @ @ + + ",
"                                                                                                                                                                                                                                                                + + [ [ # # $ $ } } & & | | = = - - 1 1 2 2 , , ) ) ! ! ~ ~ { { ] ] ^ ^ ( ( : : 3 3 < < 4 4 5 5 5 5 6 6 7 7 5 5 8 8 8 8 7 7 6 6 5 5 5 5 4 4 < < 3 3 : : ( ( ^ ^ ] ] { { ~ ~ ! ! ) ) > > 2 2 9 9 - - = = | | & & } } $ $ # # [ [ ",
"                                                                                                                                                                                                                                                                + + [ [ # # $ $ } } & & | | = = - - 1 1 2 2 , , ) ) ! ! ~ ~ { { ] ] ^ ^ ( ( : : 3 3 < < 4 4 5 5 5 5 6 6 7 7 5 5 8 8 8 8 7 7 6 6 5 5 5 5 4 4 < < 3 3 : : ( ( ^ ^ ] ] { { ~ ~ ! ! ) ) > > 2 2 9 9 - - = = | | & & } } $ $ # # [ [ ",
"                                                                                                                                                                                                                                                                [ [ 0 0 $ $ % % & & | | = = a a 9 9 b b ' ' ) ) ! ! { { ] ] ^ ^ _ _ : : < < 4 4 5 5 8 8 c c c c d d d d d d c c d d d d d d d d d d c c c c 8 8 5 5 4 4 < < : : _ _ ^ ^ ] ] { { ! ! e e ' ' f f 9 9 a a = = | | & & % % $ $ 0 0 ",
"                                                                                                                                                                                                                                                                [ [ 0 0 $ $ % % & & | | = = a a 9 9 b b ' ' ) ) ! ! { { ] ] ^ ^ _ _ : : < < 4 4 5 5 8 8 c c c c d d d d d d c c d d d d d d d d d d c c c c 8 8 5 5 4 4 < < : : _ _ ^ ^ ] ] { { ! ! e e ' ' f f 9 9 a a = = | | & & % % $ $ 0 0 ",
"            g g g g g g g g g g g g g g g g g g g g g g g g g g g g g g g g g g g g g g g g g g g g g g g g g g g g g g g g g g g g g g g g g g g g g g g g g g g g g g g g g g g g g g g g g g g g g g g g g g g g g g g g g g g g g g g g g g g g             0 0 h h % % & & | | = = a a 9 9 , , , , ! ! ~ ~ i i ] ] ( ( : : < < 5 5 7 7 c c d d d d j j k k l l l l m m n n o o o o m m l l l l k k j j d d d d c c 7 7 5 5 < < : : ( ( ] ] i i ! ! ! ! p p , , 9 9 a a = = | | & & % % h h ",
"            g g g g g g g g g g g g g g g g g g g g g g g g g g g g g g g g g g g g g g g g g g g g g g g g g g g g g g g g g g g g g g g g g g g g g g g g g g g g g g g g g g g g g g g g g g g g g g g g g g g g g g g g g g g g g g g g g g g g             0 0 h h % % & & | | = = a a 9 9 , , , , ! ! ~ ~ i i ] ] ( ( : : < < 5 5 7 7 c c d d d d j j k k l l l l m m n n o o o o m m l l l l k k j j d d d d c c 7 7 5 5 < < : : ( ( ] ] i i ! ! ! ! p p , , 9 9 a a = = | | & & % % h h ",
"            g g . . + + @ @ # # $ $ % % & & * * = = - - ; ; > > , , ' ' ) ) ! ! ~ ~ { { ] ] ^ ^ / / ( ( _ _ : : : : < < < < < < < < < < < < < < : : : : _ _ ( ( / / ^ ^ ] ] { { ~ ~ ! ! ) ) ' ' , , > > ; ; - - = = * * & & % % $ $ # # @ @ + + q q             r r s s & & * * = = a a 9 9 , , p p t t q q ] ] ^ ^ _ _ < < 4 4 6 6 c c d d j j l l m m u u u u v v w w x x y y q q x x x x w w v v u u u u m m l l j j d d c c 6 6 4 4 < < _ _ ^ ^ z z q q ! ! p p , , 9 9 a a = = * * & & s s ",
"            g g . . + + @ @ # # $ $ % % & & * * = = - - ; ; > > , , ' ' ) ) ! ! ~ ~ { { ] ] ^ ^ / / ( ( _ _ : : : : < < < < < < < < < < < < < < : : : : _ _ ( ( / / ^ ^ ] ] { { ~ ~ ! ! ) ) ' ' , , > > ; ; - - = = * * & & % % $ $ # # @ @ + + q q             r r s s & & * * = = a a 9 9 , , p p t t q q ] ] ^ ^ _ _ < < 4 4 6 6 c c d d j j l l m m u u u u v v w w x x y y q q x x x x w w v v u u u u m m l l j j d d c c 6 6 4 4 < < _ _ ^ ^ z z q q ! ! p p , , 9 9 a a = = * * & & s s ",
"            g g + + [ [ # # $ $ } } & & | | = = - - 1 1 2 2 , , ) ) ! ! ~ ~ { { ] ] ^ ^ ( ( : : 3 3 < < 4 4 5 5 5 5 6 6 7 7 5 5 8 8 8 8 7 7 6 6 5 5 5 5 4 4 < < 3 3 : : ( ( ^ ^ ] ] { { ~ ~ ! ! ) ) > > 2 2 9 9 - - = = | | & & } } $ $ # # [ [ q q             s s A A * * = = - - 9 9 , , p p ! ! t t q q / / : : < < 5 5 c c d d j j l l u u B B w w C C D D E E F F G G H H q q G G G G F F E E D D C C w w B B u u l l j j d d c c 5 5 < < : : I I q q ~ ~ ! ! p p , , 9 9 - - = = * * A A ",
"            g g + + [ [ # # $ $ } } & & | | = = - - 1 1 2 2 , , ) ) ! ! ~ ~ { { ] ] ^ ^ ( ( : : 3 3 < < 4 4 5 5 5 5 6 6 7 7 5 5 8 8 8 8 7 7 6 6 5 5 5 5 4 4 < < 3 3 : : ( ( ^ ^ ] ] { { ~ ~ ! ! ) ) > > 2 2 9 9 - - = = | | & & } } $ $ # # [ [ q q             s s A A * * = = - - 9 9 , , p p ! ! t t q q / / : : < < 5 5 c c d d j j l l u u B B w w C C D D E E F F G G H H q q G G G G F F E E D D C C w w B B u u l l j j d d c c 5 5 < < : : I I q q ~ ~ ! ! p p , , 9 9 - - = = * * A A ",
"            g g [ [ 0 0 $ $ % % & & | | = = a a 9 9 b b ' ' ) ) ! ! { { ] ] ^ ^ _ _ : : < < 4 4 5 5 8 8 c c c c d d d d d d c c d d d d d d d d d d c c c c 8 8 5 5 4 4 < < : : _ _ ^ ^ ] ] { { ! ! e e ' ' f f 9 9 a a = = | | & & % % $ $ 0 0 q q             } } J J K K - - 9 9 f f p p ! ! ~ ~ z z q q : : L L 6 6 c c d d l l u u v v x x D D F F G G M M N N O O O O P P q q Q Q O O O O N N M M G G F F D D x x v v u u l l d d c c 6 6 L L I I q q ] ] ~ ~ ! ! p p f f 9 9 - - K K J J ",
"            g g [ [ 0 0 $ $ % % & & | | = = a a 9 9 b b ' ' ) ) ! ! { { ] ] ^ ^ _ _ : : < < 4 4 5 5 8 8 c c c c d d d d d d c c d d d d d d d d d d c c c c 8 8 5 5 4 4 < < : : _ _ ^ ^ ] ] { { ! ! e e ' ' f f 9 9 a a = = | | & & % % $ $ 0 0 q q             } } J J K K - - 9 9 f f p p ! ! ~ ~ z z q q : : L L 6 6 c c d d l l u u v v x x D D F F G G M M N N O O O O P P q q Q Q O O O O N N M M G G F F D D x x v v u u l l d d c c 6 6 L L I I q q ] ] ~ ~ ! ! p p f f 9 9 - - K K J J ",
"            g g 0 0 h h % % & & | | = = a a 9 9 , , , , ! ! ~ ~ i i ] ] ( ( : : < < 5 5 7 7 c c d d d d j j k k l l l l m m n n o o o o m m l l l l k k j j d d d d c c 7 7 5 5 < < : : ( ( ] ] i i ! ! ! ! p p , , 9 9 a a = = | | & & % % h h q q             & & | | R R ; ; 2 2 ' ' ! ! ~ ~ ] ] I I q q 4 4 7 7 S S j j l l u u x x D D G G M M N N T T U U U U V V V V P P q q V V V V V V U U U U T T N N M M G G D D x x u u l l j j S S 7 7 I I q q / / ] ] ~ ~ ! ! ' ' 2 2 ; ; R R | | ",
"            g g 0 0 h h % % & & | | = = a a 9 9 , , , , ! ! ~ ~ i i ] ] ( ( : : < < 5 5 7 7 c c d d d d j j k k l l l l m m n n o o o o m m l l l l k k j j d d d d c c 7 7 5 5 < < : : ( ( ] ] i i ! ! ! ! p p , , 9 9 a a = = | | & & % % h h q q             & & | | R R ; ; 2 2 ' ' ! ! ~ ~ ] ] I I q q 4 4 7 7 S S j j l l u u x x D D G G M M N N T T U U U U V V V V P P q q V V V V V V U U U U T T N N M M G G D D x x u u l l j j S S 7 7 I I q q / / ] ] ~ ~ ! ! ' ' 2 2 ; ; R R | | ",
"            g g r r s s & & * * = = a a 9 9 , , p p t t q q ] ] ^ ^ _ _ < < 4 4 6 6 c c d d j j l l m m u u u u v v w w x x y y q q x x x x w w v v u u u u m m l l j j d d c c 6 6 4 4 < < _ _ ^ ^ z z q q ! ! p p , , 9 9 a a = = * * & & s s q q             * * = = a a > > , , ) ) ~ ~ ] ] / / I I q q 8 8 d d k k o o v v C C F F M M O O U U U U V V W W X X Y Y Y Y Z Z q q ` ` Y Y Y Y X X W W V V U U U U O O M M F F C C v v o o k k d d  . .q q : : / / ] ] ~ ~ ) ) , , > > a a = = ",
"            g g r r s s & & * * = = a a 9 9 , , p p t t q q ] ] ^ ^ _ _ < < 4 4 6 6 c c d d j j l l m m u u u u v v w w x x y y q q x x x x w w v v u u u u m m l l j j d d c c 6 6 4 4 < < _ _ ^ ^ z z q q ! ! p p , , 9 9 a a = = * * & & s s q q             * * = = a a > > , , ) ) ~ ~ ] ] / / I I q q 8 8 d d k k o o v v C C F F M M O O U U U U V V W W X X Y Y Y Y Z Z q q ` ` Y Y Y Y X X W W V V U U U U O O M M F F C C v v o o k k d d  . .q q : : / / ] ] ~ ~ ) ) , , > > a a = = ",
"            g g s s A A * * = = - - 9 9 , , p p ! ! t t q q / / : : < < 5 5 c c d d j j l l u u B B w w C C D D E E F F G G H H q q G G G G F F E E D D C C w w B B u u l l j j d d c c 5 5 < < : : I I q q ~ ~ ! ! p p , , 9 9 - - = = * * A A q q             ....- - 9 9 , , ) ) ! ! i i ^ ^ : : I I q q d d k k u u v v D D G G N N T T +.+.@.@.X X ` ` #.#.$.$.%.%.%.%.Z Z q q &.&.%.%.%.%.$.$.#.#.` ` X X @.@.+.+.T T N N G G D D v v u u k k  . .q q L L : : ^ ^ i i ! ! ) ) , , 9 9 - - ",
"            g g s s A A * * = = - - 9 9 , , p p ! ! t t q q / / : : < < 5 5 c c d d j j l l u u B B w w C C D D E E F F G G H H q q G G G G F F E E D D C C w w B B u u l l j j d d c c 5 5 < < : : I I q q ~ ~ ! ! p p , , 9 9 - - = = * * A A q q             ....- - 9 9 , , ) ) ! ! i i ^ ^ : : I I q q d d k k u u v v D D G G N N T T +.+.@.@.X X ` ` #.#.$.$.%.%.%.%.Z Z q q &.&.%.%.%.%.$.$.#.#.` ` X X @.@.+.+.T T N N G G D D v v u u k k  . .q q L L : : ^ ^ i i ! ! ) ) , , 9 9 - - ",
"            g g } } J J K K - - 9 9 f f p p ! ! ~ ~ z z q q : : L L 6 6 c c d d l l u u v v x x D D F F G G M M N N O O O O P P q q Q Q O O O O N N M M G G F F D D x x v v u u l l d d c c 6 6 L L I I q q ] ] ~ ~ ! ! p p f f 9 9 - - K K J J q q             = = ; ; 2 2 ' ' ! ! { { ] ] _ _ < < *.*.q q k k u u w w E E G G O O U U V V X X ` ` #.#.%.%.=.=.-.-.;.;.>.>.,.,.q q >.>.>.>.;.;.-.-.=.=.%.%.#.#.` ` X X V V U U O O G G E E w w u u '.'.q q 6 6 < < _ _ ] ] { { ! ! ' ' 2 2 ; ; ",
"            g g } } J J K K - - 9 9 f f p p ! ! ~ ~ z z q q : : L L 6 6 c c d d l l u u v v x x D D F F G G M M N N O O O O P P q q Q Q O O O O N N M M G G F F D D x x v v u u l l d d c c 6 6 L L I I q q ] ] ~ ~ ! ! p p f f 9 9 - - K K J J q q             = = ; ; 2 2 ' ' ! ! { { ] ] _ _ < < *.*.q q k k u u w w E E G G O O U U V V X X ` ` #.#.%.%.=.=.-.-.;.;.>.>.,.,.q q >.>.>.>.;.;.-.-.=.=.%.%.#.#.` ` X X V V U U O O G G E E w w u u '.'.q q 6 6 < < _ _ ] ] { { ! ! ' ' 2 2 ; ; ",
"            g g & & | | R R ; ; 2 2 ' ' ! ! ~ ~ ] ] I I q q 4 4 7 7 S S j j l l u u x x D D G G M M N N T T U U U U V V V V P P q q V V V V V V U U U U T T N N M M G G D D x x u u l l j j S S 7 7 I I q q / / ] ] ~ ~ ! ! ' ' 2 2 ; ; R R | | q q             - - 9 9 , , ) ) ~ ~ ] ] ( ( < < 5 5  . .q q o o v v E E G G O O U U @.@.Y Y #.#.%.%.=.=.;.;.>.>.).).!.!.~.~.{.{.q q ~.~.~.~.!.!.).).>.>.;.;.=.=.%.%.#.#.Y Y @.@.U U O O G G E E v v y y q q c c 5 5 < < ( ( ] ] ~ ~ ) ) , , 9 9 ",
"            g g & & | | R R ; ; 2 2 ' ' ! ! ~ ~ ] ] I I q q 4 4 7 7 S S j j l l u u x x D D G G M M N N T T U U U U V V V V P P q q V V V V V V U U U U T T N N M M G G D D x x u u l l j j S S 7 7 I I q q / / ] ] ~ ~ ! ! ' ' 2 2 ; ; R R | | q q             - - 9 9 , , ) ) ~ ~ ] ] ( ( < < 5 5  . .q q o o v v E E G G O O U U @.@.Y Y #.#.%.%.=.=.;.;.>.>.).).!.!.~.~.{.{.q q ~.~.~.~.!.!.).).>.>.;.;.=.=.%.%.#.#.Y Y @.@.U U O O G G E E v v y y q q c c 5 5 < < ( ( ] ] ~ ~ ) ) , , 9 9 ",
"            g g * * = = a a > > , , ) ) ~ ~ ] ] / / I I q q 8 8 d d k k o o v v C C F F M M O O U U U U V V W W X X Y Y Y Y Z Z q q ` ` Y Y Y Y X X W W V V U U U U O O M M F F C C v v o o k k d d  . .q q : : / / ] ] ~ ~ ) ) , , > > a a = = q q             ; ; 2 2 p p ! ! { { ^ ^ : : 4 4 c c  . .q q v v D D G G O O U U W W ` ` %.%.=.=.;.;.>.>.!.!.~.~.].].].].^.^.{.{.q q ^.^.^.^.].].].].~.~.!.!.>.>.;.;.=.=.%.%.` ` W W U U O O G G D D y y q q d d c c 4 4 : : ^ ^ { { ! ! p p 2 2 ",
"            g g * * = = a a > > , , ) ) ~ ~ ] ] / / I I q q 8 8 d d k k o o v v C C F F M M O O U U U U V V W W X X Y Y Y Y Z Z q q ` ` Y Y Y Y X X W W V V U U U U O O M M F F C C v v o o k k d d  . .q q : : / / ] ] ~ ~ ) ) , , > > a a = = q q             ; ; 2 2 p p ! ! { { ^ ^ : : 4 4 c c  . .q q v v D D G G O O U U W W ` ` %.%.=.=.;.;.>.>.!.!.~.~.].].].].^.^.{.{.q q ^.^.^.^.].].].].~.~.!.!.>.>.;.;.=.=.%.%.` ` W W U U O O G G D D y y q q d d c c 4 4 : : ^ ^ { { ! ! p p 2 2 ",
"            g g ....- - 9 9 , , ) ) ! ! i i ^ ^ : : I I q q d d k k u u v v D D G G N N T T +.+.@.@.X X ` ` #.#.$.$.%.%.%.%.Z Z q q &.&.%.%.%.%.$.$.#.#.` ` X X @.@.+.+.T T N N G G D D v v u u k k  . .q q L L : : ^ ^ i i ! ! ) ) , , 9 9 - - q q             9 9 , , ) ) ~ ~ ] ] _ _ < < 6 6 d d '.'.q q C C G G O O U U W W /./.%.%.=.=.>.>.!.!.(.(.].].^.^._._.:.:.:.:.<.<.q q :.:.:.:.:.:._._.^.^.].].(.(.!.!.>.>.=.=.%.%././.W W U U O O G G H H q q l l d d 6 6 < < _ _ ] ] ~ ~ ) ) , , ",
"            g g ....- - 9 9 , , ) ) ! ! i i ^ ^ : : I I q q d d k k u u v v D D G G N N T T +.+.@.@.X X ` ` #.#.$.$.%.%.%.%.Z Z q q &.&.%.%.%.%.$.$.#.#.` ` X X @.@.+.+.T T N N G G D D v v u u k k  . .q q L L : : ^ ^ i i ! ! ) ) , , 9 9 - - q q             9 9 , , ) ) ~ ~ ] ] _ _ < < 6 6 d d '.'.q q C C G G O O U U W W /./.%.%.=.=.>.>.!.!.(.(.].].^.^._._.:.:.:.:.<.<.q q :.:.:.:.:.:._._.^.^.].].(.(.!.!.>.>.=.=.%.%././.W W U U O O G G H H q q l l d d 6 6 < < _ _ ] ] ~ ~ ) ) , , ",
"            g g = = ; ; 2 2 ' ' ! ! { { ] ] _ _ < < *.*.q q k k u u w w E E G G O O U U V V X X ` ` #.#.%.%.=.=.-.-.;.;.>.>.,.,.q q >.>.>.>.;.;.-.-.=.=.%.%.#.#.` ` X X V V U U O O G G E E w w u u '.'.q q 6 6 < < _ _ ] ] { { ! ! ' ' 2 2 ; ; q q             > > ' ' ! ! { { ^ ^ : : 5 5 c c j j y y q q F F N N U U @.@.` ` %.%.-.-.>.>.~.~.].].^.^._._.:.:.[.[.}.}.|.|.1.1.q q |.|.|.|.}.}.[.[.:.:._._.^.^.].].~.~.>.>.-.-.%.%.` ` @.@.U U N N H H q q u u j j c c 5 5 : : ^ ^ { { ! ! ' ' ",
"            g g = = ; ; 2 2 ' ' ! ! { { ] ] _ _ < < *.*.q q k k u u w w E E G G O O U U V V X X ` ` #.#.%.%.=.=.-.-.;.;.>.>.,.,.q q >.>.>.>.;.;.-.-.=.=.%.%.#.#.` ` X X V V U U O O G G E E w w u u '.'.q q 6 6 < < _ _ ] ] { { ! ! ' ' 2 2 ; ; q q             > > ' ' ! ! { { ^ ^ : : 5 5 c c j j y y q q F F N N U U @.@.` ` %.%.-.-.>.>.~.~.].].^.^._._.:.:.[.[.}.}.|.|.1.1.q q |.|.|.|.}.}.[.[.:.:._._.^.^.].].~.~.>.>.-.-.%.%.` ` @.@.U U N N H H q q u u j j c c 5 5 : : ^ ^ { { ! ! ' ' ",
"            g g - - 9 9 , , ) ) ~ ~ ] ] ( ( < < 5 5  . .q q o o v v E E G G O O U U @.@.Y Y #.#.%.%.=.=.;.;.>.>.).).!.!.~.~.{.{.q q ~.~.~.~.!.!.).).>.>.;.;.=.=.%.%.#.#.Y Y @.@.U U O O G G E E v v y y q q c c 5 5 < < ( ( ] ] ~ ~ ) ) , , 9 9 q q             , , ) ) 2.2.] ] ( ( < < 7 7 d d l l y y q q M M T T V V Y Y %.%.=.=.>.>.~.~.].].3.3.:.:.[.[.|.|.4.4.5.5.6.6.7.7.q q 8.8.6.6.5.5.4.4.|.|.[.[.:.:.3.3.].].~.~.>.>.=.=.%.%.Y Y V V T T 9.9.q q v v l l d d 7 7 < < ( ( ] ] 2.2.) ) ",
"            g g - - 9 9 , , ) ) ~ ~ ] ] ( ( < < 5 5  . .q q o o v v E E G G O O U U @.@.Y Y #.#.%.%.=.=.;.;.>.>.).).!.!.~.~.{.{.q q ~.~.~.~.!.!.).).>.>.;.;.=.=.%.%.#.#.Y Y @.@.U U O O G G E E v v y y q q c c 5 5 < < ( ( ] ] ~ ~ ) ) , , 9 9 q q             , , ) ) 2.2.] ] ( ( < < 7 7 d d l l y y q q M M T T V V Y Y %.%.=.=.>.>.~.~.].].3.3.:.:.[.[.|.|.4.4.5.5.6.6.7.7.q q 8.8.6.6.5.5.4.4.|.|.[.[.:.:.3.3.].].~.~.>.>.=.=.%.%.Y Y V V T T 9.9.q q v v l l d d 7 7 < < ( ( ] ] 2.2.) ) ",
"            g g ; ; 2 2 p p ! ! { { ^ ^ : : 4 4 c c  . .q q v v D D G G O O U U W W ` ` %.%.=.=.;.;.>.>.!.!.~.~.].].].].^.^.{.{.q q ^.^.^.^.].].].].~.~.!.!.>.>.;.;.=.=.%.%.` ` W W U U O O G G D D y y q q d d c c 4 4 : : ^ ^ { { ! ! p p 2 2 q q             , , ! ! { { ^ ^ : : 4 4 c c j j u u y y q q O O +.+.X X #.#.=.=.>.>.~.~.].].3.3.:.:.}.}.4.4.5.5.8.8.0.0.0.0.7.7.q q a.a.0.0.0.0.8.8.5.5.4.4.}.}.:.:.3.3.].].~.~.>.>.=.=.#.#.X X +.+.9.9.q q x x u u j j c c 4 4 : : ^ ^ { { ! ! ",
"            g g ; ; 2 2 p p ! ! { { ^ ^ : : 4 4 c c  . .q q v v D D G G O O U U W W ` ` %.%.=.=.;.;.>.>.!.!.~.~.].].].].^.^.{.{.q q ^.^.^.^.].].].].~.~.!.!.>.>.;.;.=.=.%.%.` ` W W U U O O G G D D y y q q d d c c 4 4 : : ^ ^ { { ! ! p p 2 2 q q             , , ! ! { { ^ ^ : : 4 4 c c j j u u y y q q O O +.+.X X #.#.=.=.>.>.~.~.].].3.3.:.:.}.}.4.4.5.5.8.8.0.0.0.0.7.7.q q a.a.0.0.0.0.8.8.5.5.4.4.}.}.:.:.3.3.].].~.~.>.>.=.=.#.#.X X +.+.9.9.q q x x u u j j c c 4 4 : : ^ ^ { { ! ! ",
"            g g 9 9 , , ) ) ~ ~ ] ] _ _ < < 6 6 d d '.'.q q C C G G O O U U W W /./.%.%.=.=.>.>.!.!.(.(.].].^.^._._.:.:.:.:.<.<.q q :.:.:.:.:.:._._.^.^.].].(.(.!.!.>.>.=.=.%.%././.W W U U O O G G H H q q l l d d 6 6 < < _ _ ] ] ~ ~ ) ) , , q q             ' ' ! ! i i / / 3 3 5 5 d d l l B B H H q q U U @.@.` ` %.%.;.;.!.!.].].3.3.:.:.|.|.b.b.8.8.0.0.a.a.c.c.d.d.e.e.q q f.f.d.d.c.c.a.a.0.0.8.8.b.b.|.|.:.:.3.3.].].!.!.;.;.%.%.` ` @.@.P P q q D D B B l l d d 5 5 3 3 / / i i ! ! ",
"            g g 9 9 , , ) ) ~ ~ ] ] _ _ < < 6 6 d d '.'.q q C C G G O O U U W W /./.%.%.=.=.>.>.!.!.(.(.].].^.^._._.:.:.:.:.<.<.q q :.:.:.:.:.:._._.^.^.].].(.(.!.!.>.>.=.=.%.%././.W W U U O O G G H H q q l l d d 6 6 < < _ _ ] ] ~ ~ ) ) , , q q             ' ' ! ! i i / / 3 3 5 5 d d l l B B H H q q U U @.@.` ` %.%.;.;.!.!.].].3.3.:.:.|.|.b.b.8.8.0.0.a.a.c.c.d.d.e.e.q q f.f.d.d.c.c.a.a.0.0.8.8.b.b.|.|.:.:.3.3.].].!.!.;.;.%.%.` ` @.@.P P q q D D B B l l d d 5 5 3 3 / / i i ! ! ",
"            g g > > ' ' ! ! { { ^ ^ : : 5 5 c c j j y y q q F F N N U U @.@.` ` %.%.-.-.>.>.~.~.].].^.^._._.:.:.[.[.}.}.|.|.1.1.q q |.|.|.|.}.}.[.[.:.:._._.^.^.].].~.~.>.>.-.-.%.%.` ` @.@.U U N N H H q q u u j j c c 5 5 : : ^ ^ { { ! ! ' ' q q             ) ) 2.2.] ] ( ( < < 8 8 d d m m w w H H q q U U X X #.#.=.=.>.>.(.(.^.^.:.:.}.}.b.b.8.8.0.0.c.c.f.f.g.g.h.h.i.i.q q h.h.h.h.g.g.f.f.c.c.0.0.8.8.b.b.}.}.:.:.^.^.(.(.>.>.=.=.#.#.X X P P q q F F w w m m d d 8 8 < < ( ( ] ] 2.2.",
"            g g > > ' ' ! ! { { ^ ^ : : 5 5 c c j j y y q q F F N N U U @.@.` ` %.%.-.-.>.>.~.~.].].^.^._._.:.:.[.[.}.}.|.|.1.1.q q |.|.|.|.}.}.[.[.:.:._._.^.^.].].~.~.>.>.-.-.%.%.` ` @.@.U U N N H H q q u u j j c c 5 5 : : ^ ^ { { ! ! ' ' q q             ) ) 2.2.] ] ( ( < < 8 8 d d m m w w H H q q U U X X #.#.=.=.>.>.(.(.^.^.:.:.}.}.b.b.8.8.0.0.c.c.f.f.g.g.h.h.i.i.q q h.h.h.h.g.g.f.f.c.c.0.0.8.8.b.b.}.}.:.:.^.^.(.(.>.>.=.=.#.#.X X P P q q F F w w m m d d 8 8 < < ( ( ] ] 2.2.",
"            g g , , ) ) 2.2.] ] ( ( < < 7 7 d d l l y y q q M M T T V V Y Y %.%.=.=.>.>.~.~.].].3.3.:.:.[.[.|.|.4.4.5.5.6.6.7.7.q q 8.8.6.6.5.5.4.4.|.|.[.[.:.:.3.3.].].~.~.>.>.=.=.%.%.Y Y V V T T 9.9.q q v v l l d d 7 7 < < ( ( ] ] 2.2.) ) q q             ) ) ~ ~ ] ] _ _ 4 4 c c j j u u C C H H q q V V ` ` %.%.;.;.!.!.].]._._.[.[.4.4.8.8.0.0.c.c.j.j.h.h.k.k.l.l.i.i.q q l.l.l.l.k.k.h.h.j.j.c.c.0.0.8.8.4.4.[.[._._.].].!.!.;.;.%.%.` ` P P q q G G C C u u j j c c 4 4 _ _ ] ] ~ ~ ",
"            g g , , ) ) 2.2.] ] ( ( < < 7 7 d d l l y y q q M M T T V V Y Y %.%.=.=.>.>.~.~.].].3.3.:.:.[.[.|.|.4.4.5.5.6.6.7.7.q q 8.8.6.6.5.5.4.4.|.|.[.[.:.:.3.3.].].~.~.>.>.=.=.%.%.Y Y V V T T 9.9.q q v v l l d d 7 7 < < ( ( ] ] 2.2.) ) q q             ) ) ~ ~ ] ] _ _ 4 4 c c j j u u C C H H q q V V ` ` %.%.;.;.!.!.].]._._.[.[.4.4.8.8.0.0.c.c.j.j.h.h.k.k.l.l.i.i.q q l.l.l.l.k.k.h.h.j.j.c.c.0.0.8.8.4.4.[.[._._.].].!.!.;.;.%.%.` ` P P q q G G C C u u j j c c 4 4 _ _ ] ] ~ ~ ",
"            g g , , ! ! { { ^ ^ : : 4 4 c c j j u u y y q q O O +.+.X X #.#.=.=.>.>.~.~.].].3.3.:.:.}.}.4.4.5.5.8.8.0.0.0.0.7.7.q q a.a.0.0.0.0.8.8.5.5.4.4.}.}.:.:.3.3.].].~.~.>.>.=.=.#.#.X X +.+.9.9.q q x x u u j j c c 4 4 : : ^ ^ { { ! ! q q             ! ! { { ^ ^ : : 5 5 c c k k u u D D 9.9.q q W W #.#.=.=.>.>.~.~.^.^.:.:.|.|.5.5.0.0.c.c.j.j.h.h.m.m.n.n.o.o.p.p.q q q.q.o.o.n.n.m.m.h.h.j.j.c.c.0.0.5.5.|.|.:.:.^.^.~.~.>.>.=.=.#.#.r.r.q q M M D D u u k k c c 5 5 : : ^ ^ { { ",
"            g g , , ! ! { { ^ ^ : : 4 4 c c j j u u y y q q O O +.+.X X #.#.=.=.>.>.~.~.].].3.3.:.:.}.}.4.4.5.5.8.8.0.0.0.0.7.7.q q a.a.0.0.0.0.8.8.5.5.4.4.}.}.:.:.3.3.].].~.~.>.>.=.=.#.#.X X +.+.9.9.q q x x u u j j c c 4 4 : : ^ ^ { { ! ! q q             ! ! { { ^ ^ : : 5 5 c c k k u u D D 9.9.q q W W #.#.=.=.>.>.~.~.^.^.:.:.|.|.5.5.0.0.c.c.j.j.h.h.m.m.n.n.o.o.p.p.q q q.q.o.o.n.n.m.m.h.h.j.j.c.c.0.0.5.5.|.|.:.:.^.^.~.~.>.>.=.=.#.#.r.r.q q M M D D u u k k c c 5 5 : : ^ ^ { { ",
"            g g ' ' ! ! i i / / 3 3 5 5 d d l l B B H H q q U U @.@.` ` %.%.;.;.!.!.].].3.3.:.:.|.|.b.b.8.8.0.0.a.a.c.c.d.d.e.e.q q f.f.d.d.c.c.a.a.0.0.8.8.b.b.|.|.:.:.3.3.].].!.!.;.;.%.%.` ` @.@.P P q q D D B B l l d d 5 5 3 3 / / i i ! ! q q             ! ! { { / / : : 5 5 d d l l v v E E 9.9.q q X X $.$.-.-.).).].]._._.[.[.4.4.8.8.a.a.f.f.h.h.m.m.s.s.t.t.u.u.v.v.q q w.w.u.u.t.t.s.s.m.m.h.h.f.f.a.a.8.8.4.4.[.[._._.].].).).-.-.$.$.r.r.q q N N E E v v l l d d 5 5 : : / / { { ",
"            g g ' ' ! ! i i / / 3 3 5 5 d d l l B B H H q q U U @.@.` ` %.%.;.;.!.!.].].3.3.:.:.|.|.b.b.8.8.0.0.a.a.c.c.d.d.e.e.q q f.f.d.d.c.c.a.a.0.0.8.8.b.b.|.|.:.:.3.3.].].!.!.;.;.%.%.` ` @.@.P P q q D D B B l l d d 5 5 3 3 / / i i ! ! q q             ! ! { { / / : : 5 5 d d l l v v E E 9.9.q q X X $.$.-.-.).).].]._._.[.[.4.4.8.8.a.a.f.f.h.h.m.m.s.s.t.t.u.u.v.v.q q w.w.u.u.t.t.s.s.m.m.h.h.f.f.a.a.8.8.4.4.[.[._._.].].).).-.-.$.$.r.r.q q N N E E v v l l d d 5 5 : : / / { { ",
"            g g ) ) 2.2.] ] ( ( < < 8 8 d d m m w w H H q q U U X X #.#.=.=.>.>.(.(.^.^.:.:.}.}.b.b.8.8.0.0.c.c.f.f.g.g.h.h.i.i.q q h.h.h.h.g.g.f.f.c.c.0.0.8.8.b.b.}.}.:.:.^.^.(.(.>.>.=.=.#.#.X X P P q q F F w w m m d d 8 8 < < ( ( ] ] 2.2.q q             ! ! i i / / < < 6 6 d d l l w w F F 9.9.q q Y Y %.%.;.;.!.!.].].:.:.}.}.5.5.0.0.c.c.g.g.k.k.n.n.t.t.x.x.y.y.z.z.q q A.A.y.y.x.x.t.t.n.n.k.k.g.g.c.c.0.0.5.5.}.}.:.:.].].!.!.;.;.%.%.Z Z q q O O F F w w l l d d 6 6 < < / / i i ",
"            g g ) ) 2.2.] ] ( ( < < 8 8 d d m m w w H H q q U U X X #.#.=.=.>.>.(.(.^.^.:.:.}.}.b.b.8.8.0.0.c.c.f.f.g.g.h.h.i.i.q q h.h.h.h.g.g.f.f.c.c.0.0.8.8.b.b.}.}.:.:.^.^.(.(.>.>.=.=.#.#.X X P P q q F F w w m m d d 8 8 < < ( ( ] ] 2.2.q q             ! ! i i / / < < 6 6 d d l l w w F F 9.9.q q Y Y %.%.;.;.!.!.].].:.:.}.}.5.5.0.0.c.c.g.g.k.k.n.n.t.t.x.x.y.y.z.z.q q A.A.y.y.x.x.t.t.n.n.k.k.g.g.c.c.0.0.5.5.}.}.:.:.].].!.!.;.;.%.%.Z Z q q O O F F w w l l d d 6 6 < < / / i i ",
"            g g ) ) ~ ~ ] ] _ _ 4 4 c c j j u u C C H H q q V V ` ` %.%.;.;.!.!.].]._._.[.[.4.4.8.8.0.0.c.c.j.j.h.h.k.k.l.l.i.i.q q l.l.l.l.k.k.h.h.j.j.c.c.0.0.8.8.4.4.[.[._._.].].!.!.;.;.%.%.` ` P P q q G G C C u u j j c c 4 4 _ _ ] ] ~ ~ q q             ! ! ] ] ( ( < < 7 7 d d m m x x G G 9.9.q q Y Y %.%.>.>.~.~.^.^.:.:.|.|.6.6.0.0.d.d.h.h.l.l.o.o.u.u.y.y.B.B.z.z.q q C.C.B.B.y.y.u.u.o.o.l.l.h.h.d.d.0.0.6.6.|.|.:.:.^.^.~.~.>.>.%.%.Z Z q q O O G G x x m m d d 7 7 < < ( ( ] ] ",
"            g g ) ) ~ ~ ] ] _ _ 4 4 c c j j u u C C H H q q V V ` ` %.%.;.;.!.!.].]._._.[.[.4.4.8.8.0.0.c.c.j.j.h.h.k.k.l.l.i.i.q q l.l.l.l.k.k.h.h.j.j.c.c.0.0.8.8.4.4.[.[._._.].].!.!.;.;.%.%.` ` P P q q G G C C u u j j c c 4 4 _ _ ] ] ~ ~ q q             ! ! ] ] ( ( < < 7 7 d d m m x x G G 9.9.q q Y Y %.%.>.>.~.~.^.^.:.:.|.|.6.6.0.0.d.d.h.h.l.l.o.o.u.u.y.y.B.B.z.z.q q C.C.B.B.y.y.u.u.o.o.l.l.h.h.d.d.0.0.6.6.|.|.:.:.^.^.~.~.>.>.%.%.Z Z q q O O G G x x m m d d 7 7 < < ( ( ] ] ",
"            g g ! ! { { ^ ^ : : 5 5 c c k k u u D D 9.9.q q W W #.#.=.=.>.>.~.~.^.^.:.:.|.|.5.5.0.0.c.c.j.j.h.h.m.m.n.n.o.o.p.p.q q q.q.o.o.n.n.m.m.h.h.j.j.c.c.0.0.5.5.|.|.:.:.^.^.~.~.>.>.=.=.#.#.r.r.q q M M D D u u k k c c 5 5 : : ^ ^ { { q q             ! ! ] ] ( ( < < 8 8 d d o o x x G G P P q q ` ` &.&.>.>.~.~.^.^.:.:.|.|.8.8.a.a.f.f.h.h.l.l.q.q.w.w.A.A.C.C.z.z.q q D.D.C.C.A.A.w.w.q.q.l.l.h.h.f.f.a.a.8.8.|.|.:.:.^.^.~.~.>.>.&.&.Z Z q q Q Q G G x x o o d d 8 8 < < ( ( ] ] ",
"            g g ! ! { { ^ ^ : : 5 5 c c k k u u D D 9.9.q q W W #.#.=.=.>.>.~.~.^.^.:.:.|.|.5.5.0.0.c.c.j.j.h.h.m.m.n.n.o.o.p.p.q q q.q.o.o.n.n.m.m.h.h.j.j.c.c.0.0.5.5.|.|.:.:.^.^.~.~.>.>.=.=.#.#.r.r.q q M M D D u u k k c c 5 5 : : ^ ^ { { q q             ! ! ] ] ( ( < < 8 8 d d o o x x G G P P q q ` ` &.&.>.>.~.~.^.^.:.:.|.|.8.8.a.a.f.f.h.h.l.l.q.q.w.w.A.A.C.C.z.z.q q D.D.C.C.A.A.w.w.q.q.l.l.h.h.f.f.a.a.8.8.|.|.:.:.^.^.~.~.>.>.&.&.Z Z q q Q Q G G x x o o d d 8 8 < < ( ( ] ] ",
"            g g ! ! { { / / : : 5 5 d d l l v v E E 9.9.q q X X $.$.-.-.).).].]._._.[.[.4.4.8.8.a.a.f.f.h.h.m.m.s.s.t.t.u.u.v.v.q q w.w.u.u.t.t.s.s.m.m.h.h.f.f.a.a.8.8.4.4.[.[._._.].].).).-.-.$.$.r.r.q q N N E E v v l l d d 5 5 : : / / { { q q             2.2.] ] ( ( < < 8 8 d d o o x x G G P P q q ` ` &.&.>.>.~.~.^.^.E.E.F.F.8.8.a.a.j.j.h.h.l.l.t.t.w.w.A.A.G.G.H.H.q q I.I.G.G.A.A.w.w.t.t.l.l.h.h.j.j.a.a.8.8.F.F.E.E.^.^.~.~.>.>.&.&.Z Z q q Q Q G G x x o o d d 8 8 < < ( ( ] ] ",
"            g g ! ! { { / / : : 5 5 d d l l v v E E 9.9.q q X X $.$.-.-.).).].]._._.[.[.4.4.8.8.a.a.f.f.h.h.m.m.s.s.t.t.u.u.v.v.q q w.w.u.u.t.t.s.s.m.m.h.h.f.f.a.a.8.8.4.4.[.[._._.].].).).-.-.$.$.r.r.q q N N E E v v l l d d 5 5 : : / / { { q q             2.2.] ] ( ( < < 8 8 d d o o x x G G P P q q ` ` &.&.>.>.~.~.^.^.E.E.F.F.8.8.a.a.j.j.h.h.l.l.t.t.w.w.A.A.G.G.H.H.q q I.I.G.G.A.A.w.w.t.t.l.l.h.h.j.j.a.a.8.8.F.F.E.E.^.^.~.~.>.>.&.&.Z Z q q Q Q G G x x o o d d 8 8 < < ( ( ] ] ",
"            g g ! ! i i / / < < 6 6 d d l l w w F F 9.9.q q Y Y %.%.;.;.!.!.].].:.:.}.}.5.5.0.0.c.c.g.g.k.k.n.n.t.t.x.x.y.y.z.z.q q A.A.y.y.x.x.t.t.n.n.k.k.g.g.c.c.0.0.5.5.}.}.:.:.].].!.!.;.;.%.%.Z Z q q O O F F w w l l d d 6 6 < < / / i i q q             ! ! ] ] ( ( < < 8 8 d d o o x x G G P P q q ` ` &.&.>.>.~.~.^.^.:.:.|.|.8.8.a.a.f.f.h.h.l.l.q.q.w.w.A.A.C.C.z.z.q q D.D.C.C.A.A.w.w.q.q.l.l.h.h.f.f.a.a.8.8.|.|.:.:.^.^.~.~.>.>.&.&.Z Z q q Q Q G G x x o o d d 8 8 < < ( ( ] ] ",
"            g g ! ! i i / / < < 6 6 d d l l w w F F 9.9.q q Y Y %.%.;.;.!.!.].].:.:.}.}.5.5.0.0.c.c.g.g.k.k.n.n.t.t.x.x.y.y.z.z.q q A.A.y.y.x.x.t.t.n.n.k.k.g.g.c.c.0.0.5.5.}.}.:.:.].].!.!.;.;.%.%.Z Z q q O O F F w w l l d d 6 6 < < / / i i q q             ! ! ] ] ( ( < < 8 8 d d o o x x G G P P q q ` ` &.&.>.>.~.~.^.^.:.:.|.|.8.8.a.a.f.f.h.h.l.l.q.q.w.w.A.A.C.C.z.z.q q D.D.C.C.A.A.w.w.q.q.l.l.h.h.f.f.a.a.8.8.|.|.:.:.^.^.~.~.>.>.&.&.Z Z q q Q Q G G x x o o d d 8 8 < < ( ( ] ] ",
"            g g ! ! ] ] ( ( < < 7 7 d d m m x x G G 9.9.q q Y Y %.%.>.>.~.~.^.^.:.:.|.|.6.6.0.0.d.d.h.h.l.l.o.o.u.u.y.y.B.B.z.z.q q C.C.B.B.y.y.u.u.o.o.l.l.h.h.d.d.0.0.6.6.|.|.:.:.^.^.~.~.>.>.%.%.Z Z q q O O G G x x m m d d 7 7 < < ( ( ] ] q q             ! ! ] ] ( ( < < 7 7 d d m m x x G G 9.9.q q Y Y %.%.>.>.~.~.^.^.:.:.|.|.6.6.0.0.d.d.h.h.l.l.o.o.u.u.y.y.B.B.z.z.q q C.C.B.B.y.y.u.u.o.o.l.l.h.h.d.d.0.0.6.6.|.|.:.:.^.^.~.~.>.>.%.%.Z Z q q O O G G x x m m d d 7 7 < < ( ( ] ] ",
"            g g ! ! ] ] ( ( < < 7 7 d d m m x x G G 9.9.q q Y Y %.%.>.>.~.~.^.^.:.:.|.|.6.6.0.0.d.d.h.h.l.l.o.o.u.u.y.y.B.B.z.z.q q C.C.B.B.y.y.u.u.o.o.l.l.h.h.d.d.0.0.6.6.|.|.:.:.^.^.~.~.>.>.%.%.Z Z q q O O G G x x m m d d 7 7 < < ( ( ] ] q q             ! ! ] ] ( ( < < 7 7 d d m m x x G G 9.9.q q Y Y %.%.>.>.~.~.^.^.:.:.|.|.6.6.0.0.d.d.h.h.l.l.o.o.u.u.y.y.B.B.z.z.q q C.C.B.B.y.y.u.u.o.o.l.l.h.h.d.d.0.0.6.6.|.|.:.:.^.^.~.~.>.>.%.%.Z Z q q O O G G x x m m d d 7 7 < < ( ( ] ] ",
"            g g ! ! ] ] ( ( < < 8 8 d d o o x x G G P P q q ` ` &.&.>.>.~.~.^.^.:.:.|.|.8.8.a.a.f.f.h.h.l.l.q.q.w.w.A.A.C.C.z.z.q q D.D.C.C.A.A.w.w.q.q.l.l.h.h.f.f.a.a.8.8.|.|.:.:.^.^.~.~.>.>.&.&.Z Z q q Q Q G G x x o o d d 8 8 < < ( ( ] ] q q             ! ! i i / / < < 6 6 d d l l w w F F 9.9.q q Y Y %.%.;.;.!.!.].].:.:.}.}.5.5.0.0.c.c.g.g.k.k.n.n.t.t.x.x.y.y.z.z.q q A.A.y.y.x.x.t.t.n.n.k.k.g.g.c.c.0.0.5.5.}.}.:.:.].].!.!.;.;.%.%.Z Z q q O O F F w w l l d d 6 6 < < / / i i ",
"            g g ! ! ] ] ( ( < < 8 8 d d o o x x G G P P q q ` ` &.&.>.>.~.~.^.^.:.:.|.|.8.8.a.a.f.f.h.h.l.l.q.q.w.w.A.A.C.C.z.z.q q D.D.C.C.A.A.w.w.q.q.l.l.h.h.f.f.a.a.8.8.|.|.:.:.^.^.~.~.>.>.&.&.Z Z q q Q Q G G x x o o d d 8 8 < < ( ( ] ] q q             ! ! i i / / < < 6 6 d d l l w w F F 9.9.q q Y Y %.%.;.;.!.!.].].:.:.}.}.5.5.0.0.c.c.g.g.k.k.n.n.t.t.x.x.y.y.z.z.q q A.A.y.y.x.x.t.t.n.n.k.k.g.g.c.c.0.0.5.5.}.}.:.:.].].!.!.;.;.%.%.Z Z q q O O F F w w l l d d 6 6 < < / / i i ",
"            g g 2.2.] ] ( ( < < 8 8 d d o o x x G G P P q q ` ` &.&.>.>.~.~.^.^.E.E.F.F.8.8.a.a.j.j.h.h.l.l.t.t.w.w.A.A.G.G.H.H.q q I.I.G.G.A.A.w.w.t.t.l.l.h.h.j.j.a.a.8.8.F.F.E.E.^.^.~.~.>.>.&.&.Z Z q q Q Q G G x x o o d d 8 8 < < ( ( ] ] q q             ! ! { { / / : : 5 5 d d l l v v E E 9.9.q q X X $.$.-.-.).).].]._._.[.[.4.4.8.8.a.a.f.f.h.h.m.m.s.s.t.t.u.u.v.v.q q w.w.u.u.t.t.s.s.m.m.h.h.f.f.a.a.8.8.4.4.[.[._._.].].).).-.-.$.$.r.r.q q N N E E v v l l d d 5 5 : : / / { { ",
"            g g 2.2.] ] ( ( < < 8 8 d d o o x x G G P P q q ` ` &.&.>.>.~.~.^.^.E.E.F.F.8.8.a.a.j.j.h.h.l.l.t.t.w.w.A.A.G.G.H.H.q q I.I.G.G.A.A.w.w.t.t.l.l.h.h.j.j.a.a.8.8.F.F.E.E.^.^.~.~.>.>.&.&.Z Z q q Q Q G G x x o o d d 8 8 < < ( ( ] ] q q             ! ! { { / / : : 5 5 d d l l v v E E 9.9.q q X X $.$.-.-.).).].]._._.[.[.4.4.8.8.a.a.f.f.h.h.m.m.s.s.t.t.u.u.v.v.q q w.w.u.u.t.t.s.s.m.m.h.h.f.f.a.a.8.8.4.4.[.[._._.].].).).-.-.$.$.r.r.q q N N E E v v l l d d 5 5 : : / / { { ",
"            g g ! ! ] ] ( ( < < 8 8 d d o o x x G G P P q q ` ` &.&.>.>.~.~.^.^.:.:.|.|.8.8.a.a.f.f.h.h.l.l.q.q.w.w.A.A.C.C.z.z.q q D.D.C.C.A.A.w.w.q.q.l.l.h.h.f.f.a.a.8.8.|.|.:.:.^.^.~.~.>.>.&.&.Z Z q q Q Q G G x x o o d d 8 8 < < ( ( ] ] q q             ! ! { { ^ ^ : : 5 5 c c k k u u D D 9.9.q q W W #.#.=.=.>.>.~.~.^.^.:.:.|.|.5.5.0.0.c.c.j.j.h.h.m.m.n.n.o.o.p.p.q q q.q.o.o.n.n.m.m.h.h.j.j.c.c.0.0.5.5.|.|.:.:.^.^.~.~.>.>.=.=.#.#.r.r.q q M M D D u u k k c c 5 5 : : ^ ^ { { ",
"            g g ! ! ] ] ( ( < < 8 8 d d o o x x G G P P q q ` ` &.&.>.>.~.~.^.^.:.:.|.|.8.8.a.a.f.f.h.h.l.l.q.q.w.w.A.A.C.C.z.z.q q D.D.C.C.A.A.w.w.q.q.l.l.h.h.f.f.a.a.8.8.|.|.:.:.^.^.~.~.>.>.&.&.Z Z q q Q Q G G x x o o d d 8 8 < < ( ( ] ] q q             ! ! { { ^ ^ : : 5 5 c c k k u u D D 9.9.q q W W #.#.=.=.>.>.~.~.^.^.:.:.|.|.5.5.0.0.c.c.j.j.h.h.m.m.n.n.o.o.p.p.q q q.q.o.o.n.n.m.m.h.h.j.j.c.c.0.0.5.5.|.|.:.:.^.^.~.~.>.>.=.=.#.#.r.r.q q M M D D u u k k c c 5 5 : : ^ ^ { { ",
"            g g ! ! ] ] ( ( < < 7 7 d d m m x x G G 9.9.q q Y Y %.%.>.>.~.~.^.^.:.:.|.|.6.6.0.0.d.d.h.h.l.l.o.o.u.u.y.y.B.B.z.z.q q C.C.B.B.y.y.u.u.o.o.l.l.h.h.d.d.0.0.6.6.|.|.:.:.^.^.~.~.>.>.%.%.Z Z q q O O G G x x m m d d 7 7 < < ( ( ] ] q q             ) ) ~ ~ ] ] _ _ 4 4 c c j j u u C C H H q q V V ` ` %.%.;.;.!.!.].]._._.[.[.4.4.8.8.0.0.c.c.j.j.h.h.k.k.l.l.i.i.q q l.l.l.l.k.k.h.h.j.j.c.c.0.0.8.8.4.4.[.[._._.].].!.!.;.;.%.%.` ` P P q q G G C C u u j j c c 4 4 _ _ ] ] ~ ~ ",
"            g g ! ! ] ] ( ( < < 7 7 d d m m x x G G 9.9.q q Y Y %.%.>.>.~.~.^.^.:.:.|.|.6.6.0.0.d.d.h.h.l.l.o.o.u.u.y.y.B.B.z.z.q q C.C.B.B.y.y.u.u.o.o.l.l.h.h.d.d.0.0.6.6.|.|.:.:.^.^.~.~.>.>.%.%.Z Z q q O O G G x x m m d d 7 7 < < ( ( ] ] q q             ) ) ~ ~ ] ] _ _ 4 4 c c j j u u C C H H q q V V ` ` %.%.;.;.!.!.].]._._.[.[.4.4.8.8.0.0.c.c.j.j.h.h.k.k.l.l.i.i.q q l.l.l.l.k.k.h.h.j.j.c.c.0.0.8.8.4.4.[.[._._.].].!.!.;.;.%.%.` ` P P q q G G C C u u j j c c 4 4 _ _ ] ] ~ ~ ",
"            g g ! ! i i / / < < 6 6 d d l l w w F F 9.9.q q Y Y %.%.;.;.!.!.].].:.:.}.}.5.5.0.0.c.c.g.g.k.k.n.n.t.t.x.x.y.y.z.z.q q A.A.y.y.x.x.t.t.n.n.k.k.g.g.c.c.0.0.5.5.}.}.:.:.].].!.!.;.;.%.%.Z Z q q O O F F w w l l d d 6 6 < < / / i i q q             ) ) 2.2.] ] ( ( < < 8 8 d d m m w w H H q q U U X X #.#.=.=.>.>.(.(.^.^.:.:.}.}.b.b.8.8.0.0.c.c.f.f.g.g.h.h.i.i.q q h.h.h.h.g.g.f.f.c.c.0.0.8.8.b.b.}.}.:.:.^.^.(.(.>.>.=.=.#.#.X X P P q q F F w w m m d d 8 8 < < ( ( ] ] 2.2.",
"            g g ! ! i i / / < < 6 6 d d l l w w F F 9.9.q q Y Y %.%.;.;.!.!.].].:.:.}.}.5.5.0.0.c.c.g.g.k.k.n.n.t.t.x.x.y.y.z.z.q q A.A.y.y.x.x.t.t.n.n.k.k.g.g.c.c.0.0.5.5.}.}.:.:.].].!.!.;.;.%.%.Z Z q q O O F F w w l l d d 6 6 < < / / i i q q             ) ) 2.2.] ] ( ( < < 8 8 d d m m w w H H q q U U X X #.#.=.=.>.>.(.(.^.^.:.:.}.}.b.b.8.8.0.0.c.c.f.f.g.g.h.h.i.i.q q h.h.h.h.g.g.f.f.c.c.0.0.8.8.b.b.}.}.:.:.^.^.(.(.>.>.=.=.#.#.X X P P q q F F w w m m d d 8 8 < < ( ( ] ] 2.2.",
"            g g ! ! { { / / : : 5 5 d d l l v v E E 9.9.q q X X $.$.-.-.).).].]._._.[.[.4.4.8.8.a.a.f.f.h.h.m.m.s.s.t.t.u.u.v.v.q q w.w.u.u.t.t.s.s.m.m.h.h.f.f.a.a.8.8.4.4.[.[._._.].].).).-.-.$.$.r.r.q q N N E E v v l l d d 5 5 : : / / { { q q             ' ' ! ! i i / / 3 3 5 5 d d l l B B H H q q U U @.@.` ` %.%.;.;.!.!.].].3.3.:.:.|.|.b.b.8.8.0.0.a.a.c.c.d.d.e.e.q q f.f.d.d.c.c.a.a.0.0.8.8.b.b.|.|.:.:.3.3.].].!.!.;.;.%.%.` ` @.@.P P q q D D B B l l d d 5 5 3 3 / / i i ! ! ",
"            g g ! ! { { / / : : 5 5 d d l l v v E E 9.9.q q X X $.$.-.-.).).].]._._.[.[.4.4.8.8.a.a.f.f.h.h.m.m.s.s.t.t.u.u.v.v.q q w.w.u.u.t.t.s.s.m.m.h.h.f.f.a.a.8.8.4.4.[.[._._.].].).).-.-.$.$.r.r.q q N N E E v v l l d d 5 5 : : / / { { q q             ' ' ! ! i i / / 3 3 5 5 d d l l B B H H q q U U @.@.` ` %.%.;.;.!.!.].].3.3.:.:.|.|.b.b.8.8.0.0.a.a.c.c.d.d.e.e.q q f.f.d.d.c.c.a.a.0.0.8.8.b.b.|.|.:.:.3.3.].].!.!.;.;.%.%.` ` @.@.P P q q D D B B l l d d 5 5 3 3 / / i i ! ! ",
"            g g ! ! { { ^ ^ : : 5 5 c c k k u u D D 9.9.q q W W #.#.=.=.>.>.~.~.^.^.:.:.|.|.5.5.0.0.c.c.j.j.h.h.m.m.n.n.o.o.p.p.q q q.q.o.o.n.n.m.m.h.h.j.j.c.c.0.0.5.5.|.|.:.:.^.^.~.~.>.>.=.=.#.#.r.r.q q M M D D u u k k c c 5 5 : : ^ ^ { { q q             , , ! ! { { ^ ^ : : 4 4 c c j j u u y y q q O O +.+.X X #.#.=.=.>.>.~.~.].].3.3.:.:.}.}.4.4.5.5.8.8.0.0.0.0.7.7.q q a.a.0.0.0.0.8.8.5.5.4.4.}.}.:.:.3.3.].].~.~.>.>.=.=.#.#.X X +.+.9.9.q q x x u u j j c c 4 4 : : ^ ^ { { ! ! ",
"            g g ! ! { { ^ ^ : : 5 5 c c k k u u D D 9.9.q q W W #.#.=.=.>.>.~.~.^.^.:.:.|.|.5.5.0.0.c.c.j.j.h.h.m.m.n.n.o.o.p.p.q q q.q.o.o.n.n.m.m.h.h.j.j.c.c.0.0.5.5.|.|.:.:.^.^.~.~.>.>.=.=.#.#.r.r.q q M M D D u u k k c c 5 5 : : ^ ^ { { q q             , , ! ! { { ^ ^ : : 4 4 c c j j u u y y q q O O +.+.X X #.#.=.=.>.>.~.~.].].3.3.:.:.}.}.4.4.5.5.8.8.0.0.0.0.7.7.q q a.a.0.0.0.0.8.8.5.5.4.4.}.}.:.:.3.3.].].~.~.>.>.=.=.#.#.X X +.+.9.9.q q x x u u j j c c 4 4 : : ^ ^ { { ! ! ",
"            g g ) ) ~ ~ ] ] _ _ 4 4 c c j j u u C C H H q q V V ` ` %.%.;.;.!.!.].]._._.[.[.4.4.8.8.0.0.c.c.j.j.h.h.k.k.l.l.i.i.q q l.l.l.l.k.k.h.h.j.j.c.c.0.0.8.8.4.4.[.[._._.].].!.!.;.;.%.%.` ` P P q q G G C C u u j j c c 4 4 _ _ ] ] ~ ~ q q             , , ) ) 2.2.] ] ( ( < < 7 7 d d l l y y q q M M T T V V Y Y %.%.=.=.>.>.~.~.].].3.3.:.:.[.[.|.|.4.4.5.5.6.6.7.7.q q 8.8.6.6.5.5.4.4.|.|.[.[.:.:.3.3.].].~.~.>.>.=.=.%.%.Y Y V V T T 9.9.q q v v l l d d 7 7 < < ( ( ] ] 2.2.) ) ",
"            g g ) ) ~ ~ ] ] _ _ 4 4 c c j j u u C C H H q q V V ` ` %.%.;.;.!.!.].]._._.[.[.4.4.8.8.0.0.c.c.j.j.h.h.k.k.l.l.i.i.q q l.l.l.l.k.k.h.h.j.j.c.c.0.0.8.8.4.4.[.[._._.].].!.!.;.;.%.%.` ` P P q q G G C C u u j j c c 4 4 _ _ ] ] ~ ~ q q             , , ) ) 2.2.] ] ( ( < < 7 7 d d l l y y q q M M T T V V Y Y %.%.=.=.>.>.~.~.].].3.3.:.:.[.[.|.|.4.4.5.5.6.6.7.7.q q 8.8.6.6.5.5.4.4.|.|.[.[.:.:.3.3.].].~.~.>.>.=.=.%.%.Y Y V V T T 9.9.q q v v l l d d 7 7 < < ( ( ] ] 2.2.) ) ",
"            g g ) ) 2.2.] ] ( ( < < 8 8 d d m m w w H H q q U U X X #.#.=.=.>.>.(.(.^.^.:.:.}.}.b.b.8.8.0.0.c.c.f.f.g.g.h.h.i.i.q q h.h.h.h.g.g.f.f.c.c.0.0.8.8.b.b.}.}.:.:.^.^.(.(.>.>.=.=.#.#.X X P P q q F F w w m m d d 8 8 < < ( ( ] ] 2.2.q q             > > ' ' ! ! { { ^ ^ : : 5 5 c c j j y y q q F F N N U U @.@.` ` %.%.-.-.>.>.~.~.].].^.^._._.:.:.[.[.}.}.|.|.1.1.q q |.|.|.|.}.}.[.[.:.:._._.^.^.].].~.~.>.>.-.-.%.%.` ` @.@.U U N N H H q q u u j j c c 5 5 : : ^ ^ { { ! ! ' ' ",
"            g g ) ) 2.2.] ] ( ( < < 8 8 d d m m w w H H q q U U X X #.#.=.=.>.>.(.(.^.^.:.:.}.}.b.b.8.8.0.0.c.c.f.f.g.g.h.h.i.i.q q h.h.h.h.g.g.f.f.c.c.0.0.8.8.b.b.}.}.:.:.^.^.(.(.>.>.=.=.#.#.X X P P q q F F w w m m d d 8 8 < < ( ( ] ] 2.2.q q             > > ' ' ! ! { { ^ ^ : : 5 5 c c j j y y q q F F N N U U @.@.` ` %.%.-.-.>.>.~.~.].].^.^._._.:.:.[.[.}.}.|.|.1.1.q q |.|.|.|.}.}.[.[.:.:._._.^.^.].].~.~.>.>.-.-.%.%.` ` @.@.U U N N H H q q u u j j c c 5 5 : : ^ ^ { { ! ! ' ' ",
"            g g ' ' ! ! i i / / 3 3 5 5 d d l l B B H H q q U U @.@.` ` %.%.;.;.!.!.].].3.3.:.:.|.|.b.b.8.8.0.0.a.a.c.c.d.d.e.e.q q f.f.d.d.c.c.a.a.0.0.8.8.b.b.|.|.:.:.3.3.].].!.!.;.;.%.%.` ` @.@.P P q q D D B B l l d d 5 5 3 3 / / i i ! ! q q             9 9 , , ) ) ~ ~ ] ] _ _ < < 6 6 d d '.'.q q C C G G O O U U W W /./.%.%.=.=.>.>.!.!.(.(.].].^.^._._.:.:.:.:.<.<.q q :.:.:.:.:.:._._.^.^.].].(.(.!.!.>.>.=.=.%.%././.W W U U O O G G H H q q l l d d 6 6 < < _ _ ] ] ~ ~ ) ) , , ",
"            g g ' ' ! ! i i / / 3 3 5 5 d d l l B B H H q q U U @.@.` ` %.%.;.;.!.!.].].3.3.:.:.|.|.b.b.8.8.0.0.a.a.c.c.d.d.e.e.q q f.f.d.d.c.c.a.a.0.0.8.8.b.b.|.|.:.:.3.3.].].!.!.;.;.%.%.` ` @.@.P P q q D D B B l l d d 5 5 3 3 / / i i ! ! q q             9 9 , , ) ) ~ ~ ] ] _ _ < < 6 6 d d '.'.q q C C G G O O U U W W /./.%.%.=.=.>.>.!.!.(.(.].].^.^._._.:.:.:.:.<.<.q q :.:.:.:.:.:._._.^.^.].].(.(.!.!.>.>.=.=.%.%././.W W U U O O G G H H q q l l d d 6 6 < < _ _ ] ] ~ ~ ) ) , , ",
"            g g , , ! ! { { ^ ^ : : 4 4 c c j j u u y y q q O O +.+.X X #.#.=.=.>.>.~.~.].].3.3.:.:.}.}.4.4.5.5.8.8.0.0.0.0.7.7.q q a.a.0.0.0.0.8.8.5.5.4.4.}.}.:.:.3.3.].].~.~.>.>.=.=.#.#.X X +.+.9.9.q q x x u u j j c c 4 4 : : ^ ^ { { ! ! q q             ; ; 2 2 p p ! ! { { ^ ^ : : 4 4 c c  . .q q v v D D G G O O U U W W ` ` %.%.=.=.;.;.>.>.!.!.~.~.].].].].^.^.{.{.q q ^.^.^.^.].].].].~.~.!.!.>.>.;.;.=.=.%.%.` ` W W U U O O G G D D y y q q d d c c 4 4 : : ^ ^ { { ! ! p p 2 2 ",
"            g g , , ! ! { { ^ ^ : : 4 4 c c j j u u y y q q O O +.+.X X #.#.=.=.>.>.~.~.].].3.3.:.:.}.}.4.4.5.5.8.8.0.0.0.0.7.7.q q a.a.0.0.0.0.8.8.5.5.4.4.}.}.:.:.3.3.].].~.~.>.>.=.=.#.#.X X +.+.9.9.q q x x u u j j c c 4 4 : : ^ ^ { { ! ! q q             ; ; 2 2 p p ! ! { { ^ ^ : : 4 4 c c  . .q q v v D D G G O O U U W W ` ` %.%.=.=.;.;.>.>.!.!.~.~.].].].].^.^.{.{.q q ^.^.^.^.].].].].~.~.!.!.>.>.;.;.=.=.%.%.` ` W W U U O O G G D D y y q q d d c c 4 4 : : ^ ^ { { ! ! p p 2 2 ",
"            g g , , ) ) 2.2.] ] ( ( < < 7 7 d d l l y y q q M M T T V V Y Y %.%.=.=.>.>.~.~.].].3.3.:.:.[.[.|.|.4.4.5.5.6.6.7.7.q q 8.8.6.6.5.5.4.4.|.|.[.[.:.:.3.3.].].~.~.>.>.=.=.%.%.Y Y V V T T 9.9.q q v v l l d d 7 7 < < ( ( ] ] 2.2.) ) q q             - - 9 9 , , ) ) ~ ~ ] ] ( ( < < 5 5  . .q q o o v v E E G G O O U U @.@.Y Y #.#.%.%.=.=.;.;.>.>.).).!.!.~.~.{.{.q q ~.~.~.~.!.!.).).>.>.;.;.=.=.%.%.#.#.Y Y @.@.U U O O G G E E v v y y q q c c 5 5 < < ( ( ] ] ~ ~ ) ) , , 9 9 ",
"            g g , , ) ) 2.2.] ] ( ( < < 7 7 d d l l y y q q M M T T V V Y Y %.%.=.=.>.>.~.~.].].3.3.:.:.[.[.|.|.4.4.5.5.6.6.7.7.q q 8.8.6.6.5.5.4.4.|.|.[.[.:.:.3.3.].].~.~.>.>.=.=.%.%.Y Y V V T T 9.9.q q v v l l d d 7 7 < < ( ( ] ] 2.2.) ) q q             - - 9 9 , , ) ) ~ ~ ] ] ( ( < < 5 5  . .q q o o v v E E G G O O U U @.@.Y Y #.#.%.%.=.=.;.;.>.>.).).!.!.~.~.{.{.q q ~.~.~.~.!.!.).).>.>.;.;.=.=.%.%.#.#.Y Y @.@.U U O O G G E E v v y y q q c c 5 5 < < ( ( ] ] ~ ~ ) ) , , 9 9 ",
"            g g > > ' ' ! ! { { ^ ^ : : 5 5 c c j j y y q q F F N N U U @.@.` ` %.%.-.-.>.>.~.~.].].^.^._._.:.:.[.[.}.}.|.|.1.1.q q |.|.|.|.}.}.[.[.:.:._._.^.^.].].~.~.>.>.-.-.%.%.` ` @.@.U U N N H H q q u u j j c c 5 5 : : ^ ^ { { ! ! ' ' q q             = = ; ; 2 2 ' ' ! ! { { ] ] _ _ < < *.*.q q k k u u w w E E G G O O U U V V X X ` ` #.#.%.%.=.=.-.-.;.;.>.>.,.,.q q >.>.>.>.;.;.-.-.=.=.%.%.#.#.` ` X X V V U U O O G G E E w w u u '.'.q q 6 6 < < _ _ ] ] { { ! ! ' ' 2 2 ; ; ",
"            g g > > ' ' ! ! { { ^ ^ : : 5 5 c c j j y y q q F F N N U U @.@.` ` %.%.-.-.>.>.~.~.].].^.^._._.:.:.[.[.}.}.|.|.1.1.q q |.|.|.|.}.}.[.[.:.:._._.^.^.].].~.~.>.>.-.-.%.%.` ` @.@.U U N N H H q q u u j j c c 5 5 : : ^ ^ { { ! ! ' ' q q             = = ; ; 2 2 ' ' ! ! { { ] ] _ _ < < *.*.q q k k u u w w E E G G O O U U V V X X ` ` #.#.%.%.=.=.-.-.;.;.>.>.,.,.q q >.>.>.>.;.;.-.-.=.=.%.%.#.#.` ` X X V V U U O O G G E E w w u u '.'.q q 6 6 < < _ _ ] ] { { ! ! ' ' 2 2 ; ; ",
"            g g 9 9 , , ) ) ~ ~ ] ] _ _ < < 6 6 d d '.'.q q C C G G O O U U W W /./.%.%.=.=.>.>.!.!.(.(.].].^.^._._.:.:.:.:.<.<.q q :.:.:.:.:.:._._.^.^.].].(.(.!.!.>.>.=.=.%.%././.W W U U O O G G H H q q l l d d 6 6 < < _ _ ] ] ~ ~ ) ) , , q q             ....- - 9 9 , , ) ) ! ! i i ^ ^ : : I I q q d d k k u u v v D D G G N N T T +.+.@.@.X X ` ` #.#.$.$.%.%.%.%.Z Z q q &.&.%.%.%.%.$.$.#.#.` ` X X @.@.+.+.T T N N G G D D v v u u k k  . .q q L L : : ^ ^ i i ! ! ) ) , , 9 9 - - ",
"            g g 9 9 , , ) ) ~ ~ ] ] _ _ < < 6 6 d d '.'.q q C C G G O O U U W W /./.%.%.=.=.>.>.!.!.(.(.].].^.^._._.:.:.:.:.<.<.q q :.:.:.:.:.:._._.^.^.].].(.(.!.!.>.>.=.=.%.%././.W W U U O O G G H H q q l l d d 6 6 < < _ _ ] ] ~ ~ ) ) , , q q             ....- - 9 9 , , ) ) ! ! i i ^ ^ : : I I q q d d k k u u v v D D G G N N T T +.+.@.@.X X ` ` #.#.$.$.%.%.%.%.Z Z q q &.&.%.%.%.%.$.$.#.#.` ` X X @.@.+.+.T T N N G G D D v v u u k k  . .q q L L : : ^ ^ i i ! ! ) ) , , 9 9 - - ",
"            g g ; ; 2 2 p p ! ! { { ^ ^ : : 4 4 c c  . .q q v v D D G G O O U U W W ` ` %.%.=.=.;.;.>.>.!.!.~.~.].].].].^.^.{.{.q q ^.^.^.^.].].].].~.~.!.!.>.>.;.;.=.=.%.%.` ` W W U U O O G G D D y y q q d d c c 4 4 : : ^ ^ { { ! ! p p 2 2 q q             * * = = a a > > , , ) ) ~ ~ ] ] / / I I q q 8 8 d d k k o o v v C C F F M M O O U U U U V V W W X X Y Y Y Y Z Z q q ` ` Y Y Y Y X X W W V V U U U U O O M M F F C C v v o o k k d d  . .q q : : / / ] ] ~ ~ ) ) , , > > a a = = ",
"            g g ; ; 2 2 p p ! ! { { ^ ^ : : 4 4 c c  . .q q v v D D G G O O U U W W ` ` %.%.=.=.;.;.>.>.!.!.~.~.].].].].^.^.{.{.q q ^.^.^.^.].].].].~.~.!.!.>.>.;.;.=.=.%.%.` ` W W U U O O G G D D y y q q d d c c 4 4 : : ^ ^ { { ! ! p p 2 2 q q             * * = = a a > > , , ) ) ~ ~ ] ] / / I I q q 8 8 d d k k o o v v C C F F M M O O U U U U V V W W X X Y Y Y Y Z Z q q ` ` Y Y Y Y X X W W V V U U U U O O M M F F C C v v o o k k d d  . .q q : : / / ] ] ~ ~ ) ) , , > > a a = = ",
"            g g - - 9 9 , , ) ) ~ ~ ] ] ( ( < < 5 5  . .q q o o v v E E G G O O U U @.@.Y Y #.#.%.%.=.=.;.;.>.>.).).!.!.~.~.{.{.q q ~.~.~.~.!.!.).).>.>.;.;.=.=.%.%.#.#.Y Y @.@.U U O O G G E E v v y y q q c c 5 5 < < ( ( ] ] ~ ~ ) ) , , 9 9 q q             & & | | R R ; ; 2 2 ' ' ! ! ~ ~ ] ] I I q q 4 4 7 7 S S j j l l u u x x D D G G M M N N T T U U U U V V V V P P q q V V V V V V U U U U T T N N M M G G D D x x u u l l j j S S 7 7 I I q q / / ] ] ~ ~ ! ! ' ' 2 2 ; ; R R | | ",
"            g g - - 9 9 , , ) ) ~ ~ ] ] ( ( < < 5 5  . .q q o o v v E E G G O O U U @.@.Y Y #.#.%.%.=.=.;.;.>.>.).).!.!.~.~.{.{.q q ~.~.~.~.!.!.).).>.>.;.;.=.=.%.%.#.#.Y Y @.@.U U O O G G E E v v y y q q c c 5 5 < < ( ( ] ] ~ ~ ) ) , , 9 9 q q             & & | | R R ; ; 2 2 ' ' ! ! ~ ~ ] ] I I q q 4 4 7 7 S S j j l l u u x x D D G G M M N N T T U U U U V V V V P P q q V V V V V V U U U U T T N N M M G G D D x x u u l l j j S S 7 7 I I q q / / ] ] ~ ~ ! ! ' ' 2 2 ; ; R R | | ",
"            g g = = ; ; 2 2 ' ' ! ! { { ] ] _ _ < < *.*.q q k k u u w w E E G G O O U U V V X X ` ` #.#.%.%.=.=.-.-.;.;.>.>.,.,.q q >.>.>.>.;.;.-.-.=.=.%.%.#.#.` ` X X V V U U O O G G E E w w u u '.'.q q 6 6 < < _ _ ] ] { { ! ! ' ' 2 2 ; ; q q             } } J J K K - - 9 9 f f p p ! ! ~ ~ z z q q : : L L 6 6 c c d d l l u u v v x x D D F F G G M M N N O O O O P P q q Q Q O O O O N N M M G G F F D D x x v v u u l l d d c c 6 6 L L I I q q ] ] ~ ~ ! ! p p f f 9 9 - - K K J J ",
"            g g = = ; ; 2 2 ' ' ! ! { { ] ] _ _ < < *.*.q q k k u u w w E E G G O O U U V V X X ` ` #.#.%.%.=.=.-.-.;.;.>.>.,.,.q q >.>.>.>.;.;.-.-.=.=.%.%.#.#.` ` X X V V U U O O G G E E w w u u '.'.q q 6 6 < < _ _ ] ] { { ! ! ' ' 2 2 ; ; q q             } } J J K K - - 9 9 f f p p ! ! ~ ~ z z q q : : L L 6 6 c c d d l l u u v v x x D D F F G G M M N N O O O O P P q q Q Q O O O O N N M M G G F F D D x x v v u u l l d d c c 6 6 L L I I q q ] ] ~ ~ ! ! p p f f 9 9 - - K K J J ",
"            g g ....- - 9 9 , , ) ) ! ! i i ^ ^ : : I I q q d d k k u u v v D D G G N N T T +.+.@.@.X X ` ` #.#.$.$.%.%.%.%.Z Z q q &.&.%.%.%.%.$.$.#.#.` ` X X @.@.+.+.T T N N G G D D v v u u k k  . .q q L L : : ^ ^ i i ! ! ) ) , , 9 9 - - q q             s s A A * * = = - - 9 9 , , p p ! ! t t q q / / : : < < 5 5 c c d d j j l l u u B B w w C C D D E E F F G G H H q q G G G G F F E E D D C C w w B B u u l l j j d d c c 5 5 < < : : I I q q ~ ~ ! ! p p , , 9 9 - - = = * * A A ",
"            g g ....- - 9 9 , , ) ) ! ! i i ^ ^ : : I I q q d d k k u u v v D D G G N N T T +.+.@.@.X X ` ` #.#.$.$.%.%.%.%.Z Z q q &.&.%.%.%.%.$.$.#.#.` ` X X @.@.+.+.T T N N G G D D v v u u k k  . .q q L L : : ^ ^ i i ! ! ) ) , , 9 9 - - q q             s s A A * * = = - - 9 9 , , p p ! ! t t q q / / : : < < 5 5 c c d d j j l l u u B B w w C C D D E E F F G G H H q q G G G G F F E E D D C C w w B B u u l l j j d d c c 5 5 < < : : I I q q ~ ~ ! ! p p , , 9 9 - - = = * * A A ",
"            g g * * = = a a > > , , ) ) ~ ~ ] ] / / I I q q 8 8 d d k k o o v v C C F F M M O O U U U U V V W W X X Y Y Y Y Z Z q q ` ` Y Y Y Y X X W W V V U U U U O O M M F F C C v v o o k k d d  . .q q : : / / ] ] ~ ~ ) ) , , > > a a = = q q             r r s s & & * * = = a a 9 9 , , p p t t q q ] ] ^ ^ _ _ < < 4 4 6 6 c c d d j j l l m m u u u u v v w w x x y y q q x x x x w w v v u u u u m m l l j j d d c c 6 6 4 4 < < _ _ ^ ^ z z q q ! ! p p , , 9 9 a a = = * * & & s s ",
"            g g * * = = a a > > , , ) ) ~ ~ ] ] / / I I q q 8 8 d d k k o o v v C C F F M M O O U U U U V V W W X X Y Y Y Y Z Z q q ` ` Y Y Y Y X X W W V V U U U U O O M M F F C C v v o o k k d d  . .q q : : / / ] ] ~ ~ ) ) , , > > a a = = q q             r r s s & & * * = = a a 9 9 , , p p t t q q ] ] ^ ^ _ _ < < 4 4 6 6 c c d d j j l l m m u u u u v v w w x x y y q q x x x x w w v v u u u u m m l l j j d d c c 6 6 4 4 < < _ _ ^ ^ z z q q ! ! p p , , 9 9 a a = = * * & & s s ",
"            g g & & | | R R ; ; 2 2 ' ' ! ! ~ ~ ] ] I I q q 4 4 7 7 S S j j l l u u x x D D G G M M N N T T U U U U V V V V P P q q V V V V V V U U U U T T N N M M G G D D x x u u l l j j S S 7 7 I I q q / / ] ] ~ ~ ! ! ' ' 2 2 ; ; R R | | q q             0 0 h h % % & & | | = = a a 9 9 , , J.J.q q ~ ~ i i ] ] ( ( : : < < 5 5 7 7 c c d d d d j j k k l l l l m m y y q q o o m m l l l l k k j j d d d d c c 7 7 5 5 < < : : ( ( ] ] i i t t q q p p , , 9 9 a a = = | | & & % % h h ",
"            g g & & | | R R ; ; 2 2 ' ' ! ! ~ ~ ] ] I I q q 4 4 7 7 S S j j l l u u x x D D G G M M N N T T U U U U V V V V P P q q V V V V V V U U U U T T N N M M G G D D x x u u l l j j S S 7 7 I I q q / / ] ] ~ ~ ! ! ' ' 2 2 ; ; R R | | q q             0 0 h h % % & & | | = = a a 9 9 , , J.J.q q ~ ~ i i ] ] ( ( : : < < 5 5 7 7 c c d d d d j j k k l l l l m m y y q q o o m m l l l l k k j j d d d d c c 7 7 5 5 < < : : ( ( ] ] i i t t q q p p , , 9 9 a a = = | | & & % % h h ",
"            g g } } J J K K - - 9 9 f f p p ! ! ~ ~ z z q q : : L L 6 6 c c d d l l u u v v x x D D F F G G M M N N O O O O P P q q Q Q O O O O N N M M G G F F D D x x v v u u l l d d c c 6 6 L L I I q q ] ] ~ ~ ! ! p p f f 9 9 - - K K J J q q             [ [ 0 0 $ $ % % & & | | = = a a 9 9 b b ' ' ) ) ! ! { { ] ] ^ ^ _ _ : : < < 4 4 5 5 8 8 c c c c d d d d d d c c d d d d d d d d d d c c c c 8 8 5 5 4 4 < < : : _ _ ^ ^ ] ] { { ! ! e e ' ' f f 9 9 a a = = | | & & % % $ $ 0 0 ",
"            g g } } J J K K - - 9 9 f f p p ! ! ~ ~ z z q q : : L L 6 6 c c d d l l u u v v x x D D F F G G M M N N O O O O P P q q Q Q O O O O N N M M G G F F D D x x v v u u l l d d c c 6 6 L L I I q q ] ] ~ ~ ! ! p p f f 9 9 - - K K J J q q             [ [ 0 0 $ $ % % & & | | = = a a 9 9 b b ' ' ) ) ! ! { { ] ] ^ ^ _ _ : : < < 4 4 5 5 8 8 c c c c d d d d d d c c d d d d d d d d d d c c c c 8 8 5 5 4 4 < < : : _ _ ^ ^ ] ] { { ! ! e e ' ' f f 9 9 a a = = | | & & % % $ $ 0 0 ",
"            g g s s A A * * = = - - 9 9 , , p p ! ! t t q q / / : : < < 5 5 c c d d j j l l u u B B w w C C D D E E F F G G H H q q G G G G F F E E D D C C w w B B u u l l j j d d c c 5 5 < < : : I I q q ~ ~ ! ! p p , , 9 9 - - = = * * A A q q             + + [ [ # # $ $ } } & & | | = = - - 1 1 2 2 , , ) ) ! ! ~ ~ { { ] ] ^ ^ ( ( : : 3 3 < < 4 4 5 5 5 5 6 6 7 7 5 5 8 8 8 8 7 7 6 6 5 5 5 5 4 4 < < 3 3 : : ( ( ^ ^ ] ] { { ~ ~ ! ! ) ) > > 2 2 9 9 - - = = | | & & } } $ $ # # [ [ ",
"            g g s s A A * * = = - - 9 9 , , p p ! ! t t q q / / : : < < 5 5 c c d d j j l l u u B B w w C C D D E E F F G G H H q q G G G G F F E E D D C C w w B B u u l l j j d d c c 5 5 < < : : I I q q ~ ~ ! ! p p , , 9 9 - - = = * * A A q q             + + [ [ # # $ $ } } & & | | = = - - 1 1 2 2 , , ) ) ! ! ~ ~ { { ] ] ^ ^ ( ( : : 3 3 < < 4 4 5 5 5 5 6 6 7 7 5 5 8 8 8 8 7 7 6 6 5 5 5 5 4 4 < < 3 3 : : ( ( ^ ^ ] ] { { ~ ~ ! ! ) ) > > 2 2 9 9 - - = = | | & & } } $ $ # # [ [ ",
"            g g r r s s & & * * = = a a 9 9 , , p p t t q q ] ] ^ ^ _ _ < < 4 4 6 6 c c d d j j l l m m u u u u v v w w x x y y q q x x x x w w v v u u u u m m l l j j d d c c 6 6 4 4 < < _ _ ^ ^ z z q q ! ! p p , , 9 9 a a = = * * & & s s q q             . . + + @ @ # # $ $ % % & & * * = = K.K.; ; > > , , ' ' ) ) ! ! ~ ~ { { ] ] ^ ^ / / ( ( _ _ : : : : < < < < L.L.< < < < < < < < : : : : _ _ ( ( / / ^ ^ ] ] { { ~ ~ ! ! ) ) ' ' , , 9 9 ; ; - - = = * * & & % % $ $ # # @ @ + + ",
"            g g r r s s & & * * = = a a 9 9 , , p p t t q q ] ] ^ ^ _ _ < < 4 4 6 6 c c d d j j l l m m u u u u v v w w x x y y q q x x x x w w v v u u u u m m l l j j d d c c 6 6 4 4 < < _ _ ^ ^ z z q q ! ! p p , , 9 9 a a = = * * & & s s q q             . . + + @ @ # # $ $ % % & & * * = = K.K.; ; > > , , ' ' ) ) ! ! ~ ~ { { ] ] ^ ^ / / ( ( _ _ : : : : < < < < L.L.< < < < < < < < : : : : _ _ ( ( / / ^ ^ ] ] { { ~ ~ ! ! ) ) ' ' , , 9 9 ; ; - - = = * * & & % % $ $ # # @ @ + + ",
"            g g 0 0 h h % % & & | | = = a a 9 9 , , J.J.q q ~ ~ i i ] ] ( ( : : < < 5 5 7 7 c c d d d d j j k k l l l l m m y y q q o o m m l l l l k k j j d d d d c c 7 7 5 5 < < : : ( ( ] ] i i t t q q p p , , 9 9 a a = = | | & & % % h h q q             M.M.. . + + @ @ # # $ $ % % & & * * K K R R a a 9 9 2 2 , , p p ) ) ! ! 2.2.{ { i i ] ] ] ] ^ ^ / / / / ( ( ( ( ( ( ( ( ( ( / / / / ^ ^ ] ] ] ] i i { { 2.2.! ! ) ) p p , , 2 2 9 9 a a R R K K * * & & % % $ $ # # @ @ + + . . ",
"            g g 0 0 h h % % & & | | = = a a 9 9 , , J.J.q q ~ ~ i i ] ] ( ( : : < < 5 5 7 7 c c d d d d j j k k l l l l m m y y q q o o m m l l l l k k j j d d d d c c 7 7 5 5 < < : : ( ( ] ] i i t t q q p p , , 9 9 a a = = | | & & % % h h q q             M.M.. . + + @ @ # # $ $ % % & & * * K K R R a a 9 9 2 2 , , p p ) ) ! ! 2.2.{ { i i ] ] ] ] ^ ^ / / / / ( ( ( ( ( ( ( ( ( ( / / / / ^ ^ ] ] ] ] i i { { 2.2.! ! ) ) p p , , 2 2 9 9 a a R R K K * * & & % % $ $ # # @ @ + + . . ",
"            g g [ [ 0 0 $ $ % % & & | | = = a a 9 9 b b ' ' ) ) ! ! { { ] ] ^ ^ _ _ : : < < 4 4 5 5 8 8 c c c c d d d d d d c c d d d d d d d d d d c c c c 8 8 5 5 4 4 < < : : _ _ ^ ^ ] ] { { ! ! e e ' ' f f 9 9 a a = = | | & & % % $ $ 0 0 q q                                         N.N.N.N.N.N.N.N.N.N.N.N.N.N.N.N.N.N.N.N.N.N.N.N.N.N.N.N.N.N.N.N.N.N.N.N.N.N.N.N.N.N.N.N.N.N.N.N.N.N.N.N.N.N.N.N.N.N.N.N.N.N.N.N.                                                                    ",
"            g g [ [ 0 0 $ $ % % & & | | = = a a 9 9 b b ' ' ) ) ! ! { { ] ] ^ ^ _ _ : : < < 4 4 5 5 8 8 c c c c d d d d d d c c d d d d d d d d d d c c c c 8 8 5 5 4 4 < < : : _ _ ^ ^ ] ] { { ! ! e e ' ' f f 9 9 a a = = | | & & % % $ $ 0 0 q q                                         N.N.N.N.N.N.N.N.N.N.N.N.N.N.N.N.N.N.N.N.N.N.N.N.N.N.N.N.N.N.N.N.N.N.N.N.N.N.N.N.N.N.N.N.N.N.N.N.N.N.N.N.N.N.N.N.N.N.N.N.N.N.N.N.                                                                    ",
"            g g + + [ [ # # $ $ } } & & | | = = - - 1 1 2 2 , , ) ) ! ! ~ ~ { { ] ] ^ ^ ( ( : : 3 3 < < 4 4 5 5 5 5 6 6 7 7 5 5 8 8 8 8 7 7 6 6 5 5 5 5 4 4 < < 3 3 : : ( ( ^ ^ ] ] { { ~ ~ ! ! ) ) > > 2 2 9 9 - - = = | | & & } } $ $ # # [ [ q q                                         N.N.O.O.P.P.Q.Q.R.R.S.S.T.T.U.U.V.V.W.W.X.X.Y.Y.Z.Z.`.`. + +.+.+N.N.O.O.P.P.Q.Q.R.R.S.S.T.T.U.U.V.V.W.W.X.X.Y.Y.Z.Z.`.`. + +.+.+                                                                    ",
"            g g + + [ [ # # $ $ } } & & | | = = - - 1 1 2 2 , , ) ) ! ! ~ ~ { { ] ] ^ ^ ( ( : : 3 3 < < 4 4 5 5 5 5 6 6 7 7 5 5 8 8 8 8 7 7 6 6 5 5 5 5 4 4 < < 3 3 : : ( ( ^ ^ ] ] { { ~ ~ ! ! ) ) > > 2 2 9 9 - - = = | | & & } } $ $ # # [ [ q q                                         N.N.O.O.P.P.Q.Q.R.R.S.S.T.T.U.U.V.V.W.W.X.X.Y.Y.Z.Z.`.`. + +.+.+N.N.O.O.P.P.Q.Q.R.R.S.S.T.T.U.U.V.V.W.W.X.X.Y.Y.Z.Z.`.`. + +.+.+                                                                    ",
"            g g . . + + @ @ # # $ $ % % & & * * = = K.K.; ; > > , , ' ' ) ) ! ! ~ ~ { { ] ] ^ ^ / / ( ( _ _ : : : : < < < < L.L.< < < < < < < < : : : : _ _ ( ( / / ^ ^ ] ] { { ~ ~ ! ! ) ) ' ' , , 9 9 ; ; - - = = * * & & % % $ $ # # @ @ + + q q                                         N.N..+.+.+.+.+.+.+.+.+.+.+.+.+.+.+.+.+.+.+.+.+.+.+.+.+.+.+.+.+.+N.N..+.+.+.+.+.+.+.+.+.+.+.+.+.+.+.+.+.+.+.+.+.+.+.+.+.+.+.+.+.+                                                                    ",
"            g g . . + + @ @ # # $ $ % % & & * * = = K.K.; ; > > , , ' ' ) ) ! ! ~ ~ { { ] ] ^ ^ / / ( ( _ _ : : : : < < < < L.L.< < < < < < < < : : : : _ _ ( ( / / ^ ^ ] ] { { ~ ~ ! ! ) ) ' ' , , 9 9 ; ; - - = = * * & & % % $ $ # # @ @ + + q q                                         N.N..+.+.+.+.+.+.+.+.+.+.+.+.+.+.+.+.+.+.+.+.+.+.+.+.+.+.+.+.+.+N.N..+.+.+.+.+.+.+.+.+.+.+.+.+.+.+.+.+.+.+.+.+.+.+.+.+.+.+.+.+.+                                                                    ",
"            g g M.M.. . + + @ @ # # $ $ % % & & * * K K R R a a 9 9 2 2 , , p p ) ) ! ! 2.2.{ { i i ] ] ] ] ^ ^ / / / / ( ( ( ( ( ( ( ( ( ( / / / / ^ ^ ] ] ] ] i i { { 2.2.! ! ) ) p p , , 2 2 9 9 a a R R K K * * & & % % $ $ # # @ @ + + . . q q                                         N.N.N.N.N.N.N.N.N.N.N.N.N.N.N.N.N.N.N.N.N.N.N.N.N.N.N.N.N.N..+.+N.N.N.N.N.N.N.N.N.N.N.N.N.N.N.N.N.N.N.N.N.N.N.N.N.N.N.N.N.N..+.+                                                                    ",
"            g g M.M.. . + + @ @ # # $ $ % % & & * * K K R R a a 9 9 2 2 , , p p ) ) ! ! 2.2.{ { i i ] ] ] ] ^ ^ / / / / ( ( ( ( ( ( ( ( ( ( / / / / ^ ^ ] ] ] ] i i { { 2.2.! ! ) ) p p , , 2 2 9 9 a a R R K K * * & & % % $ $ # # @ @ + + . . q q                                         N.N.N.N.N.N.N.N.N.N.N.N.N.N.N.N.N.N.N.N.N.N.N.N.N.N.N.N.N.N..+.+N.N.N.N.N.N.N.N.N.N.N.N.N.N.N.N.N.N.N.N.N.N.N.N.N.N.N.N.N.N..+.+                                                                    ",
"            q q q q q q q q q q q q q q q q q q q q q q q q q q q q q q q q q q q q q q q q q q q q q q q q q q q q q q q q q q q q q q q q q q q q q q q q q q q q q q q q q q q q q q q q q q q q q q q q q q q q q q q q q q q q q q q q q q q q                                         N.N.O.O.P.P.Q.Q.R.R.S.S.T.T.U.U.V.V.W.W.X.X.Y.Y.Z.Z.`.`. + +.+.+N.N.O.O.P.P.Q.Q.R.R.S.S.T.T.U.U.V.V.W.W.X.X.Y.Y.Z.Z.`.`. + +.+.+                                                                    ",
"            q q q q q q q q q q q q q q q q q q q q q q q q q q q q q q q q q q q q q q q q q q q q q q q q q q q q q q q q q q q q q q q q q q q q q q q q q q q q q q q q q q q q q q q q q q q q q q q q q q q q q q q q q q q q q q q q q q q q                                         N.N.O.O.P.P.Q.Q.R.R.S.S.T.T.U.U.V.V.W.W.X.X.Y.Y.Z.Z.`.`. + +.+.+N.N.O.O.P.P.Q.Q.R.R.S.S.T.T.U.U.V.V.W.W.X.X.Y.Y.Z.Z.`.`. + +.+.+                                                                    ",
"                .+.+            .+.+    .+.+    .+.+        .+.+    .+.+.+.+.+.+    .+.+.+.+.+.+                                                                                                                                                                                            N.N..+.+.+.+.+.+.+.+.+.+.+.+.+.+.+.+.+.+.+.+.+.+.+.+.+.+.+.+.+.+N.N..+.+.+.+.+.+.+.+.+.+.+.+.+.+.+.+.+.+.+.+.+.+.+.+.+.+.+.+.+.+                                                                    ",
"                .+.+.+        .+.+.+    .+.+    .+.+        .+.+    .+.+.+.+.+.+    .+.+.+.+.+.+.+                                                                                                                                                                                          N.N..+.+.+.+.+.+.+.+.+.+.+.+.+.+.+.+.+.+.+.+.+.+.+.+.+.+.+.+.+.+N.N..+.+.+.+.+.+.+.+.+.+.+.+.+.+.+.+.+.+.+.+.+.+.+.+.+.+.+.+.+.+                                                                    ",
"                .+.+.+.+    .+.+.+.+    .+.+    .+.+        .+.+    .+.+            .+.+      .+.+.+                                                                                                                            g g g g g g g g                                             N.N.N.N.N.N.N.N.N.N.N.N.N.N.N.N.N.N.N.N.N.N.N.N.N.N.N.N.N.N..+.+N.N.N.N.N.N.N.N.N.N.N.N.N.N.N.N.N.N.N.N.N.N..+.+++++++++++++.+.+                                                                    ",
"                .+.+.+.+.+.+.+.+.+.+    .+.+    .+.+.+    .+.+.+    .+.+            .+.+      .+.+.+                                                                                                                            g g g g g g g g                                             N.N.N.N.N.N.N.N.N.N.N.N.N.N.N.N.N.N.N.N.N.N.N.N.N.N.N.N.N.N..+.+N.N.N.N.N.N.N.N.N.N.N.N.N.N.N.N.N.N.N.N.N.N..+.+++++++++++++.+.+                                                                    ",
"                .+.+  .+.+.+.+  .+.+    .+.+      .+.+.+.+.+.+      .+.+.+.+.+.+    .+.+.+.+.+.+.+                                                                                                                              g g @+@+@+@+@+@+                ++++++++++++@+@+@+@+@+@+    N.N.O.O.P.P.Q.Q.R.R.S.S.T.T.U.U.V.V.W.W.X.X.Y.Y.Z.Z.`.`. + +.+.+N.N.O.O.P.P.Q.Q.R.R.S.S.T.T.U.U.V.V.W.W.X.X..+.+++++++++++++.+.+                                                                    ",
"                .+.+    .+.+    .+.+    .+.+      .+.+.+.+.+.+      .+.+.+.+.+.+    .+.+.+.+.+.+.+                                                                                                                              g g @+@+@+@+@+@+                ++++++++++++@+@+@+@+@+@+    N.N.O.O.P.P.Q.Q.R.R.S.S.T.T.U.U.V.V.W.W.X.X.Y.Y.Z.Z.`.`. + +.+.+N.N.O.O.P.P.Q.Q.R.R.S.S.T.T.U.U.V.V.W.W.X.X..+.+++++++++++++.+.+                                                                    ",
"                .+.+            .+.+    .+.+    .+.+.+    .+.+.+    .+.+            .+.+      .+.+.+                                                                                                                            g g @+@+@+@+@+@+                ++++++++++++@+@+@+@+@+@+    N.N..+.+.+.+.+.+.+.+.+.+.+.+.+.+.+.+.+.+.+.+.+.+.+.+.+.+.+.+.+.+N.N..+.+.+.+.+.+.+.+.+.+.+.+.+.+.+.+.+.+.+.+.+.+.+.+.+.+.+.+.+.+                                                                    ",
"                .+.+            .+.+    .+.+    .+.+        .+.+    .+.+            .+.+        .+.+                                                                                                                            g g @+@+@+@+@+@+                ++++++++++++@+@+@+@+@+@+    N.N..+.+.+.+.+.+.+.+.+.+.+.+.+.+.+.+.+.+.+.+.+.+.+.+.+.+.+.+.+.+N.N..+.+.+.+.+.+.+.+.+.+.+.+.+.+.+.+.+.+.+.+.+.+.+.+.+.+.+.+.+.+                                                                    ",
"                .+.+            .+.+    .+.+    .+.+        .+.+    .+.+.+.+.+.+    .+.+        .+.+                                                                                                                                                                                                                                                                                                                                                                                            ",
"                .+.+            .+.+    .+.+    .+.+        .+.+    .+.+.+.+.+.+    .+.+        .+.+                                                                                                                                                                                                                                                                                                                                                                                            ",
"                                                                                                                                                                                                                                                                                                                                                                                                                                                                                                ",
"                                                                                                                                                                                                                                                                                                                                                                                                                                                                                                ",
"                                                                                                                                                                                                                                                                                                                                                                                                                                                                                                ",
"                                                                                                                                                                                                                                                                                                                                                                                                                                                                                                "};
