/* XPM */
static char * wmifs_master128_xpm[] = {
"320 200 13 1",
" 	c None",
".	c #0000FF",
"+	c #202020 s back_color",
"@	c #000000 s border_dark",
"#	c #C7C3C7 s border_light",
"$	c #283C38 s led_color_low",
"%	c #20B2AE s led_color_high",
"&	c #004941 s led_color_low",
"*	c #188A86 s led_color_med",
"=	c #B60418",
"-	c #00EB00",
";	c #F7F3FF",
">	c #71E371 s line_color",
"................................................................................................................................++..............................................................................................................................................................................................",
"................................................................................................................................++..............................................................................................................................................................................................",
"................................................................................................................................++..............................................................................................................................................................................................",
"................................................................................................................................++..............................................................................................................................................................................................",
"................................................................................................................................++..............................................................................................................................................................................................",
"................................................................................................................................++..............................................................................................................................................................................................",
"................................................................................................................................++..............................................................................................................................................................................................",
"................................................................................................................................++..............................................................................................................................................................................................",
"........@@@@@@@@@@@@@@@@@@@@@@@@@@@@@@@@@@@@@@@@@@@@@@@@@@@@@@@@@@@@@@@@@@....@@@@@@@@@@@@@@@@@@@@@@@@@@@@@@@@@@@@@@@@@@........++..............................................................................................................................................................................................",
"........@@@@@@@@@@@@@@@@@@@@@@@@@@@@@@@@@@@@@@@@@@@@@@@@@@@@@@@@@@@@@@@@@@....@@@@@@@@@@@@@@@@@@@@@@@@@@@@@@@@@@@@@@@@@@........++..............................................................................................................................................................................................",
"........@@++++++++++++++++++++++++++++++++++++++++++++++++++++++++++++++##....@@++++++++++++++++++++++++++++++++++++++##........++..............................................................................................................................................................................................",
"........@@++++++++++++++++++++++++++++++++++++++++++++++++++++++++++++++##....@@++++++++++++++++++++++++++++++++++++++##........++..............................................................................................................................................................................................",
"........@@++++++++++++++++++++++++++++++++++++++++++++++++++++++++++++++##....@@++++++++++++++++++++++++++++++++++++++##........++..............................................................................................................................................................................................",
"........@@++++++++++++++++++++++++++++++++++++++++++++++++++++++++++++++##....@@++++++++++++++++++++++++++++++++++++++##........++..............................................................................................................................................................................................",
"........@@++++++++++++++++++++++++++++++++++++++++++++++++++++++++++++++##....@@++++$$$$++++++++$$$$++++++++$$$$++++++##........++..............................................................................................................................................................................................",
"........@@++++++++++++++++++++++++++++++++++++++++++++++++++++++++++++++##....@@+++$$$$$$++++++$$$$$$++++++$$$$$$+++++##........++..............................................................................................................................................................................................",
"........@@++++++++++++++++++++++++++++++++++++++++++++++++++++++++++++++##....@@++$$$$$$$$++++$$$$$$$$++++$$$$$$$$++++##........++..............................................................................................................................................................................................",
"........@@++++++++++++++++++++++++++++++++++++++++++++++++++++++++++++++##....@@++$$$$$$$$++++$$$$$$$$++++$$$$$$$$++++##........++..............................................................................................................................................................................................",
"........@@++++++++++++++++++++++++++++++++++++++++++++++++++++++++++++++##....@@++$$$$$$$$++++$$$$$$$$++++$$$$$$$$++++##........++..............................................................................................................................................................................................",
"........@@++++++++++++++++++++++++++++++++++++++++++++++++++++++++++++++##....@@++$$$$$$$$++++$$$$$$$$++++$$$$$$$$++++##........++..............................................................................................................................................................................................",
"........@@++++++++++++++++++++++++++++++++++++++++++++++++++++++++++++++##....@@+++$$$$$$++++++$$$$$$++++++$$$$$$+++++##........++..............................................................................................................................................................................................",
"........@@++++++++++++++++++++++++++++++++++++++++++++++++++++++++++++++##....@@++++$$$$++++++++$$$$++++++++$$$$++++++##........++..............................................................................................................................................................................................",
"........@@++++++++++++++++++++++++++++++++++++++++++++++++++++++++++++++##....@@++++++++++++++++++++++++++++++++++++++##........++..............................................................................................................................................................................................",
"........@@++++++++++++++++++++++++++++++++++++++++++++++++++++++++++++++##....@@++++++++++++++++++++++++++++++++++++++##........++..............................................................................................................................................................................................",
"........@@++++++++++++++++++++++++++++++++++++++++++++++++++++++++++++++##....@@++++++++++++++++++++++++++++++++++++++##........++..............................................................................................................................................................................................",
"........@@++++++++++++++++++++++++++++++++++++++++++++++++++++++++++++++##....@@++++++++++++++++++++++++++++++++++++++##........++..............................................................................................................................................................................................",
"........@@++++++++++++++++++++++++++++++++++++++++++++++++++++++++++++++##....@@++++++++++++++++++++++++++++++++++++++##........++..............................................................................................................................................................................................",
"........@@++++++++++++++++++++++++++++++++++++++++++++++++++++++++++++++##....@@++++++++++++++++++++++++++++++++++++++##........++..............................................................................................................................................................................................",
"........@@++++++++++++++++++++++++++++++++++++++++++++++++++++++++++++++##....@@++++++++++++++++++++++++++++++++++++++##........++..............................................................................................................................................................................................",
"........@@++++++++++++++++++++++++++++++++++++++++++++++++++++++++++++++##....@@++++++++++++++++++++++++++++++++++++++##........++..............................................................................................................................................................................................",
"........##################################################################....##########################################........++..............................................................................................................................................................................................",
"........##################################################################....##########################################........++..............................................................................................................................................................................................",
"................................................................................................................................++..............................................................................................................................................................................................",
"................................................................................................................................++..............................................................................................................................................................................................",
"................................................................................................................................++..............................................................................................................................................................................................",
"................................................................................................................................++..............................................................................................................................................................................................",
"........@@@@@@@@@@@@@@@@@@@@@@@@@@@@@@@@@@@@@@@@@@@@@@@@@@@@@@@@@@@@@@@@@@@@@@@@@@@@@@@@@@@@@@@@@@@@@@@@@@@@@@@@@@@@@@@@........++..............................................................................................................................................................................................",
"........@@@@@@@@@@@@@@@@@@@@@@@@@@@@@@@@@@@@@@@@@@@@@@@@@@@@@@@@@@@@@@@@@@@@@@@@@@@@@@@@@@@@@@@@@@@@@@@@@@@@@@@@@@@@@@@@........++..............................................................................................................................................................................................",
"........@@++++++++++++++++++++++++++++++++++++++++++++++++++++++++++++++++++++++++++++++++++++++++++++++++++++++++++++##........++..............................................................................................................................................................................................",
"........@@++++++++++++++++++++++++++++++++++++++++++++++++++++++++++++++++++++++++++++++++++++++++++++++++++++++++++++##........++..............................................................................................................................................................................................",
"........@@++++++++++++++++++++++++++++++++++++++++++++++++++++++++++++++++++++++++++++++++++++++++++++++++++++++++++++##........++..............................................................................................................................................................................................",
"........@@++++++++++++++++++++++++++++++++++++++++++++++++++++++++++++++++++++++++++++++++++++++++++++++++++++++++++++##........++..............................................................................................................................................................................................",
"........@@++++++++++++++++++++++++++++++++++++++++++++++++++++++++++++++++++++++++++++++++++++++++++++++++++++++++++++##........++..............................................................................................................................................................................................",
"........@@++++++++++++++++++++++++++++++++++++++++++++++++++++++++++++++++++++++++++++++++++++++++++++++++++++++++++++##........++..............................................................................................................................................................................................",
"........@@++++++++++++++++++++++++++++++++++++++++++++++++++++++++++++++++++++++++++++++++++++++++++++++++++++++++++++##........++..............................................................................................................................................................................................",
"........@@++++++++++++++++++++++++++++++++++++++++++++++++++++++++++++++++++++++++++++++++++++++++++++++++++++++++++++##........++..............................................................................................................................................................................................",
"........@@++++++++++++++++++++++++++++++++++++++++++++++++++++++++++++++++++++++++++++++++++++++++++++++++++++++++++++##........++..............................................................................................................................................................................................",
"........@@++++++++++++++++++++++++++++++++++++++++++++++++++++++++++++++++++++++++++++++++++++++++++++++++++++++++++++##........++..............................................................................................................................................................................................",
"........@@++++++++++++++++++++++++++++++++++++++++++++++++++++++++++++++++++++++++++++++++++++++++++++++++++++++++++++##........++..............................................................................................................................................................................................",
"........@@++++++++++++++++++++++++++++++++++++++++++++++++++++++++++++++++++++++++++++++++++++++++++++++++++++++++++++##........++..............................................................................................................................................................................................",
"........@@++++++++++++++++++++++++++++++++++++++++++++++++++++++++++++++++++++++++++++++++++++++++++++++++++++++++++++##........++..............................................................................................................................................................................................",
"........@@++++++++++++++++++++++++++++++++++++++++++++++++++++++++++++++++++++++++++++++++++++++++++++++++++++++++++++##........++..............................................................................................................................................................................................",
"........@@++++++++++++++++++++++++++++++++++++++++++++++++++++++++++++++++++++++++++++++++++++++++++++++++++++++++++++##........++..............................................................................................................................................................................................",
"........@@++++++++++++++++++++++++++++++++++++++++++++++++++++++++++++++++++++++++++++++++++++++++++++++++++++++++++++##........++..............................................................................................................................................................................................",
"........@@++++++++++++++++++++++++++++++++++++++++++++++++++++++++++++++++++++++++++++++++++++++++++++++++++++++++++++##........++..............................................................................................................................................................................................",
"........@@++++++++++++++++++++++++++++++++++++++++++++++++++++++++++++++++++++++++++++++++++++++++++++++++++++++++++++##........++..............................................................................................................................................................................................",
"........@@++++++++++++++++++++++++++++++++++++++++++++++++++++++++++++++++++++++++++++++++++++++++++++++++++++++++++++##........++..............................................................................................................................................................................................",
"........@@++++++++++++++++++++++++++++++++++++++++++++++++++++++++++++++++++++++++++++++++++++++++++++++++++++++++++++##........++..............................................................................................................................................................................................",
"........@@++++++++++++++++++++++++++++++++++++++++++++++++++++++++++++++++++++++++++++++++++++++++++++++++++++++++++++##........++..............................................................................................................................................................................................",
"........@@++++++++++++++++++++++++++++++++++++++++++++++++++++++++++++++++++++++++++++++++++++++++++++++++++++++++++++##........++..............................................................................................................................................................................................",
"........@@++++++++++++++++++++++++++++++++++++++++++++++++++++++++++++++++++++++++++++++++++++++++++++++++++++++++++++##........++..............................................................................................................................................................................................",
"........@@++++++++++++++++++++++++++++++++++++++++++++++++++++++++++++++++++++++++++++++++++++++++++++++++++++++++++++##........++..............................................................................................................................................................................................",
"........@@++++++++++++++++++++++++++++++++++++++++++++++++++++++++++++++++++++++++++++++++++++++++++++++++++++++++++++##........++..............................................................................................................................................................................................",
"........@@++++++++++++++++++++++++++++++++++++++++++++++++++++++++++++++++++++++++++++++++++++++++++++++++++++++++++++##........++..............................................................................................................................................................................................",
"........@@++++++++++++++++++++++++++++++++++++++++++++++++++++++++++++++++++++++++++++++++++++++++++++++++++++++++++++##........++..............................................................................................................................................................................................",
"........@@++++++++++++++++++++++++++++++++++++++++++++++++++++++++++++++++++++++++++++++++++++++++++++++++++++++++++++##........++..............................................................................................................................................................................................",
"........@@++++++++++++++++++++++++++++++++++++++++++++++++++++++++++++++++++++++++++++++++++++++++++++++++++++++++++++##........++..............................................................................................................................................................................................",
"........@@++++++++++++++++++++++++++++++++++++++++++++++++++++++++++++++++++++++++++++++++++++++++++++++++++++++++++++##........++..............................................................................................................................................................................................",
"........@@++++++++++++++++++++++++++++++++++++++++++++++++++++++++++++++++++++++++++++++++++++++++++++++++++++++++++++##........++..............................................................................................................................................................................................",
"........@@++++++++++++++++++++++++++++++++++++++++++++++++++++++++++++++++++++++++++++++++++++++++++++++++++++++++++++##........++..............................................................................................................................................................................................",
"........@@++++++++++++++++++++++++++++++++++++++++++++++++++++++++++++++++++++++++++++++++++++++++++++++++++++++++++++##........++..............................................................................................................................................................................................",
"........@@++++++++++++++++++++++++++++++++++++++++++++++++++++++++++++++++++++++++++++++++++++++++++++++++++++++++++++##........++..............................................................................................................................................................................................",
"........@@++++++++++++++++++++++++++++++++++++++++++++++++++++++++++++++++++++++++++++++++++++++++++++++++++++++++++++##........++..............................................................................................................................................................................................",
"........@@++++++++++++++++++++++++++++++++++++++++++++++++++++++++++++++++++++++++++++++++++++++++++++++++++++++++++++##........++..............................................................................................................................................................................................",
"........@@++++++++++++++++++++++++++++++++++++++++++++++++++++++++++++++++++++++++++++++++++++++++++++++++++++++++++++##........++..............................................................................................................................................................................................",
"........@@++++++++++++++++++++++++++++++++++++++++++++++++++++++++++++++++++++++++++++++++++++++++++++++++++++++++++++##........++..............................................................................................................................................................................................",
"........@@++++++++++++++++++++++++++++++++++++++++++++++++++++++++++++++++++++++++++++++++++++++++++++++++++++++++++++##........++..............................................................................................................................................................................................",
"........@@++++++++++++++++++++++++++++++++++++++++++++++++++++++++++++++++++++++++++++++++++++++++++++++++++++++++++++##........++..............................................................................................................................................................................................",
"........@@++++++++++++++++++++++++++++++++++++++++++++++++++++++++++++++++++++++++++++++++++++++++++++++++++++++++++++##........++..............................................................................................................................................................................................",
"........@@++++++++++++++++++++++++++++++++++++++++++++++++++++++++++++++++++++++++++++++++++++++++++++++++++++++++++++##........++..............................................................................................................................................................................................",
"........@@++++++++++++++++++++++++++++++++++++++++++++++++++++++++++++++++++++++++++++++++++++++++++++++++++++++++++++##........++..............................................................................................................................................................................................",
"........@@++++++++++++++++++++++++++++++++++++++++++++++++++++++++++++++++++++++++++++++++++++++++++++++++++++++++++++##........++..............................................................................................................................................................................................",
"........@@++++++++++++++++++++++++++++++++++++++++++++++++++++++++++++++++++++++++++++++++++++++++++++++++++++++++++++##........++..............................................................................................................................................................................................",
"........@@++++++++++++++++++++++++++++++++++++++++++++++++++++++++++++++++++++++++++++++++++++++++++++++++++++++++++++##........++..............................................................................................................................................................................................",
"........@@++++++++++++++++++++++++++++++++++++++++++++++++++++++++++++++++++++++++++++++++++++++++++++++++++++++++++++##........++..............................................................................................................................................................................................",
"........@@++++++++++++++++++++++++++++++++++++++++++++++++++++++++++++++++++++++++++++++++++++++++++++++++++++++++++++##........++..............................................................................................................................................................................................",
"........@@++++++++++++++++++++++++++++++++++++++++++++++++++++++++++++++++++++++++++++++++++++++++++++++++++++++++++++##........++..............................................................................................................................................................................................",
"........@@++++++++++++++++++++++++++++++++++++++++++++++++++++++++++++++++++++++++++++++++++++++++++++++++++++++++++++##........++..............................................................................................................................................................................................",
"........@@++++++++++++++++++++++++++++++++++++++++++++++++++++++++++++++++++++++++++++++++++++++++++++++++++++++++++++##........++..............................................................................................................................................................................................",
"........@@++++++++++++++++++++++++++++++++++++++++++++++++++++++++++++++++++++++++++++++++++++++++++++++++++++++++++++##........++..............................................................................................................................................................................................",
"........@@++++++++++++++++++++++++++++++++++++++++++++++++++++++++++++++++++++++++++++++++++++++++++++++++++++++++++++##........++..............................................................................................................................................................................................",
"........@@++++++++++++++++++++++++++++++++++++++++++++++++++++++++++++++++++++++++++++++++++++++++++++++++++++++++++++##........++..............................................................................................................................................................................................",
"........@@++++++++++++++++++++++++++++++++++++++++++++++++++++++++++++++++++++++++++++++++++++++++++++++++++++++++++++##........++..............................................................................................................................................................................................",
"........@@++++++++++++++++++++++++++++++++++++++++++++++++++++++++++++++++++++++++++++++++++++++++++++++++++++++++++++##........++..............................................................................................................................................................................................",
"........@@++++++++++++++++++++++++++++++++++++++++++++++++++++++++++++++++++++++++++++++++++++++++++++++++++++++++++++##........++..............................................................................................................................................................................................",
"........@@++++++++++++++++++++++++++++++++++++++++++++++++++++++++++++++++++++++++++++++++++++++++++++++++++++++++++++##........++..............................................................................................................................................................................................",
"........@@++++++++++++++++++++++++++++++++++++++++++++++++++++++++++++++++++++++++++++++++++++++++++++++++++++++++++++##........++..............................................................................................................................................................................................",
"........@@++++++++++++++++++++++++++++++++++++++++++++++++++++++++++++++++++++++++++++++++++++++++++++++++++++++++++++##........++..............................................................................................................................................................................................",
"........@@++++++++++++++++++++++++++++++++++++++++++++++++++++++++++++++++++++++++++++++++++++++++++++++++++++++++++++##........++..............................................................................................................................................................................................",
"........@@++++++++++++++++++++++++++++++++++++++++++++++++++++++++++++++++++++++++++++++++++++++++++++++++++++++++++++##........++..............................................................................................................................................................................................",
"........@@++++++++++++++++++++++++++++++++++++++++++++++++++++++++++++++++++++++++++++++++++++++++++++++++++++++++++++##........++..............................................................................................................................................................................................",
"........@@++++++++++++++++++++++++++++++++++++++++++++++++++++++++++++++++++++++++++++++++++++++++++++++++++++++++++++##........++..............................................................................................................................................................................................",
"........@@++++++++++++++++++++++++++++++++++++++++++++++++++++++++++++++++++++++++++++++++++++++++++++++++++++++++++++##........++..............................................................................................................................................................................................",
"........@@++++++++++++++++++++++++++++++++++++++++++++++++++++++++++++++++++++++++++++++++++++++++++++++++++++++++++++##........++..............................................................................................................................................................................................",
"........@@++++++++++++++++++++++++++++++++++++++++++++++++++++++++++++++++++++++++++++++++++++++++++++++++++++++++++++##........++..............................................................................................................................................................................................",
"........@@++++++++++++++++++++++++++++++++++++++++++++++++++++++++++++++++++++++++++++++++++++++++++++++++++++++++++++##........++..............................................................................................................................................................................................",
"........@@++++++++++++++++++++++++++++++++++++++++++++++++++++++++++++++++++++++++++++++++++++++++++++++++++++++++++++##........++..............................................................................................................................................................................................",
"........@@++++++++++++++++++++++++++++++++++++++++++++++++++++++++++++++++++++++++++++++++++++++++++++++++++++++++++++##........++..............................................................................................................................................................................................",
"........@@++++++++++++++++++++++++++++++++++++++++++++++++++++++++++++++++++++++++++++++++++++++++++++++++++++++++++++##........++..............................................................................................................................................................................................",
"........@@++++++++++++++++++++++++++++++++++++++++++++++++++++++++++++++++++++++++++++++++++++++++++++++++++++++++++++##........++..............................................................................................................................................................................................",
"........@@++++++++++++++++++++++++++++++++++++++++++++++++++++++++++++++++++++++++++++++++++++++++++++++++++++++++++++##........++..............................................................................................................................................................................................",
"........@@++++++++++++++++++++++++++++++++++++++++++++++++++++++++++++++++++++++++++++++++++++++++++++++++++++++++++++##........++..............................................................................................................................................................................................",
"........@@++++++++++++++++++++++++++++++++++++++++++++++++++++++++++++++++++++++++++++++++++++++++++++++++++++++++++++##........++..............................................................................................................................................................................................",
"........@@++++++++++++++++++++++++++++++++++++++++++++++++++++++++++++++++++++++++++++++++++++++++++++++++++++++++++++##........++..............................................................................................................................................................................................",
"........@@++++++++++++++++++++++++++++++++++++++++++++++++++++++++++++++++++++++++++++++++++++++++++++++++++++++++++++##........++..............................................................................................................................................................................................",
"........@@++++++++++++++++++++++++++++++++++++++++++++++++++++++++++++++++++++++++++++++++++++++++++++++++++++++++++++##........++..............................................................................................................................................................................................",
"........@@++++++++++++++++++++++++++++++++++++++++++++++++++++++++++++++++++++++++++++++++++++++++++++++++++++++++++++##........++..............................................................................................................................................................................................",
"........@@++++++++++++++++++++++++++++++++++++++++++++++++++++++++++++++++++++++++++++++++++++++++++++++++++++++++++++##........++..............................................................................................................................................................................................",
"........################################################################################################################........++..............................................................................................................................................................................................",
"........################################################################################################################........++..............................................................................................................................................................................................",
"................................................................................................................................++..............................................................................................................................................................................................",
"................................................................................................................................++..............................................................................................................................................................................................",
"................................................................................................................................++..............................................................................................................................................................................................",
"................................................................................................................................++..............................................................................................................................................................................................",
"................................................................................................................................++..............................................................................................................................................................................................",
"................................................................................................................................++..............................................................................................................................................................................................",
"................................................................................................................................++..............................................................................................................................................................................................",
"................................................................................................................................++..............................................................................................................................................................................................",
"++++++++++++++++++++++++++++++++++++++++++++++++++++++++++++++++++++++++++++++++++++++++++++++++++++++++++++++++++++++++++++++++++++++++++++++++++++++++++++++..................................................................................................................................................................",
"++++++++++++++++++++++++++++++++++++++++++++++++++++++++++++++++++++++++++++++++++++++++++++++++++++++++++++++++++++++++++++++++++++++++++++++++++++++++++++++..................................................................................................................................................................",
"++++%%%%%%++++++&&&&&&**++**%%%%%%**++**%%%%%%**++**&&&&&&**++**%%%%%%**++**%%%%%%**++**%%%%%%**++**%%%%%%**++**%%%%%%**++++++++++++++++++++++++++++++++++++++..................................................................................................................................................................",
"++++%%%%%%++++++&&&&&&**++**%%%%%%**++**%%%%%%**++**&&&&&&**++**%%%%%%**++**%%%%%%**++**%%%%%%**++**%%%%%%**++**%%%%%%**++++++++++++++++++++++++++++++++++++++..................................................................................................................................................................",
"++%%++++++%%++&&++++++%%++&&++++++%%++&&++++++%%++%%++++++%%++%%++++++&&++%%++++++&&++&&++++++%%++%%++++++%%++%%++++++%%++++++++++++++++++++++++%%++++++++++++....++====++....++----++....++$$$$++..............................................................................................................................",
"++%%++++++%%++&&++++++%%++&&++++++%%++&&++++++%%++%%++++++%%++%%++++++&&++%%++++++&&++&&++++++%%++%%++++++%%++%%++++++%%++++++++++++++++++++++++%%++++++++++++....+======+....+------+....+$$$$$$+..............................................................................................................................",
"++%%++++++%%++&&++++++%%++&&++++++%%++&&++++++%%++%%++++++%%++%%++++++&&++%%++++++&&++&&++++++%%++%%++++++%%++%%++++++%%++++++++++++++%%++++++++%%++++++++++++....==;;====....--;;----....$$$$$$$$..............................................................................................................................",
"++%%++++++%%++&&++++++%%++&&++++++%%++&&++++++%%++%%++++++%%++%%++++++&&++%%++++++&&++&&++++++%%++%%++++++%%++%%++++++%%++++++++++++++%%++++++++%%++++++++++++....==;;====....--;;----....$$$$$$$$..............................................................................................................................",
"++**&&&&&&**++++&&&&&&**++**%%%%%%**++++%%%%%%**++**%%%%%%**++**%%%%%%**++**%%%%%%**++++&&&&&&**++**%%%%%%**++**%%%%%%**++++**%%++++++**++++++%%++++++++++++++....========....--------....$$$$$$$$......++%%**>>................................................................................................................",
"++**&&&&&&**++++&&&&&&**++**%%%%%%**++++%%%%%%**++**%%%%%%**++**%%%%%%**++**%%%%%%**++++&&&&&&**++**%%%%%%**++**%%%%%%**++++**%%++++++**++++++%%++++++++++++++....========....--------....$$$$$$$$......++%%**>>................................................................................................................",
"++%%++++++%%++&&++++++%%++%%++++++&&++&&++++++%%++&&++++++%%++&&++++++%%++%%++++++%%++&&++++++%%++%%++++++%%++&&++++++%%++++++++++++++++++++++%%++++++++++++++....+======+....+------+....+$$$$$$+..............................................................................................................................",
"++%%++++++%%++&&++++++%%++%%++++++&&++&&++++++%%++&&++++++%%++&&++++++%%++%%++++++%%++&&++++++%%++%%++++++%%++&&++++++%%++++++++++++++++++++++%%++++++++++++++....++====++....++----++....++$$$$++..............................................................................................................................",
"++%%++++++%%++&&++++++%%++%%++++++&&++&&++++++%%++&&++++++%%++&&++++++%%++%%++++++%%++&&++++++%%++%%++++++%%++&&++++++%%++++++++++++++%%++++%%++++++++++++++++..................................................................................................................................................................",
"++%%++++++%%++&&++++++%%++%%++++++&&++&&++++++%%++&&++++++%%++&&++++++%%++%%++++++%%++&&++++++%%++%%++++++%%++&&++++++%%++++++++++++++%%++++%%++++++++++++++++..................................................................................................................................................................",
"++++%%%%%%++++++&&&&&&**++**%%%%%%**++**%%%%%%**++++&&&&&&**++**%%%%%%**++**%%%%%%**++++&&&&&&**++**%%%%%%**++**%%%%%%**++++++++++++++**++++%%++++++++++++++++..................................................................................................................................................................",
"++++%%%%%%++++++&&&&&&**++**%%%%%%**++**%%%%%%**++++&&&&&&**++**%%%%%%**++**%%%%%%**++++&&&&&&**++**%%%%%%**++**%%%%%%**++++++++++++++**++++%%++++++++++++++++..................................................................................................................................................................",
"++++++++++++++++++++++++++++++++++++++++++++++++++++++++++++++++++++++++++++++++++++++++++++++++++++++++++++++++++++++++++++++++++++++++++++++++++++++++++++++..................................................................................................................................................................",
"++++++++++++++++++++++++++++++++++++++++++++++++++++++++++++++++++++++++++++++++++++++++++++++++++++++++++++++++++++++++++++++++++++++++++++++++++++++++++++++..................................................................................................................................................................",
"................................................................................................................................................................................................................................................................................................................................",
"................................................................................................................................................................................................................................................................................................................................",
"++++++++++++++++++++++++++++++++++++++++++++++++++++++++++++++++++++++++++++++++++++++++++++++++++++++++++++++++++++++++++++++++++++++++++++++++++++++++++++++++++++++++++++++++++++++++++++++++++++++++++++++++++++++++++++++++++++++++++++++++++++++++++++++++++++++++++++++++++++++++++++++++++++++++++++++++++++++++++++++++",
"++++++++++++++++++++++++++++++++++++++++++++++++++++++++++++++++++++++++++++++++++++++++++++++++++++++++++++++++++++++++++++++++++++++++++++++++++++++++++++++++++++++++++++++++++++++++++++++++++++++++++++++++++++++++++++++++++++++++++++++++++++++++++++++++++++++++++++++++++++++++++++++++++++++++++++++++++++++++++++++++",
"++&&%%%%%%&&++**%%%%%%++++++%%%%%%**++**%%%%%%++++**%%%%%%**++**%%%%%%**++**%%%%%%**++**&&&&&&**++++&&&&&&**++++&&&&&&**++**&&&&&&**++**&&&&&&++++%%&&&&&&%%++**%%%%%%++++**%%%%%%**++**%%%%%%**++**%%%%%%**++**%%%%%%**++**%%%%%%**++**%%%%%%**++**&&&&&&**++**&&&&&&**++**&&&&&&**++**&&&&&&**++**&&&&&&**++**%%%%%%**++++++++",
"++&&%%%%%%&&++**%%%%%%++++++%%%%%%**++**%%%%%%++++**%%%%%%**++**%%%%%%**++**%%%%%%**++**&&&&&&**++++&&&&&&**++++&&&&&&**++**&&&&&&**++**&&&&&&++++%%&&&&&&%%++**%%%%%%++++**%%%%%%**++**%%%%%%**++**%%%%%%**++**%%%%%%**++**%%%%%%**++**%%%%%%**++**&&&&&&**++**&&&&&&**++**&&&&&&**++**&&&&&&**++**&&&&&&**++**%%%%%%**++++++++",
"++%%++++++%%++%%++++++%%++%%++++++&&++%%++++++%%++%%++++++&&++%%++++++&&++%%++++++&&++%%++++++%%++&&++++++%%++&&++++++%%++%%++++++%%++%%++++++&&++%%%%++%%%%++%%++++++%%++%%++++++%%++%%++++++%%++%%++++++%%++%%++++++%%++%%++++++&&++&&++%%++&&++%%++++++%%++%%++++++%%++%%++++++%%++%%++++++%%++%%++++++%%++&&++++++%%++++++++",
"++%%++++++%%++%%++++++%%++%%++++++&&++%%++++++%%++%%++++++&&++%%++++++&&++%%++++++&&++%%++++++%%++&&++++++%%++&&++++++%%++%%++++++%%++%%++++++&&++%%%%++%%%%++%%++++++%%++%%++++++%%++%%++++++%%++%%++++++%%++%%++++++%%++%%++++++&&++&&++%%++&&++%%++++++%%++%%++++++%%++%%++++++%%++%%++++++%%++%%++++++%%++&&++++++%%++++++++",
"++%%++++++%%++%%++++++%%++%%++++++&&++%%++++++%%++%%++++++&&++%%++++++&&++%%++++++&&++%%++++++%%++&&++++++%%++&&++++++%%++%%++++++%%++%%++++++&&++%%++%%++%%++%%++++++%%++%%++++++%%++%%++++++%%++%%++++++%%++%%++++++%%++%%++++++&&++&&++%%++&&++%%++++++%%++%%++++++%%++%%++++++%%++++%%++%%++++%%++++++%%++&&++++%%&&++++++++",
"++%%++++++%%++%%++++++%%++%%++++++&&++%%++++++%%++%%++++++&&++%%++++++&&++%%++++++&&++%%++++++%%++&&++++++%%++&&++++++%%++%%++++++%%++%%++++++&&++%%++%%++%%++%%++++++%%++%%++++++%%++%%++++++%%++%%++++++%%++%%++++++%%++%%++++++&&++&&++%%++&&++%%++++++%%++%%++++++%%++%%++++++%%++++%%++%%++++%%++++++%%++&&++++%%&&++++++++",
"++**%%%%%%**++**%%%%%%++++**&&&&&&++++**&&&&&&**++**%%%%%%++++**%%%%%%++++**&&**%%**++**%%%%%%**++++&&&&&&**++++&&&&&&**++**%%%%%%++++**&&&&&&++++**&&&&&&**++**&&&&&&**++**&&&&&&**++**%%%%%%**++**%%&&&&**++**%%%%%%++++**%%%%%%**++++&&**&&++++**&&&&&&**++**&&&&&&**++**&&&&&&**++++++%%++++++**%%%%%%**++++&&%%&&++++++++++",
"++**%%%%%%**++**%%%%%%++++**&&&&&&++++**&&&&&&**++**%%%%%%++++**%%%%%%++++**&&**%%**++**%%%%%%**++++&&&&&&**++++&&&&&&**++**%%%%%%++++**&&&&&&++++**&&&&&&**++**&&&&&&**++**&&&&&&**++**%%%%%%**++**%%&&&&**++**%%%%%%++++**%%%%%%**++++&&**&&++++**&&&&&&**++**&&&&&&**++**&&&&&&**++++++%%++++++**%%%%%%**++++&&%%&&++++++++++",
"++%%++++++%%++%%++++++%%++%%++++++&&++%%++++++%%++%%++++++&&++%%++++++&&++%%++++++%%++%%++++++%%++&&++++++%%++&&++++++%%++%%++++++%%++%%++++++&&++%%++++++%%++%%++++++%%++%%++++++%%++%%++++++&&++%%++%%++%%++%%++++++%%++&&++++++%%++&&++%%++&&++%%++++++%%++%%++++++%%++%%++%%++%%++++%%++%%++++&&++++++%%++&&%%++++&&++++++++",
"++%%++++++%%++%%++++++%%++%%++++++&&++%%++++++%%++%%++++++&&++%%++++++&&++%%++++++%%++%%++++++%%++&&++++++%%++&&++++++%%++%%++++++%%++%%++++++&&++%%++++++%%++%%++++++%%++%%++++++%%++%%++++++&&++%%++%%++%%++%%++++++%%++&&++++++%%++&&++%%++&&++%%++++++%%++%%++++++%%++%%++%%++%%++++%%++%%++++&&++++++%%++&&%%++++&&++++++++",
"++%%++++++%%++%%++++++%%++%%++++++&&++%%++++++%%++%%++++++&&++%%++++++&&++%%++++++%%++%%++++++%%++&&++++++%%++&&++++++%%++%%++++++%%++%%++++++&&++%%++++++%%++%%++++++%%++%%++++++%%++%%++++++&&++%%++++%%%%++%%++++++%%++&&++++++%%++&&++%%++&&++%%++++++%%++%%++++++%%++%%%%++%%%%++%%++++++%%++&&++++++%%++%%++++++&&++++++++",
"++%%++++++%%++%%++++++%%++%%++++++&&++%%++++++%%++%%++++++&&++%%++++++&&++%%++++++%%++%%++++++%%++&&++++++%%++&&++++++%%++%%++++++%%++%%++++++&&++%%++++++%%++%%++++++%%++%%++++++%%++%%++++++&&++%%++++%%%%++%%++++++%%++&&++++++%%++&&++%%++&&++%%++++++%%++%%++++++%%++%%%%++%%%%++%%++++++%%++&&++++++%%++%%++++++&&++++++++",
"++**&&&&&&**++**%%%%%%++++++%%%%%%**++**%%%%%%++++**%%%%%%**++**&&&&&&++++**%%%%%%**++**&&&&&&**++++&&&&&&**++**%%%%%%**++**&&&&&&**++**%%%%%%**++**&&&&&&**++**&&&&&&**++**%%%%%%**++**&&&&&&++++**%%%%%%**++**&&&&&&**++**%%%%%%**++++&&**&&++++**%%%%%%%%++++%%%%%%++++**&&&&&&**++**&&&&&&**++**%%%%%%**++**%%%%%%**++++++++",
"++**&&&&&&**++**%%%%%%++++++%%%%%%**++**%%%%%%++++**%%%%%%**++**&&&&&&++++**%%%%%%**++**&&&&&&**++++&&&&&&**++**%%%%%%**++**&&&&&&**++**%%%%%%**++**&&&&&&**++**&&&&&&**++**%%%%%%**++**&&&&&&++++**%%%%%%**++**&&&&&&**++**%%%%%%**++++&&**&&++++**%%%%%%%%++++%%%%%%++++**&&&&&&**++**&&&&&&**++**%%%%%%**++**%%%%%%**++++++++",
"++++++++++++++++++++++++++++++++++++++++++++++++++++++++++++++++++++++++++++++++++++++++++++++++++++++++++++++++++++++++++++++++++++++++++++++++++++++++++++++++++++++++++++++++++++++++++++++++++++++++++++++++++++++++++++++++++++++++++++++++++++++++++++++++++++++++++++++++++++++++++++++++++++++++++++++++++++++++++++++++",
"++++++++++++++++++++++++++++++++++++++++++++++++++++++++++++++++++++++++++++++++++++++++++++++++++++++++++++++++++++++++++++++++++++++++++++++++++++++++++++++++++++++++++++++++++++++++++++++++++++++++++++++++++++++++++++++++++++++++++++++++++++++++++++++++++++++++++++++++++++++++++++++++++++++++++++++++++++++++++++++++",
"................................................................................................................................................................................................................................................................................................................................",
"................................................................................................................................................................................................................................................................................................................................",
"........@@++++++++++++++++++++++++++++++++++++++++++++++++++++++++++++++##....@@++++++++++++++++++++++++++++++++++++++##........++..............................................................................................................................................................................................",
"........@@++++++++++++++++++++++++++++++++++++++++++++++++++++++++++++++##....@@++++++++++++++++++++++++++++++++++++++##........++..............................................................................................................................................................................................",
"..........++++++++++++++++++++++++++++++++++++++++++++++++++++++++++++++........................................................................................................................................................................................................................................................",
"..........++++++++++++++++++++++++++++++++++++++++++++++++++++++++++++++........................................................................................................................................................................................................................................................",
"..........++++++++++++++++++++++++++++++++++++++++++++++++++++++++++++++........................................................................................................................................................................................................................................................",
"..........++++++++++++++++++++++++++++++++++++++++++++++++++++++++++++++........................................................................................................................................................................................................................................................",
"..........++++++++++++++++++++++++++++++++++++++++++++++++++++++++++++++........................................................................................................................................................................................................................................................",
"..........++++++++++++++++++++++++++++++++++++++++++++++++++++++++++++++........................................................................................................................................................................................................................................................",
"..........++++++++++++++++++++++++++++++++++++++++++++++++++++++++++++++........................................................................................................................................................................................................................................................",
"..........++++++++++++++++++++++++++++++++++++++++++++++++++++++++++++++........................................................................................................................................................................................................................................................",
"..........++++++++++++++++++++++++++++++++++++++++++++++++++++++++++++++........................................................................................................................................................................................................................................................",
"..........++++++++++++++++++++++++++++++++++++++++++++++++++++++++++++++........................................................................................................................................................................................................................................................",
"..........++++++++++++++++++++++++++++++++++++++++++++++++++++++++++++++........................................................................................................................................................................................................................................................",
"..........++++++++++++++++++++++++++++++++++++++++++++++++++++++++++++++........................................................................................................................................................................................................................................................",
"..........++++++++++++++++++++++++++++++++++++++++++++++++++++++++++++++........................................................................................................................................................................................................................................................",
"..........++++++++++++++++++++++++++++++++++++++++++++++++++++++++++++++........................................................................................................................................................................................................................................................",
"..........++++++++++++++++++++++++++++++++++++++++++++++++++++++++++++++........................................................................................................................................................................................................................................................",
"..........++++++++++++++++++++++++++++++++++++++++++++++++++++++++++++++........................................................................................................................................................................................................................................................",
"..........++++++++++++++++++++++++++++++++++++++++++++++++++++++++++++++........................................................................................................................................................................................................................................................",
"..........++++++++++++++++++++++++++++++++++++++++++++++++++++++++++++++........................................................................................................................................................................................................................................................",
"................................................................................................................................................................................................................................................................................................................................",
"................................................................................................................................................................................................................................................................................................................................",
"................................................................................................................................................................................................................................................................................................................................",
"................................................................................................................................................................................................................................................................................................................................",
"................................................................................................................................................................................................................................................................................................................................",
"................................................................................................................................................................................................................................................................................................................................",
"................................................................................................................................................................................................................................................................................................................................",
"................................................................................................................................................................................................................................................................................................................................",
"................................................................................................................................................................................................................................................................................................................................",
"................................................................................................................................................................................................................................................................................................................................",
"................................................................................................................................................................................................................................................................................................................................",
"................................................................................................................................................................................................................................................................................................................................"};
