/* XPM */
static char * master_xpm[] = {
"134 148 12 1",
" 	c None",
".	c #000000",
"+	c #A600FF",
"@	c #FFBF50",
"#	c #F000FF",
"$	c #FFFF00",
"%	c #FFC800",
"&	c #79BDBF",
"*	c #203233",
"=	c #142020",
"-	c #7F1111",
";	c #FFFFFF",
"                                                                ......................................................................",
"                                                                ......................................................................",
"                                                                ......................................................................",
"                                                                ......................................................................",
"    ++++++++++++++++++++++++++++++++++++++++++++++++++++++++    ...@@@.........@@.....................................................",
"    +......................................................#    ..@...@.........@.....................................................",
"    +......................................................#    ..@......@@@....@...@@.@..............................................",
"    +......................................................#    ..@.........@...@...@.@.@.............................................",
"    +......................................................#    ..@......@@@@...@...@.@.@.............................................",
"    +......................................................#    ..@...@.@...@...@...@.@.@.............................................",
"    +......................................................#    ...@@@...@@@@..@@@..@...@.............................................",
"    +......................................................#    ......................................................................",
"    +......................................................#    ......................................................................",
"    +......................................................#    ......................................................................",
"    +..........................$...........................#    ......................................................................",
"    +......................$$$$$$$$$.......................#    ......................................................................",
"    +....................$$$$$$$$$$$$......................#    ......................................................................",
"    +...................$$$$$$$$$$$$$$$....................#    ......................................................................",
"    +..................$$$$$$$$$$$$$$$$....................#    ......................................................................",
"    +..................$%%%%%%%%%%%%%%%$...................#    ......................................................................",
"    +.................$%%%%%%%%%%%%%%%%%$..................#    ......................................................................",
"    +.................%%%%%%%%%%%%%%%%%%%..................#    ......................................................................",
"    +................%%%%%%%%%%%%%%%%%%%%%.................#    ......................................................................",
"    +.................$$$$$$$$$$$$$$$$$$$..................#    ......................................................................",
"    +................$$$$$$$$$$$$$$$$$$$$..................#    ......................................................................",
"    +.................$$$$$$$$$$$$$$$$$$$..................#    ....@.....@....@@@..@@@@@....@..@@@@@...@@..@@@@@..@@@...@@@..........",
"    +................%%%%%%%%%%%%%%%%%%%%%.................#    ...@.@...@@...@...@.....@...@@..@......@........@.@...@.@...@.........",
"    +.................%%%%%%%%%%%%%%%%%%%..................#    ..@...@.@.@.......@....@...@.@..@.@@..@........@..@...@.@..@@.........",
"    +.................$%%%%%%%%%%%%%%%%%$..................#    ..@...@...@.....@@....@@..@..@..@@..@.@.@@.....@...@@@...@@.@.........",
"    +..................$%%%%%%%%%%%%%%%$...................#    ..@...@...@....@........@.@@@@@.....@.@@..@...@...@...@.....@.........",
"    +..................$$$$$$$$$$$$$$$$....................#    ...@.@....@...@.....@...@....@..@...@.@...@..@....@...@....@....@.....",
"    +...................$$$$$$$$$$$$$$$....................#    ....@...@@@@@.@@@@@..@@@.....@...@@@...@@@...@.....@@@...@@....@@@....",
"    +....................$$$$$$$$$$$$......................#    ................................................................@.....",
"    +......................$$$$$$$$$.......................#    ......................................................................",
"    +......................................................#    .........@............................................................",
"    +......................................................#    ........@.@.@@@@..@@............@..@......@...........................",
"    +......................................................#    .........@..@....@..@...........@..@......@..@........................",
"    +......................................................#    ............@@@..@....@.@..@.@..@@@@..@@@...@.........................",
"    +......................................................#    ..@@@@......@....@....@@@@.@@@@.@..@.@..@..@..........................",
"    +......................................................#    ............@....@..@.@..@.@..@.@..@..@@..@..@........................",
"    +......................................................#    ............@.....@@..@..@.@..@.@..@.@.......@........................",
"    +......................................................#    ......................................@@@.............................",
"    +......................................................#    ......................................................................",
"    +......................................................#    ..@..@.@..@..@@..@@@@.@..@.@@@..@@@...................................",
"    +......................................................#    ..@@.@.@..@.@..@.@....@..@.@..@.@..@..................................",
"    +......................................................#    ..@@.@.@..@..@...@@@..@..@.@..@.@@@...................................",
"    +......................................................#    ..@.@@.@@@@...@..@....@..@.@@@..@..@..................................",
"    +......................................................#    ..@.@@.@@@@.@..@.@.....@@..@.@..@..@..................................",
"    +......................................................#    ..@..@.@..@..@@..@@@@..@@..@..@.@@@...................................",
"    +......................................................#    ......................................................................",
"    +.&&...&&&.&&&.........................................#    ......................................................................",
"    +.&..&.&.*..&..&.......................................#    ......................................................................",
"    +.&..&.&&&..&..=.......................................#    ......................................................................",
"    +.&..&...&..&..=.......................................#    ......................................................................",
"    +.&&&..&&&..&..&.......................................#    ......................................................................",
"    +......................................................#    ......................................................................",
"    +......................................................#    ......................................................................",
"    +......................................................#    ...@....@....@@..@@@@...@..@@@@..@@..@@@@..@@...@@.......@............",
"    +......................................................#    ..@.@..@@...@..@....@..@@..@....@.......@.@..@.@..@......@..@.........",
"    ########################################################    ..@.@...@......@..@@..@.@..@@@..@@@....@...@@..@..@........@..........",
"                                                                ..@.@...@.....@.....@.@@@@....@.@..@...@..@..@..@@@.......@...@@@.....",
"                                                                ..@.@...@....@...@..@...@..@..@.@..@..@...@..@....@..@@..@..@.........",
"                                                                ...@...@@@..@@@@..@@....@...@@...@@...@....@@...@@...@@.....@.........",
"                                                                ......................................................................",
"......................................................................................................................................",
"......................................................................................................................................",
"......................................................................................................................................",
"......................................................................................................................................",
"......................................................................................................................................",
"......................................................................................................................................",
"......................................................................................................................................",
"......................................................................................................................................",
"......................................................................................................................................",
"......................................................................................................................................",
"......................................................................................................................................",
"......................................................................................................................................",
"......................................................................................................................................",
"......................................................................................................................................",
"......................................................................................................................................",
"......................................................................................................................................",
"...............................$......................................................................................................",
"...........................$$$$$$$$$..................................................................................................",
".........................$$$$$$$$$$$$.................................................................................................",
"........................$$$$$$$$$$$$$$$...............................................................................................",
".......................$$$$$$$$$$$$$$$$...............................................................................................",
".......................$%%%%%%%%%%%%%%%$..............................................................................................",
"......................$%%%%%%%%%%%%%%%%%$.............................................................................................",
"......................%%%%%%%%%%%%%%%%%%%.............................................................................................",
".....................%%%%%%%%%%%%%%%%%%%%%..............................------........................................................",
"......................$$$$$$$$$$$$$$$$$$$...............................------.;;.....................................................",
".....................$$$$$$$$$$$$$$$$$$$$...............................------.;;.....................................................",
"......................$$$$$$$$$$$$$$$$$$$...............................------........................................................",
".....................%%%%%%%%%%%%%%%%%%%%%............................................................................................",
"......................%%%%%%%%%%%%%%%%%%%.............................................................................................",
"......................$%%%%%%%%%%%%%%%%%$.............................................................................................",
".......................$%%%%%%%%%%%%%%%$..............................................................................................",
".......................$$$$$$$$$$$$$$$$...............................................................................................",
"........................$$$$$$$$$$$$$$$...............................................................................................",
".........................$$$$$$$$$$$$.................................................................................................",
"...........................$$$$$$$$$..................................................................................................",
"......................................................................................................................................",
"......................................................................................................................................",
"......................................................................................................................................",
"......................................................................................................................................",
"......................................................................................................................................",
"......................................................................................................................................",
"......................................................................................................................................",
"......................................................................................................................................",
"......................................................................................................................................",
"......................................................................................................................................",
"......................................................................................................................................",
"......................................................................................................................................",
"......................................................................................................................................",
"......................................................................................................................................",
"......................................................................................................................................",
"......................................................................................................................................",
"......................................................................................................................................",
"......&&&..&&&.&&&....................................................................................................................",
"......&..&.&....&..&..................................................................................................................",
"......&..&.&&&..&..=..................................................................................................................",
"......&..&...&..&..=..................................................................................................................",
"......&&&..&&&..&..&..................................................................................................................",
"......................................................................................................................................",
"......................................................................................................................................",
"......................................................................................................................................",
"......................................................................................................................................",
"......................................................................................................................................",
"......................................................................................................................................",
"...;;..;;;...;;..;;;..;;;;.;;;;..;;..;..;.;;;.....;.;..;.;....;..;.;..;..;;..;;;...;;..;;;...;;..;;;..;..;.;..;.;..;.;..;.;.;..;;;;...",
"..;..;.;..;.;..;.;..;.;....;....;..;.;..;..;......;.;.;..;....;;;;.;;.;.;..;.;..;.;..;.;..;.;..;..;...;..;.;..;.;..;.;..;.;.;.....;...",
"..;..;.;;;..;....;..;.;;;..;;;..;....;;;;..;......;.;;...;....;;;;.;;.;.;..;.;..;.;..;.;..;..;....;...;..;.;..;.;..;..;;..;.;....;....",
"..;;;;.;..;.;....;..;.;....;....;.;;.;..;..;......;.;;...;....;..;.;.;;.;..;.;;;..;..;.;;;....;...;...;..;.;..;.;;;;..;;...;....;.....",
"..;..;.;..;.;..;.;..;.;....;....;..;.;..;..;...;..;.;.;..;....;..;.;.;;.;..;.;....;;.;.;.;..;..;..;...;..;..;;..;;;;.;..;..;...;......",
"..;..;.;;;...;;..;;;..;;;;.;.....;;;.;..;.;;;...;;..;..;.;;;;.;..;.;..;..;;..;.....;;..;..;..;;...;....;;...;;..;..;.;..;..;...;;;;...",
"......................................................................................................................................",
"...;....;....;;..;;;;...;..;;;;..;;..;;;;..;;...;;....................................................................................",
"..;.;..;;...;..;....;..;;..;....;.......;.;..;.;..;..;................................................................................",
"..;.;...;......;..;;..;.;..;;;..;;;....;...;;..;..;...................................................................................",
"..;.;...;.....;.....;.;;;;....;.;..;...;..;..;..;;;...................................................................................",
"..;.;...;....;...;..;...;..;..;.;..;..;...;..;....;..;................................................................................",
"...;...;;;..;;;;..;;....;...;;...;;...;....;;...;;....................................................................................",
"......................................................................................................................................",
"......................................................................................................................................",
"......................................................................................................................................",
"......................................................................................................................................",
"......................................................................................................................................",
"......................................................................................................................................",
"......................................................................................................................................"};
